DDS/hdl_prj/quartus_prj/simulation/qsim/Subsystem_quartus.msim.vcd
$comment
	File created using the following command:
		vcd file Subsystem_quartus.msim.vcd -direction
$end
$date
	Thu Sep 14 20:33:04 2023
$end
$version
	ModelSim Version 10.4
$end
$timescale
	1ps
$end

$scope module Subsystem_quartus_vlg_vec_tst $end
$var reg 1 ! CLK $end
$var reg 16 " inc [15:0] $end
$var wire 1 # out [15] $end
$var wire 1 $ out [14] $end
$var wire 1 % out [13] $end
$var wire 1 & out [12] $end
$var wire 1 ' out [11] $end
$var wire 1 ( out [10] $end
$var wire 1 ) out [9] $end
$var wire 1 * out [8] $end
$var wire 1 + out [7] $end
$var wire 1 , out [6] $end
$var wire 1 - out [5] $end
$var wire 1 . out [4] $end
$var wire 1 / out [3] $end
$var wire 1 0 out [2] $end
$var wire 1 1 out [1] $end
$var wire 1 2 out [0] $end
$var wire 1 3 sampler $end

$scope module i1 $end
$var wire 1 4 gnd $end
$var wire 1 5 vcc $end
$var wire 1 6 unknown $end
$var tri1 1 7 devclrn $end
$var tri1 1 8 devpor $end
$var tri1 1 9 devoe $end
$var wire 1 : out[15]~output_o $end
$var wire 1 ; out[14]~output_o $end
$var wire 1 < out[13]~output_o $end
$var wire 1 = out[12]~output_o $end
$var wire 1 > out[11]~output_o $end
$var wire 1 ? out[10]~output_o $end
$var wire 1 @ out[9]~output_o $end
$var wire 1 A out[8]~output_o $end
$var wire 1 B out[7]~output_o $end
$var wire 1 C out[6]~output_o $end
$var wire 1 D out[5]~output_o $end
$var wire 1 E out[4]~output_o $end
$var wire 1 F out[3]~output_o $end
$var wire 1 G out[2]~output_o $end
$var wire 1 H out[1]~output_o $end
$var wire 1 I out[0]~output_o $end
$var wire 1 J CLK~input_o $end
$var wire 1 K CLK~inputclkctrl_outclk $end
$var wire 1 L inc[15]~input_o $end
$var wire 1 M inc[14]~input_o $end
$var wire 1 N inc[13]~input_o $end
$var wire 1 O inc[12]~input_o $end
$var wire 1 P inc[11]~input_o $end
$var wire 1 Q inc[10]~input_o $end
$var wire 1 R inc[9]~input_o $end
$var wire 1 S inc[8]~input_o $end
$var wire 1 T inc[7]~input_o $end
$var wire 1 U inc[6]~input_o $end
$var wire 1 V inc[5]~input_o $end
$var wire 1 W inc[4]~input_o $end
$var wire 1 X inc[3]~input_o $end
$var wire 1 Y inc[2]~input_o $end
$var wire 1 Z inc[1]~input_o $end
$var wire 1 [ inc[0]~input_o $end
$var wire 1 \ inst|accphase_reg[0]~16_combout $end
$var wire 1 ] inst|accphase_reg[0]~17 $end
$var wire 1 ^ inst|accphase_reg[1]~18_combout $end
$var wire 1 _ inst|accphase_reg[1]~19 $end
$var wire 1 ` inst|accphase_reg[2]~20_combout $end
$var wire 1 a inst|accphase_reg[2]~21 $end
$var wire 1 b inst|accphase_reg[3]~22_combout $end
$var wire 1 c inst|accphase_reg[3]~23 $end
$var wire 1 d inst|accphase_reg[4]~24_combout $end
$var wire 1 e inst|accphase_reg[4]~25 $end
$var wire 1 f inst|accphase_reg[5]~26_combout $end
$var wire 1 g inst|accphase_reg[5]~27 $end
$var wire 1 h inst|accphase_reg[6]~28_combout $end
$var wire 1 i inst|accphase_reg[6]~29 $end
$var wire 1 j inst|accphase_reg[7]~30_combout $end
$var wire 1 k inst|accphase_reg[7]~31 $end
$var wire 1 l inst|accphase_reg[8]~32_combout $end
$var wire 1 m inst|accphase_reg[8]~33 $end
$var wire 1 n inst|accphase_reg[9]~34_combout $end
$var wire 1 o inst|accphase_reg[9]~35 $end
$var wire 1 p inst|accphase_reg[10]~36_combout $end
$var wire 1 q inst|accphase_reg[10]~37 $end
$var wire 1 r inst|accphase_reg[11]~38_combout $end
$var wire 1 s inst|accphase_reg[11]~39 $end
$var wire 1 t inst|accphase_reg[12]~40_combout $end
$var wire 1 u inst|accphase_reg[12]~41 $end
$var wire 1 v inst|accphase_reg[13]~42_combout $end
$var wire 1 w inst|accphase_reg[13]~43 $end
$var wire 1 x inst|accphase_reg[14]~44_combout $end
$var wire 1 y inst|accphase_reg[14]~45 $end
$var wire 1 z inst|accphase_reg[15]~46_combout $end
$var wire 1 { inst|accoffsete_reg[14]~feeder_combout $end
$var wire 1 | inst|accoffsete_reg[13]~feeder_combout $end
$var wire 1 } inst|accoffsete_reg[11]~feeder_combout $end
$var wire 1 ~ inst|accoffsete_reg[9]~feeder_combout $end
$var wire 1 !! inst|accoffsete_reg[8]~feeder_combout $end
$var wire 1 "! inst|accoffsete_reg[5]~feeder_combout $end
$var wire 1 #! inst|accoffsete_reg[4]~feeder_combout $end
$var wire 1 $! inst|u_dither_inst|pn_reg[14]~feeder_combout $end
$var wire 1 %! inst|u_dither_inst|pn_reg[11]~feeder_combout $end
$var wire 1 &! inst|u_dither_inst|xorout3~0_combout $end
$var wire 1 '! inst|u_dither_inst|pn_reg[10]~feeder_combout $end
$var wire 1 (! inst|u_dither_inst|pn_reg[2]~feeder_combout $end
$var wire 1 )! inst|u_dither_inst|xorout3~1_combout $end
$var wire 1 *! inst|u_dither_inst|pn_reg[9]~feeder_combout $end
$var wire 1 +! inst|u_dither_inst|pn_reg[5]~feeder_combout $end
$var wire 1 ,! inst|u_dither_inst|pn_newvalue4[16]~0_combout $end
$var wire 1 -! inst|u_dither_inst|pn_newvalue4[17]~2_combout $end
$var wire 1 .! inst|u_dither_inst|pn_newvalue4[16]~1_combout $end
$var wire 1 /! inst|u_dither_inst|pn_reg[12]~feeder_combout $end
$var wire 1 0! inst|u_dither_inst|pn_reg[8]~feeder_combout $end
$var wire 1 1! inst|u_dither_inst|pn_reg[4]~feeder_combout $end
$var wire 1 2! inst|u_dither_inst|pn_reg[0]~feeder_combout $end
$var wire 1 3! inst|dither_reg[3]~feeder_combout $end
$var wire 1 4! inst|dither_reg[1]~feeder_combout $end
$var wire 1 5! inst|dither_reg[0]~feeder_combout $end
$var wire 1 6! inst|u_Wave_inst|phaseIdxReg[0]~13_cout $end
$var wire 1 7! inst|u_Wave_inst|phaseIdxReg[0]~15_cout $end
$var wire 1 8! inst|u_Wave_inst|phaseIdxReg[0]~17_cout $end
$var wire 1 9! inst|u_Wave_inst|phaseIdxReg[0]~19_cout $end
$var wire 1 :! inst|u_Wave_inst|phaseIdxReg[0]~21 $end
$var wire 1 ;! inst|u_Wave_inst|phaseIdxReg[1]~23 $end
$var wire 1 <! inst|u_Wave_inst|phaseIdxReg[2]~25 $end
$var wire 1 =! inst|u_Wave_inst|phaseIdxReg[3]~27 $end
$var wire 1 >! inst|u_Wave_inst|phaseIdxReg[4]~29 $end
$var wire 1 ?! inst|u_Wave_inst|phaseIdxReg[5]~31 $end
$var wire 1 @! inst|u_Wave_inst|phaseIdxReg[6]~33 $end
$var wire 1 A! inst|u_Wave_inst|phaseIdxReg[7]~35 $end
$var wire 1 B! inst|u_Wave_inst|phaseIdxReg[8]~37 $end
$var wire 1 C! inst|u_Wave_inst|phaseIdxReg[9]~39 $end
$var wire 1 D! inst|u_Wave_inst|phaseIdxReg[10]~41 $end
$var wire 1 E! inst|u_Wave_inst|phaseIdxReg[11]~42_combout $end
$var wire 1 F! inst|u_Wave_inst|SelsignRegister_reg[1]~feeder_combout $end
$var wire 1 G! inst|u_Wave_inst|phaseIdxReg[0]~20_combout $end
$var wire 1 H! inst|u_Wave_inst|phaseIdxReg[1]~22_combout $end
$var wire 1 I! inst|u_Wave_inst|phaseIdxReg[2]~24_combout $end
$var wire 1 J! inst|u_Wave_inst|phaseIdxReg[10]~40_combout $end
$var wire 1 K! inst|u_Wave_inst|Equal0~0_combout $end
$var wire 1 L! inst|u_Wave_inst|phaseIdxReg[9]~38_combout $end
$var wire 1 M! inst|u_Wave_inst|phaseIdxReg[7]~34_combout $end
$var wire 1 N! inst|u_Wave_inst|phaseIdxReg[8]~36_combout $end
$var wire 1 O! inst|u_Wave_inst|Equal0~2_combout $end
$var wire 1 P! inst|u_Wave_inst|phaseIdxReg[3]~26_combout $end
$var wire 1 Q! inst|u_Wave_inst|phaseIdxReg[5]~30_combout $end
$var wire 1 R! inst|u_Wave_inst|phaseIdxReg[6]~32_combout $end
$var wire 1 S! inst|u_Wave_inst|phaseIdxReg[4]~28_combout $end
$var wire 1 T! inst|u_Wave_inst|Equal0~1_combout $end
$var wire 1 U! inst|u_Wave_inst|Equal0~3_combout $end
$var wire 1 V! inst|u_Wave_inst|AddrOverFsinRegister_reg[1]~feeder_combout $end
$var wire 1 W! inst|u_Wave_inst|Add0~0_combout $end
$var wire 1 X! inst|u_Wave_inst|u_SineWave_inst|lutaddrInReg[0]~10_combout $end
$var wire 1 Y! inst|u_Wave_inst|u_SineWave_inst|lutaddrInReg[0]~11 $end
$var wire 1 Z! inst|u_Wave_inst|u_SineWave_inst|lutaddrInReg[1]~12_combout $end
$var wire 1 [! inst|u_Wave_inst|u_SineWave_inst|lutaddrInReg[1]~13 $end
$var wire 1 \! inst|u_Wave_inst|u_SineWave_inst|lutaddrInReg[2]~14_combout $end
$var wire 1 ]! inst|u_Wave_inst|u_SineWave_inst|lutaddrInReg[2]~15 $end
$var wire 1 ^! inst|u_Wave_inst|u_SineWave_inst|lutaddrInReg[3]~16_combout $end
$var wire 1 _! inst|u_Wave_inst|u_SineWave_inst|lutaddrInReg[3]~17 $end
$var wire 1 `! inst|u_Wave_inst|u_SineWave_inst|lutaddrInReg[4]~18_combout $end
$var wire 1 a! inst|u_Wave_inst|u_SineWave_inst|lutaddrInReg[4]~19 $end
$var wire 1 b! inst|u_Wave_inst|u_SineWave_inst|lutaddrInReg[5]~20_combout $end
$var wire 1 c! inst|u_Wave_inst|u_SineWave_inst|lutaddrInReg[5]~21 $end
$var wire 1 d! inst|u_Wave_inst|u_SineWave_inst|lutaddrInReg[6]~22_combout $end
$var wire 1 e! inst|u_Wave_inst|u_SineWave_inst|lutaddrInReg[6]~23 $end
$var wire 1 f! inst|u_Wave_inst|u_SineWave_inst|lutaddrInReg[7]~24_combout $end
$var wire 1 g! inst|u_Wave_inst|u_SineWave_inst|lutaddrInReg[7]~25 $end
$var wire 1 h! inst|u_Wave_inst|u_SineWave_inst|lutaddrInReg[8]~26_combout $end
$var wire 1 i! inst|u_Wave_inst|u_SineWave_inst|lutaddrInReg[8]~27 $end
$var wire 1 j! inst|u_Wave_inst|u_SineWave_inst|lutaddrInReg[9]~28_combout $end
$var wire 1 k! inst|u_Wave_inst|uminus_cast[14]~0_combout $end
$var wire 1 l! inst|u_Wave_inst|uminus_cast[13]~1_combout $end
$var wire 1 m! inst|u_Wave_inst|uminus_cast[12]~2_combout $end
$var wire 1 n! inst|u_Wave_inst|uminus_cast[11]~3_combout $end
$var wire 1 o! inst|u_Wave_inst|uminus_cast[10]~4_combout $end
$var wire 1 p! inst|u_Wave_inst|uminus_cast[9]~5_combout $end
$var wire 1 q! inst|u_Wave_inst|uminus_cast[8]~6_combout $end
$var wire 1 r! inst|u_Wave_inst|uminus_cast[7]~7_combout $end
$var wire 1 s! inst|u_Wave_inst|uminus_cast[6]~8_combout $end
$var wire 1 t! inst|u_Wave_inst|uminus_cast[5]~9_combout $end
$var wire 1 u! inst|u_Wave_inst|uminus_cast[4]~10_combout $end
$var wire 1 v! inst|u_Wave_inst|uminus_cast[3]~11_combout $end
$var wire 1 w! inst|u_Wave_inst|uminus_cast[2]~12_combout $end
$var wire 1 x! inst|u_Wave_inst|uminus_cast[1]~13_combout $end
$var wire 1 y! inst|u_Wave_inst|Add1~0_combout $end
$var wire 1 z! inst|sine_1[0]~17 $end
$var wire 1 {! inst|sine_1[1]~19 $end
$var wire 1 |! inst|sine_1[2]~21 $end
$var wire 1 }! inst|sine_1[3]~23 $end
$var wire 1 ~! inst|sine_1[4]~25 $end
$var wire 1 !" inst|sine_1[5]~27 $end
$var wire 1 "" inst|sine_1[6]~29 $end
$var wire 1 #" inst|sine_1[7]~31 $end
$var wire 1 $" inst|sine_1[8]~33 $end
$var wire 1 %" inst|sine_1[9]~35 $end
$var wire 1 &" inst|sine_1[10]~37 $end
$var wire 1 '" inst|sine_1[11]~39 $end
$var wire 1 (" inst|sine_1[12]~41 $end
$var wire 1 )" inst|sine_1[13]~43 $end
$var wire 1 *" inst|sine_1[14]~45 $end
$var wire 1 +" inst|sine_1[15]~46_combout $end
$var wire 1 ," inst|sine_1[14]~44_combout $end
$var wire 1 -" inst|sine_1[13]~42_combout $end
$var wire 1 ." inst|sine_1[12]~40_combout $end
$var wire 1 /" inst|sine_1[11]~38_combout $end
$var wire 1 0" inst|sine_1[10]~36_combout $end
$var wire 1 1" inst|sine_1[9]~34_combout $end
$var wire 1 2" inst|sine_1[8]~32_combout $end
$var wire 1 3" inst|sine_1[7]~30_combout $end
$var wire 1 4" inst|sine_1[6]~28_combout $end
$var wire 1 5" inst|sine_1[5]~26_combout $end
$var wire 1 6" inst|sine_1[4]~24_combout $end
$var wire 1 7" inst|sine_1[3]~22_combout $end
$var wire 1 8" inst|sine_1[2]~20_combout $end
$var wire 1 9" inst|sine_1[1]~18_combout $end
$var wire 1 :" inst|sine_1[0]~16_combout $end
$var wire 1 ;" inst|u_Wave_inst|SelsignRegister_reg [0] $end
$var wire 1 <" inst|u_Wave_inst|SelsignRegister_reg [1] $end
$var wire 1 =" inst|u_Wave_inst|SelsignRegister_reg [2] $end
$var wire 1 >" inst|u_dither_inst|pn_reg [18] $end
$var wire 1 ?" inst|u_dither_inst|pn_reg [17] $end
$var wire 1 @" inst|u_dither_inst|pn_reg [16] $end
$var wire 1 A" inst|u_dither_inst|pn_reg [15] $end
$var wire 1 B" inst|u_dither_inst|pn_reg [14] $end
$var wire 1 C" inst|u_dither_inst|pn_reg [13] $end
$var wire 1 D" inst|u_dither_inst|pn_reg [12] $end
$var wire 1 E" inst|u_dither_inst|pn_reg [11] $end
$var wire 1 F" inst|u_dither_inst|pn_reg [10] $end
$var wire 1 G" inst|u_dither_inst|pn_reg [9] $end
$var wire 1 H" inst|u_dither_inst|pn_reg [8] $end
$var wire 1 I" inst|u_dither_inst|pn_reg [7] $end
$var wire 1 J" inst|u_dither_inst|pn_reg [6] $end
$var wire 1 K" inst|u_dither_inst|pn_reg [5] $end
$var wire 1 L" inst|u_dither_inst|pn_reg [4] $end
$var wire 1 M" inst|u_dither_inst|pn_reg [3] $end
$var wire 1 N" inst|u_dither_inst|pn_reg [2] $end
$var wire 1 O" inst|u_dither_inst|pn_reg [1] $end
$var wire 1 P" inst|u_dither_inst|pn_reg [0] $end
$var wire 1 Q" inst|u_Wave_inst|u_SineWave_inst|lutoutput_1 [15] $end
$var wire 1 R" inst|u_Wave_inst|u_SineWave_inst|lutoutput_1 [14] $end
$var wire 1 S" inst|u_Wave_inst|u_SineWave_inst|lutoutput_1 [13] $end
$var wire 1 T" inst|u_Wave_inst|u_SineWave_inst|lutoutput_1 [12] $end
$var wire 1 U" inst|u_Wave_inst|u_SineWave_inst|lutoutput_1 [11] $end
$var wire 1 V" inst|u_Wave_inst|u_SineWave_inst|lutoutput_1 [10] $end
$var wire 1 W" inst|u_Wave_inst|u_SineWave_inst|lutoutput_1 [9] $end
$var wire 1 X" inst|u_Wave_inst|u_SineWave_inst|lutoutput_1 [8] $end
$var wire 1 Y" inst|u_Wave_inst|u_SineWave_inst|lutoutput_1 [7] $end
$var wire 1 Z" inst|u_Wave_inst|u_SineWave_inst|lutoutput_1 [6] $end
$var wire 1 [" inst|u_Wave_inst|u_SineWave_inst|lutoutput_1 [5] $end
$var wire 1 \" inst|u_Wave_inst|u_SineWave_inst|lutoutput_1 [4] $end
$var wire 1 ]" inst|u_Wave_inst|u_SineWave_inst|lutoutput_1 [3] $end
$var wire 1 ^" inst|u_Wave_inst|u_SineWave_inst|lutoutput_1 [2] $end
$var wire 1 _" inst|u_Wave_inst|u_SineWave_inst|lutoutput_1 [1] $end
$var wire 1 `" inst|u_Wave_inst|u_SineWave_inst|lutoutput_1 [0] $end
$var wire 1 a" inst|accoffsete_reg [15] $end
$var wire 1 b" inst|accoffsete_reg [14] $end
$var wire 1 c" inst|accoffsete_reg [13] $end
$var wire 1 d" inst|accoffsete_reg [12] $end
$var wire 1 e" inst|accoffsete_reg [11] $end
$var wire 1 f" inst|accoffsete_reg [10] $end
$var wire 1 g" inst|accoffsete_reg [9] $end
$var wire 1 h" inst|accoffsete_reg [8] $end
$var wire 1 i" inst|accoffsete_reg [7] $end
$var wire 1 j" inst|accoffsete_reg [6] $end
$var wire 1 k" inst|accoffsete_reg [5] $end
$var wire 1 l" inst|accoffsete_reg [4] $end
$var wire 1 m" inst|accoffsete_reg [3] $end
$var wire 1 n" inst|accoffsete_reg [2] $end
$var wire 1 o" inst|accoffsete_reg [1] $end
$var wire 1 p" inst|accoffsete_reg [0] $end
$var wire 1 q" inst|u_Wave_inst|AddrOverFsinRegister_reg [0] $end
$var wire 1 r" inst|u_Wave_inst|AddrOverFsinRegister_reg [1] $end
$var wire 1 s" inst|u_Wave_inst|AddrOverFsinRegister_reg [2] $end
$var wire 1 t" inst|sine_1 [15] $end
$var wire 1 u" inst|sine_1 [14] $end
$var wire 1 v" inst|sine_1 [13] $end
$var wire 1 w" inst|sine_1 [12] $end
$var wire 1 x" inst|sine_1 [11] $end
$var wire 1 y" inst|sine_1 [10] $end
$var wire 1 z" inst|sine_1 [9] $end
$var wire 1 {" inst|sine_1 [8] $end
$var wire 1 |" inst|sine_1 [7] $end
$var wire 1 }" inst|sine_1 [6] $end
$var wire 1 ~" inst|sine_1 [5] $end
$var wire 1 !# inst|sine_1 [4] $end
$var wire 1 "# inst|sine_1 [3] $end
$var wire 1 ## inst|sine_1 [2] $end
$var wire 1 $# inst|sine_1 [1] $end
$var wire 1 %# inst|sine_1 [0] $end
$var wire 1 &# inst|u_dither_inst|pn_newvalue4 [18] $end
$var wire 1 '# inst|u_dither_inst|pn_newvalue4 [17] $end
$var wire 1 (# inst|u_dither_inst|pn_newvalue4 [16] $end
$var wire 1 )# inst|u_dither_inst|pn_newvalue4 [15] $end
$var wire 1 *# inst|u_dither_inst|pn_newvalue4 [14] $end
$var wire 1 +# inst|u_dither_inst|pn_newvalue4 [13] $end
$var wire 1 ,# inst|u_dither_inst|pn_newvalue4 [12] $end
$var wire 1 -# inst|u_dither_inst|pn_newvalue4 [11] $end
$var wire 1 .# inst|u_dither_inst|pn_newvalue4 [10] $end
$var wire 1 /# inst|u_dither_inst|pn_newvalue4 [9] $end
$var wire 1 0# inst|u_dither_inst|pn_newvalue4 [8] $end
$var wire 1 1# inst|u_dither_inst|pn_newvalue4 [7] $end
$var wire 1 2# inst|u_dither_inst|pn_newvalue4 [6] $end
$var wire 1 3# inst|u_dither_inst|pn_newvalue4 [5] $end
$var wire 1 4# inst|u_dither_inst|pn_newvalue4 [4] $end
$var wire 1 5# inst|u_dither_inst|pn_newvalue4 [3] $end
$var wire 1 6# inst|u_dither_inst|pn_newvalue4 [2] $end
$var wire 1 7# inst|u_dither_inst|pn_newvalue4 [1] $end
$var wire 1 8# inst|u_dither_inst|pn_newvalue4 [0] $end
$var wire 1 9# inst|u_Wave_inst|phaseIdxReg [11] $end
$var wire 1 :# inst|u_Wave_inst|phaseIdxReg [10] $end
$var wire 1 ;# inst|u_Wave_inst|phaseIdxReg [9] $end
$var wire 1 <# inst|u_Wave_inst|phaseIdxReg [8] $end
$var wire 1 =# inst|u_Wave_inst|phaseIdxReg [7] $end
$var wire 1 ># inst|u_Wave_inst|phaseIdxReg [6] $end
$var wire 1 ?# inst|u_Wave_inst|phaseIdxReg [5] $end
$var wire 1 @# inst|u_Wave_inst|phaseIdxReg [4] $end
$var wire 1 A# inst|u_Wave_inst|phaseIdxReg [3] $end
$var wire 1 B# inst|u_Wave_inst|phaseIdxReg [2] $end
$var wire 1 C# inst|u_Wave_inst|phaseIdxReg [1] $end
$var wire 1 D# inst|u_Wave_inst|phaseIdxReg [0] $end
$var wire 1 E# inst|u_Wave_inst|u_SineWave_inst|lutaddrInReg [9] $end
$var wire 1 F# inst|u_Wave_inst|u_SineWave_inst|lutaddrInReg [8] $end
$var wire 1 G# inst|u_Wave_inst|u_SineWave_inst|lutaddrInReg [7] $end
$var wire 1 H# inst|u_Wave_inst|u_SineWave_inst|lutaddrInReg [6] $end
$var wire 1 I# inst|u_Wave_inst|u_SineWave_inst|lutaddrInReg [5] $end
$var wire 1 J# inst|u_Wave_inst|u_SineWave_inst|lutaddrInReg [4] $end
$var wire 1 K# inst|u_Wave_inst|u_SineWave_inst|lutaddrInReg [3] $end
$var wire 1 L# inst|u_Wave_inst|u_SineWave_inst|lutaddrInReg [2] $end
$var wire 1 M# inst|u_Wave_inst|u_SineWave_inst|lutaddrInReg [1] $end
$var wire 1 N# inst|u_Wave_inst|u_SineWave_inst|lutaddrInReg [0] $end
$var wire 1 O# inst|dither_reg [15] $end
$var wire 1 P# inst|dither_reg [14] $end
$var wire 1 Q# inst|dither_reg [13] $end
$var wire 1 R# inst|dither_reg [12] $end
$var wire 1 S# inst|dither_reg [11] $end
$var wire 1 T# inst|dither_reg [10] $end
$var wire 1 U# inst|dither_reg [9] $end
$var wire 1 V# inst|dither_reg [8] $end
$var wire 1 W# inst|dither_reg [7] $end
$var wire 1 X# inst|dither_reg [6] $end
$var wire 1 Y# inst|dither_reg [5] $end
$var wire 1 Z# inst|dither_reg [4] $end
$var wire 1 [# inst|dither_reg [3] $end
$var wire 1 \# inst|dither_reg [2] $end
$var wire 1 ]# inst|dither_reg [1] $end
$var wire 1 ^# inst|dither_reg [0] $end
$var wire 1 _# inst|accphase_reg [15] $end
$var wire 1 `# inst|accphase_reg [14] $end
$var wire 1 a# inst|accphase_reg [13] $end
$var wire 1 b# inst|accphase_reg [12] $end
$var wire 1 c# inst|accphase_reg [11] $end
$var wire 1 d# inst|accphase_reg [10] $end
$var wire 1 e# inst|accphase_reg [9] $end
$var wire 1 f# inst|accphase_reg [8] $end
$var wire 1 g# inst|accphase_reg [7] $end
$var wire 1 h# inst|accphase_reg [6] $end
$var wire 1 i# inst|accphase_reg [5] $end
$var wire 1 j# inst|accphase_reg [4] $end
$var wire 1 k# inst|accphase_reg [3] $end
$var wire 1 l# inst|accphase_reg [2] $end
$var wire 1 m# inst|accphase_reg [1] $end
$var wire 1 n# inst|accphase_reg [0] $end
$var wire 1 o# inst|u_Wave_inst|u_SineWave_inst|Mux14_rtl_0|auto_generated|ram_block1a6_PORTADATAOUT_bus [8] $end
$var wire 1 p# inst|u_Wave_inst|u_SineWave_inst|Mux14_rtl_0|auto_generated|ram_block1a6_PORTADATAOUT_bus [7] $end
$var wire 1 q# inst|u_Wave_inst|u_SineWave_inst|Mux14_rtl_0|auto_generated|ram_block1a6_PORTADATAOUT_bus [6] $end
$var wire 1 r# inst|u_Wave_inst|u_SineWave_inst|Mux14_rtl_0|auto_generated|ram_block1a6_PORTADATAOUT_bus [5] $end
$var wire 1 s# inst|u_Wave_inst|u_SineWave_inst|Mux14_rtl_0|auto_generated|ram_block1a6_PORTADATAOUT_bus [4] $end
$var wire 1 t# inst|u_Wave_inst|u_SineWave_inst|Mux14_rtl_0|auto_generated|ram_block1a6_PORTADATAOUT_bus [3] $end
$var wire 1 u# inst|u_Wave_inst|u_SineWave_inst|Mux14_rtl_0|auto_generated|ram_block1a6_PORTADATAOUT_bus [2] $end
$var wire 1 v# inst|u_Wave_inst|u_SineWave_inst|Mux14_rtl_0|auto_generated|ram_block1a6_PORTADATAOUT_bus [1] $end
$var wire 1 w# inst|u_Wave_inst|u_SineWave_inst|Mux14_rtl_0|auto_generated|ram_block1a6_PORTADATAOUT_bus [0] $end
$var wire 1 x# inst|u_Wave_inst|u_SineWave_inst|Mux14_rtl_0|auto_generated|ram_block1a0_PORTADATAOUT_bus [8] $end
$var wire 1 y# inst|u_Wave_inst|u_SineWave_inst|Mux14_rtl_0|auto_generated|ram_block1a0_PORTADATAOUT_bus [7] $end
$var wire 1 z# inst|u_Wave_inst|u_SineWave_inst|Mux14_rtl_0|auto_generated|ram_block1a0_PORTADATAOUT_bus [6] $end
$var wire 1 {# inst|u_Wave_inst|u_SineWave_inst|Mux14_rtl_0|auto_generated|ram_block1a0_PORTADATAOUT_bus [5] $end
$var wire 1 |# inst|u_Wave_inst|u_SineWave_inst|Mux14_rtl_0|auto_generated|ram_block1a0_PORTADATAOUT_bus [4] $end
$var wire 1 }# inst|u_Wave_inst|u_SineWave_inst|Mux14_rtl_0|auto_generated|ram_block1a0_PORTADATAOUT_bus [3] $end
$var wire 1 ~# inst|u_Wave_inst|u_SineWave_inst|Mux14_rtl_0|auto_generated|ram_block1a0_PORTADATAOUT_bus [2] $end
$var wire 1 !$ inst|u_Wave_inst|u_SineWave_inst|Mux14_rtl_0|auto_generated|ram_block1a0_PORTADATAOUT_bus [1] $end
$var wire 1 "$ inst|u_Wave_inst|u_SineWave_inst|Mux14_rtl_0|auto_generated|ram_block1a0_PORTADATAOUT_bus [0] $end
$upscope $end
$upscope $end
$enddefinitions $end
#0
$dumpvars
0!
b100000101 "
02
01
00
0/
0.
0-
0,
0+
0*
0)
0(
0'
0&
0%
0$
0#
x3
04
15
x6
17
18
19
0:
0;
0<
0=
0>
0?
0@
0A
0B
0C
0D
0E
0F
0G
0H
0I
0J
0K
0L
0M
0N
0O
0P
0Q
0R
1S
0T
0U
0V
0W
0X
1Y
0Z
1[
1\
0]
0^
1_
1`
0a
0b
1c
0d
0e
0f
1g
0h
0i
0j
1k
1l
0m
0n
1o
0p
0q
0r
1s
0t
0u
0v
1w
0x
0y
0z
0{
0|
0}
0~
0!!
0"!
0#!
0$!
0%!
0&!
0'!
0(!
0)!
0*!
0+!
0,!
0-!
0.!
0/!
00!
01!
02!
03!
04!
05!
06!
17!
08!
19!
0:!
1;!
0<!
1=!
0>!
1?!
0@!
1A!
0B!
1C!
0D!
0E!
0F!
0G!
0H!
0I!
0J!
0K!
0L!
0M!
0N!
1O!
0P!
0Q!
0R!
0S!
1T!
0U!
0V!
0W!
0X!
0Y!
0Z!
1[!
0\!
0]!
0^!
1_!
0`!
0a!
0b!
1c!
0d!
0e!
0f!
1g!
0h!
0i!
0j!
0k!
0l!
0m!
0n!
0o!
0p!
0q!
0r!
0s!
0t!
0u!
0v!
0w!
0x!
0y!
0z!
1{!
0|!
1}!
0~!
1!"
0""
1#"
0$"
1%"
0&"
1'"
0("
1)"
0*"
0+"
0,"
0-"
0."
0/"
00"
01"
02"
03"
04"
05"
06"
07"
08"
09"
0:"
0="
0<"
0;"
0P"
0O"
0N"
0M"
0L"
0K"
0J"
0I"
0H"
0G"
0F"
0E"
0D"
0C"
0B"
0A"
0@"
0?"
0>"
0`"
0_"
0^"
0]"
0\"
0["
0Z"
0Y"
0X"
0W"
0V"
0U"
0T"
0S"
0R"
zQ"
0p"
0o"
0n"
0m"
0l"
0k"
0j"
0i"
0h"
0g"
0f"
0e"
0d"
0c"
0b"
0a"
0s"
0r"
0q"
0%#
0$#
0##
0"#
0!#
0~"
0}"
0|"
0{"
0z"
0y"
0x"
0w"
0v"
0u"
0t"
z8#
z7#
z6#
z5#
z4#
z3#
z2#
z1#
z0#
z/#
z.#
z-#
z,#
z+#
z*#
0)#
z(#
z'#
z&#
0D#
0C#
0B#
0A#
0@#
0?#
0>#
0=#
0<#
0;#
0:#
09#
0N#
0M#
0L#
0K#
0J#
0I#
0H#
0G#
0F#
0E#
0^#
0]#
0\#
0[#
zZ#
zY#
zX#
zW#
zV#
zU#
zT#
zS#
zR#
zQ#
zP#
zO#
0n#
0m#
0l#
0k#
0j#
0i#
0h#
0g#
0f#
0e#
0d#
0c#
0b#
0a#
0`#
0_#
0w#
0v#
0u#
0t#
0s#
0r#
0q#
0p#
0o#
0"$
0!$
0~#
0}#
0|#
0{#
0z#
0y#
0x#
$end
#5000
1!
03
1J
1K
1f#
1l#
1n#
1!!
1m
0l
1a
0`
1]
0\
1n
1b
1^
#10000
0!
13
0J
0K
#15000
1!
03
1J
1K
1p"
1n"
1h"
1e#
0f#
1k#
0l#
1m#
0n#
1S!
1~
0o
0n
0!!
0m
1l
0c
0b
0a
1`
0_
0^
0]
1\
1p
1o
1n
1d
1c
1b
1a
0`
1_
1^
0p
0d
0c
0b
0a
1`
1d
1c
1b
0d
#20000
0!
13
0J
0K
#25000
1!
03
1J
1K
1@#
0p"
1o"
0n"
1m"
0h"
1g"
1f#
1l#
1n#
1`!
0T!
0S!
1Q!
1!!
1m
0l
1a
0`
1]
0\
0o
0n
0c
0b
0_
0^
1p
1d
1`
#30000
0!
13
0J
0K
#35000
1!
03
1J
1K
1J#
0@#
1?#
1p"
1n"
1h"
1d#
0e#
0f#
1j#
0k#
0m#
0n#
0`!
1b!
1S!
1q
0p
0~
1o
1n
0!!
0m
1l
1#!
1e
0d
1c
1b
1_
1^
0]
1\
1r
0q
1p
0n
1f
0e
1d
0`
0^
0r
0f
#40000
0!
13
0J
0K
#45000
1!
03
1J
1K
1I#
0J#
1@#
0p"
0o"
0m"
1l"
0h"
0g"
1f"
1f#
1k#
0l#
1n#
1`!
1G!
0S!
0Q!
1R!
1!!
1m
0l
0c
0b
0a
1`
1]
0\
1n
1e
0d
1c
1b
1^
1f
0e
1d
0f
#50000
0!
13
0J
0K
#55000
1!
03
1J
1K
1J#
0@#
1>#
0?#
1D#
1p"
0n"
1m"
1h"
1e#
0f#
1l#
1m#
0n#
1v#
1u#
1!$
1|#
1\"
1_"
1X"
1Y"
0`!
1d!
0b!
1W!
1S!
1~
0o
0n
0!!
0m
1l
1a
0`
0_
0^
0]
1\
1u!
1x!
1q!
1r!
1X!
1q
0p
1o
1n
0c
0b
1`
1_
1^
16"
19"
12"
13"
1r
0q
1p
1e
0d
0`
0r
1f
#60000
0!
13
0J
0K
