Clock/Timer/simulation/qsim/timer.msim.vcd
$comment
	File created using the following command:
		vcd file timer.msim.vcd -direction
$end
$date
	Wed Sep 06 18:33:08 2023
$end
$version
	ModelSim Version 10.4
$end
$timescale
	1ps
$end

$scope module timer_bdf_vlg_vec_tst $end
$var reg 1 ! CLK $end
$var reg 1 " rst $end
$var wire 1 # p1 $end
$var wire 1 $ p01 $end
$var wire 1 % p001 $end
$var wire 1 & p10 $end
$var wire 1 ' SEG1 [6] $end
$var wire 1 ( SEG1 [5] $end
$var wire 1 ) SEG1 [4] $end
$var wire 1 * SEG1 [3] $end
$var wire 1 + SEG1 [2] $end
$var wire 1 , SEG1 [1] $end
$var wire 1 - SEG1 [0] $end
$var wire 1 . SEG2 [6] $end
$var wire 1 / SEG2 [5] $end
$var wire 1 0 SEG2 [4] $end
$var wire 1 1 SEG2 [3] $end
$var wire 1 2 SEG2 [2] $end
$var wire 1 3 SEG2 [1] $end
$var wire 1 4 SEG2 [0] $end
$var wire 1 5 SEG3 [6] $end
$var wire 1 6 SEG3 [5] $end
$var wire 1 7 SEG3 [4] $end
$var wire 1 8 SEG3 [3] $end
$var wire 1 9 SEG3 [2] $end
$var wire 1 : SEG3 [1] $end
$var wire 1 ; SEG3 [0] $end
$var wire 1 < SEG4 [6] $end
$var wire 1 = SEG4 [5] $end
$var wire 1 > SEG4 [4] $end
$var wire 1 ? SEG4 [3] $end
$var wire 1 @ SEG4 [2] $end
$var wire 1 A SEG4 [1] $end
$var wire 1 B SEG4 [0] $end
$var wire 1 C sampler $end

$scope module i1 $end
$var wire 1 D gnd $end
$var wire 1 E vcc $end
$var wire 1 F unknown $end
$var tri1 1 G devclrn $end
$var tri1 1 H devpor $end
$var tri1 1 I devoe $end
$var wire 1 J p001~output_o $end
$var wire 1 K p01~output_o $end
$var wire 1 L p1~output_o $end
$var wire 1 M p10~output_o $end
$var wire 1 N SEG1[6]~output_o $end
$var wire 1 O SEG1[5]~output_o $end
$var wire 1 P SEG1[4]~output_o $end
$var wire 1 Q SEG1[3]~output_o $end
$var wire 1 R SEG1[2]~output_o $end
$var wire 1 S SEG1[1]~output_o $end
$var wire 1 T SEG1[0]~output_o $end
$var wire 1 U SEG2[6]~output_o $end
$var wire 1 V SEG2[5]~output_o $end
$var wire 1 W SEG2[4]~output_o $end
$var wire 1 X SEG2[3]~output_o $end
$var wire 1 Y SEG2[2]~output_o $end
$var wire 1 Z SEG2[1]~output_o $end
$var wire 1 [ SEG2[0]~output_o $end
$var wire 1 \ SEG3[6]~output_o $end
$var wire 1 ] SEG3[5]~output_o $end
$var wire 1 ^ SEG3[4]~output_o $end
$var wire 1 _ SEG3[3]~output_o $end
$var wire 1 ` SEG3[2]~output_o $end
$var wire 1 a SEG3[1]~output_o $end
$var wire 1 b SEG3[0]~output_o $end
$var wire 1 c SEG4[6]~output_o $end
$var wire 1 d SEG4[5]~output_o $end
$var wire 1 e SEG4[4]~output_o $end
$var wire 1 f SEG4[3]~output_o $end
$var wire 1 g SEG4[2]~output_o $end
$var wire 1 h SEG4[1]~output_o $end
$var wire 1 i SEG4[0]~output_o $end
$var wire 1 j CLK~input_o $end
$var wire 1 k CLK~inputclkctrl_outclk $end
$var wire 1 l inst|cnt_001[0]~20_combout $end
$var wire 1 m rst~input_o $end
$var wire 1 n inst|cnt_001[0]~21 $end
$var wire 1 o inst|cnt_001[1]~22_combout $end
$var wire 1 p inst|cnt_001[1]~feeder_combout $end
$var wire 1 q inst|cnt_001[1]~23 $end
$var wire 1 r inst|cnt_001[2]~24_combout $end
$var wire 1 s inst|cnt_001[2]~25 $end
$var wire 1 t inst|cnt_001[3]~26_combout $end
$var wire 1 u inst|cnt_001[3]~27 $end
$var wire 1 v inst|cnt_001[4]~28_combout $end
$var wire 1 w inst|cnt_001[4]~29 $end
$var wire 1 x inst|cnt_001[5]~30_combout $end
$var wire 1 y inst|cnt_001[5]~31 $end
$var wire 1 z inst|cnt_001[6]~32_combout $end
$var wire 1 { inst|cnt_001[6]~33 $end
$var wire 1 | inst|cnt_001[7]~34_combout $end
$var wire 1 } inst|cnt_001[7]~35 $end
$var wire 1 ~ inst|cnt_001[8]~36_combout $end
$var wire 1 !! inst|cnt_001[8]~feeder_combout $end
$var wire 1 "! inst|cnt_001[8]~37 $end
$var wire 1 #! inst|cnt_001[9]~38_combout $end
$var wire 1 $! inst|cnt_001[9]~39 $end
$var wire 1 %! inst|cnt_001[10]~40_combout $end
$var wire 1 &! inst|cnt_001[10]~41 $end
$var wire 1 '! inst|cnt_001[11]~42_combout $end
$var wire 1 (! inst|cnt_001[11]~43 $end
$var wire 1 )! inst|cnt_001[12]~44_combout $end
$var wire 1 *! inst|cnt_001[12]~45 $end
$var wire 1 +! inst|cnt_001[13]~46_combout $end
$var wire 1 ,! inst|cnt_001[13]~47 $end
$var wire 1 -! inst|cnt_001[14]~48_combout $end
$var wire 1 .! inst|cnt_001[14]~49 $end
$var wire 1 /! inst|cnt_001[15]~50_combout $end
$var wire 1 0! inst|cnt_001[15]~51 $end
$var wire 1 1! inst|cnt_001[16]~52_combout $end
$var wire 1 2! inst|cnt_001[16]~53 $end
$var wire 1 3! inst|cnt_001[17]~54_combout $end
$var wire 1 4! inst|cnt_001[17]~55 $end
$var wire 1 5! inst|cnt_001[18]~56_combout $end
$var wire 1 6! inst|cnt_001[18]~57 $end
$var wire 1 7! inst|cnt_001[19]~58_combout $end
$var wire 1 8! inst|Equal0~0_combout $end
$var wire 1 9! inst|Equal0~5_combout $end
$var wire 1 :! inst|Equal0~4_combout $end
$var wire 1 ;! inst|Equal0~2_combout $end
$var wire 1 <! inst|Equal0~1_combout $end
$var wire 1 =! inst|Equal0~3_combout $end
$var wire 1 >! inst|Equal0~combout $end
$var wire 1 ?! inst|cnt_01~1_combout $end
$var wire 1 @! inst|cnt_01~3_combout $end
$var wire 1 A! inst|Add1~1_combout $end
$var wire 1 B! inst|cnt_01~2_combout $end
$var wire 1 C! inst|Add1~0_combout $end
$var wire 1 D! inst|cnt_01~0_combout $end
$var wire 1 E! inst|Equal1~combout $end
$var wire 1 F! inst|cnt_1~1_combout $end
$var wire 1 G! inst|cnt_1~3_combout $end
$var wire 1 H! inst|Add2~1_combout $end
$var wire 1 I! inst|cnt_1~2_combout $end
$var wire 1 J! inst|Add2~0_combout $end
$var wire 1 K! inst|cnt_1~0_combout $end
$var wire 1 L! inst|Equal2~combout $end
$var wire 1 M! inst|Equal2~clkctrl_outclk $end
$var wire 1 N! inst|cnt_10~4_combout $end
$var wire 1 O! inst|cnt_10~1_combout $end
$var wire 1 P! inst|Add3~0_combout $end
$var wire 1 Q! inst|cnt_10~0_combout $end
$var wire 1 R! inst|cnt_10~2_combout $end
$var wire 1 S! inst|cnt_10~3_combout $end
$var wire 1 T! inst|Equal3~0_combout $end
$var wire 1 U! inst14|cntval~3_combout $end
$var wire 1 V! inst14|p_in_1~feeder_combout $end
$var wire 1 W! inst14|p_in_1~q $end
$var wire 1 X! inst14|p_in_2~q $end
$var wire 1 Y! inst14|always0~0_combout $end
$var wire 1 Z! inst14|cntval~0_combout $end
$var wire 1 [! inst14|cntval~1_combout $end
$var wire 1 \! inst14|cntval~2_combout $end
$var wire 1 ]! inst1|WideOr0~0_combout $end
$var wire 1 ^! inst1|WideOr1~0_combout $end
$var wire 1 _! inst1|WideOr2~0_combout $end
$var wire 1 `! inst1|WideOr3~0_combout $end
$var wire 1 a! inst1|WideOr4~0_combout $end
$var wire 1 b! inst1|WideOr5~0_combout $end
$var wire 1 c! inst1|WideOr6~0_combout $end
$var wire 1 d! inst11|cntval~1_combout $end
$var wire 1 e! inst11|p_in_1~feeder_combout $end
$var wire 1 f! inst11|p_in_1~q $end
$var wire 1 g! inst11|p_in_2~q $end
$var wire 1 h! inst11|always0~0_combout $end
$var wire 1 i! inst11|cntval~0_combout $end
$var wire 1 j! inst11|cntval~2_combout $end
$var wire 1 k! inst11|cntval~3_combout $end
$var wire 1 l! inst7|WideOr0~0_combout $end
$var wire 1 m! inst7|WideOr1~0_combout $end
$var wire 1 n! inst7|WideOr2~0_combout $end
$var wire 1 o! inst7|WideOr3~0_combout $end
$var wire 1 p! inst7|WideOr4~0_combout $end
$var wire 1 q! inst7|WideOr5~0_combout $end
$var wire 1 r! inst7|WideOr6~0_combout $end
$var wire 1 s! inst12|cntval~3_combout $end
$var wire 1 t! inst12|p_in_1~feeder_combout $end
$var wire 1 u! inst12|p_in_1~q $end
$var wire 1 v! inst12|p_in_2~q $end
$var wire 1 w! inst12|always0~0_combout $end
$var wire 1 x! inst12|cntval~2_combout $end
$var wire 1 y! inst12|cntval~0_combout $end
$var wire 1 z! inst12|cntval~1_combout $end
$var wire 1 {! inst8|WideOr0~0_combout $end
$var wire 1 |! inst8|WideOr1~0_combout $end
$var wire 1 }! inst8|WideOr2~0_combout $end
$var wire 1 ~! inst8|WideOr3~0_combout $end
$var wire 1 !" inst8|WideOr4~0_combout $end
$var wire 1 "" inst8|WideOr5~0_combout $end
$var wire 1 #" inst8|WideOr6~0_combout $end
$var wire 1 $" inst13|cntval~3_combout $end
$var wire 1 %" inst13|p_in_1~0_combout $end
$var wire 1 &" inst13|p_in_1~q $end
$var wire 1 '" inst13|p_in_2~q $end
$var wire 1 (" inst13|always0~0_combout $end
$var wire 1 )" inst13|cntval~1_combout $end
$var wire 1 *" inst13|cntval~0_combout $end
$var wire 1 +" inst13|cntval~2_combout $end
$var wire 1 ," inst9|WideOr0~0_combout $end
$var wire 1 -" inst9|WideOr1~0_combout $end
$var wire 1 ." inst9|WideOr2~0_combout $end
$var wire 1 /" inst9|WideOr3~0_combout $end
$var wire 1 0" inst9|WideOr4~0_combout $end
$var wire 1 1" inst9|WideOr5~0_combout $end
$var wire 1 2" inst9|WideOr6~0_combout $end
$var wire 1 3" inst|cnt_1 [3] $end
$var wire 1 4" inst|cnt_1 [2] $end
$var wire 1 5" inst|cnt_1 [1] $end
$var wire 1 6" inst|cnt_1 [0] $end
$var wire 1 7" inst11|cntval [3] $end
$var wire 1 8" inst11|cntval [2] $end
$var wire 1 9" inst11|cntval [1] $end
$var wire 1 :" inst11|cntval [0] $end
$var wire 1 ;" inst13|cntval [3] $end
$var wire 1 <" inst13|cntval [2] $end
$var wire 1 =" inst13|cntval [1] $end
$var wire 1 >" inst13|cntval [0] $end
$var wire 1 ?" inst14|cntval [3] $end
$var wire 1 @" inst14|cntval [2] $end
$var wire 1 A" inst14|cntval [1] $end
$var wire 1 B" inst14|cntval [0] $end
$var wire 1 C" inst|cnt_10 [3] $end
$var wire 1 D" inst|cnt_10 [2] $end
$var wire 1 E" inst|cnt_10 [1] $end
$var wire 1 F" inst|cnt_10 [0] $end
$var wire 1 G" inst|cnt_01 [3] $end
$var wire 1 H" inst|cnt_01 [2] $end
$var wire 1 I" inst|cnt_01 [1] $end
$var wire 1 J" inst|cnt_01 [0] $end
$var wire 1 K" inst|cnt_001 [19] $end
$var wire 1 L" inst|cnt_001 [18] $end
$var wire 1 M" inst|cnt_001 [17] $end
$var wire 1 N" inst|cnt_001 [16] $end
$var wire 1 O" inst|cnt_001 [15] $end
$var wire 1 P" inst|cnt_001 [14] $end
$var wire 1 Q" inst|cnt_001 [13] $end
$var wire 1 R" inst|cnt_001 [12] $end
$var wire 1 S" inst|cnt_001 [11] $end
$var wire 1 T" inst|cnt_001 [10] $end
$var wire 1 U" inst|cnt_001 [9] $end
$var wire 1 V" inst|cnt_001 [8] $end
$var wire 1 W" inst|cnt_001 [7] $end
$var wire 1 X" inst|cnt_001 [6] $end
$var wire 1 Y" inst|cnt_001 [5] $end
$var wire 1 Z" inst|cnt_001 [4] $end
$var wire 1 [" inst|cnt_001 [3] $end
$var wire 1 \" inst|cnt_001 [2] $end
$var wire 1 ]" inst|cnt_001 [1] $end
$var wire 1 ^" inst|cnt_001 [0] $end
$var wire 1 _" inst12|cntval [3] $end
$var wire 1 `" inst12|cntval [2] $end
$var wire 1 a" inst12|cntval [1] $end
$var wire 1 b" inst12|cntval [0] $end
$upscope $end
$upscope $end
$enddefinitions $end
#0
$dumpvars
0!
0"
0#
0$
0%
0&
0-
0,
0+
0*
0)
0(
1'
04
03
02
01
00
0/
1.
0;
0:
09
08
07
06
15
0B
0A
0@
0?
0>
0=
1<
xC
0D
1E
xF
1G
1H
1I
0J
0K
0L
0M
1N
0O
0P
0Q
0R
0S
0T
1U
0V
0W
0X
0Y
0Z
0[
1\
0]
0^
0_
0`
0a
0b
1c
0d
0e
0f
0g
0h
0i
0j
0k
1l
0m
0n
0o
0p
1q
0r
0s
0t
1u
0v
0w
0x
1y
0z
0{
0|
1}
0~
0!!
0"!
0#!
1$!
0%!
0&!
0'!
1(!
0)!
0*!
0+!
1,!
0-!
0.!
0/!
10!
01!
02!
03!
14!
05!
06!
07!
18!
19!
1:!
1;!
1<!
0=!
0>!
1?!
0@!
0A!
0B!
0C!
0D!
0E!
1F!
0G!
0H!
0I!
0J!
0K!
0L!
0M!
1N!
0O!
0P!
0Q!
1R!
0S!
1T!
0U!
0V!
0W!
0X!
0Y!
1Z!
0[!
0\!
0]!
0^!
0_!
0`!
0a!
0b!
0c!
0d!
0e!
0f!
0g!
0h!
1i!
0j!
0k!
0l!
0m!
0n!
0o!
0p!
0q!
0r!
0s!
0t!
0u!
0v!
0w!
0x!
1y!
0z!
0{!
0|!
0}!
0~!
0!"
0""
0#"
0$"
0%"
0&"
0'"
0("
0)"
1*"
0+"
0,"
0-"
0."
0/"
00"
01"
02"
06"
05"
04"
03"
0:"
09"
08"
07"
0>"
0="
0<"
0;"
0B"
0A"
0@"
0?"
0F"
0E"
0D"
0C"
0J"
0I"
0H"
0G"
0^"
0]"
0\"
0["
0Z"
0Y"
0X"
0W"
0V"
0U"
0T"
0S"
0R"
0Q"
0P"
0O"
0N"
0M"
0L"
0K"
0b"
0a"
0`"
0_"
$end
#5000
1!
0C
1j
1k
1^"
1=!
1n
0l
1>!
1o
1J
1V!
1p
1%
1J"
1@!
0?!
#10000
0!
1C
0j
0k
#15000
1!
0C
1j
1k
1W!
0^"
1Y!
0=!
0n
1l
0>!
0o
0J
0V!
0p
0%
#20000
0!
1C
0j
0k
#25000
1!
0C
1j
1k
1B"
1X!
0W!
1^"
1c!
1`!
1_!
1^!
1[!
0Z!
0Y!
1=!
1n
0l
1O
1P
1Q
1T
1>!
1o
1(
1)
1*
1-
1J
1V!
1p
1%
1I"
0J"
1?!
#30000
0!
1C
0j
0k
#35000
1!
0C
1j
1k
0X!
1W!
0^"
1Y!
0=!
0n
1l
0>!
0o
0J
0V!
0p
0%
#40000
0!
1C
0j
0k
#45000
1!
0C
1j
1k
1A"
0B"
1X!
0W!
1^"
0c!
1a!
0`!
0_!
1]!
1Z!
0Y!
1=!
1n
0l
0N
0P
0Q
1R
0T
1>!
1o
0'
0)
0*
1+
0-
1J
1V!
1p
1%
1J"
1A!
0@!
0?!
1B!
#50000
0!
1C
0j
0k
#55000
1!
0C
1j
1k
0X!
1W!
0^"
1Y!
0=!
0n
1l
0>!
0o
0J
0V!
0p
0%
#60000
0!
1C
0j
0k
#65000
1!
0C
1j
1k
1B"
1X!
0W!
1^"
0a!
1_!
1\!
0[!
0Z!
0Y!
1=!
1n
0l
1P
0R
1>!
1o
1)
0+
1J
1V!
1p
1%
1H"
0I"
0J"
1?!
#70000
0!
1C
0j
0k
#75000
1!
0C
1j
1k
0X!
1W!
0^"
1Y!
0=!
0n
1l
0>!
0o
0J
0V!
0p
0%
#80000
0!
1C
0j
0k
#85000
1!
0C
1j
1k
1@"
0A"
0B"
1X!
0W!
1^"
1c!
1`!
0^!
1Z!
0Y!
1=!
1n
0l
0O
1Q
1T
1>!
1o
0(
1*
1-
1J
1V!
1p
1%
1J"
1@!
0?!
#90000
0!
1C
0j
0k
#95000
1!
0C
1j
1k
0X!
1W!
0^"
1Y!
0=!
0n
1l
0>!
0o
0J
0V!
0p
0%
#100000
0!
1C
0j
0k
#105000
1!
0C
1j
1k
1B"
1X!
0W!
1^"
0c!
1b!
0`!
1[!
0Z!
0Y!
1=!
1n
0l
0Q
1S
0T
1>!
1o
0*
1,
0-
1J
1V!
1p
1%
1I"
0J"
1?!
#110000
0!
1C
0j
0k
#115000
1!
0C
1j
1k
0X!
1W!
0^"
1Y!
0=!
0n
1l
0>!
0o
0J
0V!
0p
0%
#120000
0!
1C
0j
0k
#125000
1!
0C
1j
1k
1A"
0B"
1X!
0W!
1^"
0_!
1Z!
0Y!
1=!
1n
0l
0P
1>!
1o
0)
1J
1V!
1p
1%
1J"
1C!
0A!
0@!
0?!
1D!
0B!
#130000
0!
1C
0j
0k
#135000
1!
0C
1j
1k
0X!
1W!
0^"
1Y!
0=!
0n
1l
0>!
0o
0J
0V!
0p
0%
#140000
0!
1C
0j
0k
#145000
1!
0C
1j
1k
1B"
1X!
0W!
1^"
0b!
1`!
1_!
1^!
0]!
0\!
0[!
0Z!
1U!
0Y!
1=!
1n
0l
1N
1O
1P
1Q
0S
1>!
1o
1'
1(
1)
1*
0,
1J
1V!
1p
1%
1G"
0H"
0I"
0J"
1?!
#150000
0!
1C
0j
0k
#155000
1!
0C
1j
1k
0X!
1W!
0^"
1Y!
0=!
0n
1l
0>!
0o
0J
0V!
0p
0%
#160000
0!
1C
0j
0k
#165000
1!
0C
1j
1k
0@"
0A"
0B"
1?"
1X!
0W!
1^"
0`!
0_!
0^!
1]!
1Z!
0Y!
1=!
1n
0l
0N
0O
0P
0Q
1>!
1o
0'
0(
0)
0*
1J
1V!
1p
1%
1J"
1E!
1@!
0?!
1K
1e!
0D!
0@!
1$
16"
1G!
0F!
#170000
0!
1C
0j
0k
#175000
1!
0C
1j
1k
1f!
0X!
1W!
0^"
1h!
1Y!
0=!
0n
1l
0>!
0o
0J
0V!
0p
0%
#180000
0!
1C
0j
0k
#185000
1!
0C
1j
1k
1:"
1g!
1B"
1X!
0W!
1^"
1r!
1o!
1n!
1m!
0i!
1d!
0h!
1_!
0Z!
0U!
0Y!
1=!
1n
0l
1P
1V
1W
1X
1[
1>!
1o
1)
1/
10
11
14
1J
1V!
1p
1%
0G"
0J"
0E!
0C!
0K
0e!
1?!
0$
#190000
0!
1C
0j
0k
#195000
1!
0C
1j
1k
0f!
0X!
1W!
0^"
1Y!
0=!
0n
1l
0>!
0o
0J
0V!
0p
0%
#200000
0!
1C
0j
0k
#205000
1!
0C
1j
1k
0g!
0B"
0?"
1X!
0W!
1^"
0_!
0]!
1Z!
0Y!
1=!
1n
0l
1N
0P
1>!
1o
1'
0)
1J
1V!
1p
1%
1J"
1@!
0?!
#210000
0!
1C
0j
0k
#215000
1!
0C
1j
1k
0X!
1W!
0^"
1Y!
0=!
0n
1l
0>!
0o
0J
0V!
0p
0%
#220000
0!
1C
0j
0k
#225000
1!
0C
1j
1k
1B"
1X!
0W!
1^"
1c!
1`!
1_!
1^!
1[!
0Z!
0Y!
1=!
1n
0l
1O
1P
1Q
1T
1>!
1o
1(
1)
1*
1-
1J
1V!
1p
1%
1I"
0J"
1?!
#230000
0!
1C
0j
0k
#235000
1!
0C
1j
1k
0X!
1W!
0^"
1Y!
0=!
0n
1l
0>!
0o
0J
0V!
0p
0%
#240000
0!
1C
0j
0k
#245000
1!
0C
1j
1k
1A"
0B"
1X!
0W!
1^"
0c!
1a!
0`!
0_!
1]!
1Z!
0Y!
1=!
1n
0l
0N
0P
0Q
1R
0T
1>!
1o
0'
0)
0*
1+
0-
1J
1V!
1p
1%
1J"
1A!
0@!
0?!
1B!
#250000
0!
1C
0j
0k
#255000
1!
0C
1j
1k
0X!
1W!
0^"
1Y!
0=!
0n
1l
0>!
0o
0J
0V!
0p
0%
#260000
0!
1C
0j
0k
#265000
1!
0C
1j
1k
1B"
1X!
0W!
1^"
0a!
1_!
1\!
0[!
0Z!
0Y!
1=!
1n
0l
1P
0R
1>!
1o
1)
0+
1J
1V!
1p
1%
1H"
0I"
0J"
1?!
#270000
0!
1C
0j
0k
#275000
1!
0C
1j
1k
0X!
1W!
0^"
1Y!
0=!
0n
1l
0>!
0o
0J
0V!
0p
0%
#280000
0!
1C
0j
0k
#285000
1!
0C
1j
1k
1@"
0A"
0B"
1X!
0W!
1^"
1c!
1`!
0^!
1Z!
0Y!
1=!
1n
0l
0O
1Q
1T
1>!
1o
0(
1*
1-
1J
1V!
1p
1%
1J"
1@!
0?!
#290000
0!
1C
0j
0k
#295000
1!
0C
1j
1k
0X!
1W!
0^"
1Y!
0=!
0n
1l
0>!
0o
0J
0V!
0p
0%
#300000
0!
1C
0j
0k
#305000
1!
0C
1j
1k
1B"
1X!
0W!
1^"
0c!
1b!
0`!
1[!
0Z!
0Y!
1=!
1n
0l
0Q
1S
0T
1>!
1o
0*
1,
0-
1J
1V!
1p
1%
1I"
0J"
1?!
#310000
0!
1C
0j
0k
#315000
1!
0C
1j
1k
0X!
1W!
0^"
1Y!
0=!
0n
1l
0>!
0o
0J
0V!
0p
0%
#320000
0!
1C
0j
0k
#325000
1!
0C
1j
1k
1A"
0B"
1X!
0W!
1^"
0_!
1Z!
0Y!
1=!
1n
0l
0P
1>!
1o
0)
1J
1V!
1p
1%
1J"
1C!
0A!
0@!
0?!
1D!
0B!
#330000
0!
1C
0j
0k
#335000
1!
0C
1j
1k
0X!
1W!
0^"
1Y!
0=!
0n
1l
0>!
0o
0J
0V!
0p
0%
#340000
0!
1C
0j
0k
#345000
1!
0C
1j
1k
1B"
1X!
0W!
1^"
0b!
1`!
1_!
1^!
0]!
0\!
0[!
0Z!
1U!
0Y!
1=!
1n
0l
1N
1O
1P
1Q
0S
1>!
1o
1'
1(
1)
1*
0,
1J
1V!
1p
1%
1G"
0H"
0I"
0J"
1?!
#350000
0!
1C
0j
0k
#355000
1!
0C
1j
1k
0X!
1W!
0^"
1Y!
0=!
0n
1l
0>!
0o
0J
0V!
0p
0%
#360000
0!
1C
0j
0k
#365000
1!
0C
1j
1k
0@"
0A"
0B"
1?"
1X!
0W!
1^"
0`!
0_!
0^!
1]!
1Z!
0Y!
1=!
1n
0l
0N
0O
0P
0Q
1>!
1o
0'
0(
0)
0*
1J
1V!
1p
1%
1J"
1E!
1@!
0?!
1K
1e!
0D!
0@!
1$
15"
06"
1F!
#370000
0!
1C
0j
0k
#375000
1!
0C
1j
1k
1f!
0X!
1W!
0^"
1h!
1Y!
0=!
0n
1l
0>!
0o
0J
0V!
0p
0%
#380000
0!
1C
0j
0k
#385000
1!
0C
1j
1k
0:"
19"
1g!
1B"
1X!
0W!
1^"
0r!
1p!
0o!
0n!
1l!
1i!
0h!
1_!
0Z!
0U!
0Y!
1=!
1n
0l
0U
1P
0W
0X
1Y
0[
1>!
1o
0.
1)
00
01
12
04
1J
1V!
1p
1%
0G"
0J"
0E!
0C!
0K
0e!
1?!
0$
#390000
0!
1C
0j
0k
#395000
1!
0C
1j
1k
0f!
0X!
1W!
0^"
1Y!
0=!
0n
1l
0>!
0o
0J
0V!
0p
0%
#400000
0!
1C
0j
0k
#405000
1!
0C
1j
1k
0g!
0B"
0?"
1X!
0W!
1^"
0_!
0]!
1Z!
0Y!
1=!
1n
0l
1N
0P
1>!
1o
1'
0)
1J
1V!
1p
1%
1J"
1@!
0?!
#410000
0!
1C
0j
0k
#415000
1!
0C
1j
1k
0X!
1W!
0^"
1Y!
0=!
0n
1l
0>!
0o
0J
0V!
0p
0%
#420000
0!
1C
0j
0k
#425000
1!
0C
1j
1k
1B"
1X!
0W!
1^"
1c!
1`!
1_!
1^!
1[!
0Z!
0Y!
1=!
1n
0l
1O
1P
1Q
1T
1>!
1o
1(
1)
1*
1-
1J
1V!
1p
1%
1I"
0J"
1?!
#430000
0!
1C
0j
0k
#435000
1!
0C
1j
1k
0X!
1W!
0^"
1Y!
0=!
0n
1l
0>!
0o
0J
0V!
0p
0%
#440000
0!
1C
0j
0k
#445000
1!
0C
1j
1k
1A"
0B"
1X!
0W!
1^"
0c!
1a!
0`!
0_!
1]!
1Z!
0Y!
1=!
1n
0l
0N
0P
0Q
1R
0T
1>!
1o
0'
0)
0*
1+
0-
1J
1V!
1p
1%
1J"
1A!
0@!
0?!
1B!
#450000
0!
1C
0j
0k
#455000
1!
0C
1j
1k
0X!
1W!
0^"
1Y!
0=!
0n
1l
0>!
0o
0J
0V!
0p
0%
#460000
0!
1C
0j
0k
#465000
1!
0C
1j
1k
1B"
1X!
0W!
1^"
0a!
1_!
1\!
0[!
0Z!
0Y!
1=!
1n
0l
1P
0R
1>!
1o
1)
0+
1J
1V!
1p
1%
1H"
0I"
0J"
1?!
#470000
0!
1C
0j
0k
#475000
1!
0C
1j
1k
0X!
1W!
0^"
1Y!
0=!
0n
1l
0>!
0o
0J
0V!
0p
0%
#480000
0!
1C
0j
0k
#485000
1!
0C
1j
1k
1@"
0A"
0B"
1X!
0W!
1^"
1c!
1`!
0^!
1Z!
0Y!
1=!
1n
0l
0O
1Q
1T
1>!
1o
0(
1*
1-
1J
1V!
1p
1%
1J"
1@!
0?!
#490000
0!
1C
0j
0k
#495000
1!
0C
1j
1k
0X!
1W!
0^"
1Y!
0=!
0n
1l
0>!
0o
0J
0V!
0p
0%
#500000
0!
1C
0j
0k
#505000
1!
0C
1j
1k
1B"
1X!
0W!
1^"
0c!
1b!
0`!
1[!
0Z!
0Y!
1=!
1n
0l
0Q
1S
0T
1>!
1o
0*
1,
0-
1J
1V!
1p
1%
1I"
0J"
1?!
#510000
0!
1C
0j
0k
#515000
1!
0C
1j
1k
0X!
1W!
0^"
1Y!
0=!
0n
1l
0>!
0o
0J
0V!
0p
0%
#520000
0!
1C
0j
0k
#525000
1!
0C
1j
1k
1A"
0B"
1X!
0W!
1^"
0_!
1Z!
0Y!
1=!
1n
0l
0P
1>!
1o
0)
1J
1V!
1p
1%
1J"
1C!
0A!
0@!
0?!
1D!
0B!
#530000
0!
1C
0j
0k
#535000
1!
0C
1j
1k
0X!
1W!
0^"
1Y!
0=!
0n
1l
0>!
0o
0J
0V!
0p
0%
#540000
0!
1C
0j
0k
#545000
1!
0C
1j
1k
1B"
1X!
0W!
1^"
0b!
1`!
1_!
1^!
0]!
0\!
0[!
0Z!
1U!
0Y!
1=!
1n
0l
1N
1O
1P
1Q
0S
1>!
1o
1'
1(
1)
1*
0,
1J
1V!
1p
1%
1G"
0H"
0I"
0J"
1?!
#550000
0!
1C
0j
0k
#555000
1!
0C
1j
1k
0X!
1W!
0^"
1Y!
0=!
0n
1l
0>!
0o
0J
0V!
0p
0%
#560000
0!
1C
0j
0k
#565000
1!
0C
1j
1k
0@"
0A"
0B"
1?"
1X!
0W!
1^"
0`!
0_!
0^!
1]!
1Z!
0Y!
1=!
1n
0l
0N
0O
0P
0Q
1>!
1o
0'
0(
0)
0*
1J
1V!
1p
1%
1J"
1E!
1@!
0?!
1K
1e!
0D!
0@!
1$
16"
1H!
0G!
0F!
1I!
#570000
0!
1C
0j
0k
#575000
1!
0C
1j
1k
1f!
0X!
1W!
0^"
1h!
1Y!
0=!
0n
1l
0>!
0o
0J
0V!
0p
0%
#580000
0!
1C
0j
0k
#585000
1!
0C
1j
1k
1:"
1g!
1B"
1X!
0W!
1^"
0p!
1n!
1j!
0i!
0d!
0h!
1_!
0Z!
0U!
0Y!
1=!
1n
0l
1P
1W
0Y
1>!
1o
1)
10
02
1J
1V!
1p
1%
0G"
0J"
0E!
0C!
0K
0e!
1?!
0$
#590000
0!
1C
0j
0k
#595000
1!
0C
1j
1k
0f!
0X!
1W!
0^"
1Y!
0=!
0n
1l
0>!
0o
0J
0V!
0p
0%
#600000
0!
1C
0j
0k
#605000
1!
0C
1j
1k
0g!
0B"
0?"
1X!
0W!
1^"
0_!
0]!
1Z!
0Y!
1=!
1n
0l
1N
0P
1>!
1o
1'
0)
1J
1V!
1p
1%
1J"
1@!
0?!
#610000
0!
1C
0j
0k
#615000
1!
0C
1j
1k
0X!
1W!
0^"
1Y!
0=!
0n
1l
0>!
0o
0J
0V!
0p
0%
#620000
0!
1C
0j
0k
#625000
1!
0C
1j
1k
1B"
1X!
0W!
1^"
1c!
1`!
1_!
1^!
1[!
0Z!
0Y!
1=!
1n
0l
1O
1P
1Q
1T
1>!
1o
1(
1)
1*
1-
1J
1V!
1p
1%
1I"
0J"
1?!
#630000
0!
1C
0j
0k
#635000
1!
0C
1j
1k
0X!
1W!
0^"
1Y!
0=!
0n
1l
0>!
0o
0J
0V!
0p
0%
#640000
0!
1C
0j
0k
#645000
1!
0C
1j
1k
1A"
0B"
1X!
0W!
1^"
0c!
1a!
0`!
0_!
1]!
1Z!
0Y!
1=!
1n
0l
0N
0P
0Q
1R
0T
1>!
1o
0'
0)
0*
1+
0-
1J
1V!
1p
1%
1J"
1A!
0@!
0?!
1B!
#650000
0!
1C
0j
0k
#655000
1!
0C
1j
1k
0X!
1W!
0^"
1Y!
0=!
0n
1l
0>!
0o
0J
0V!
0p
0%
#660000
0!
1C
0j
0k
#665000
1!
0C
1j
1k
1B"
1X!
0W!
1^"
0a!
1_!
1\!
0[!
0Z!
0Y!
1=!
1n
0l
1P
0R
1>!
1o
1)
0+
1J
1V!
1p
1%
1H"
0I"
0J"
1?!
#670000
0!
1C
0j
0k
#675000
1!
0C
1j
1k
0X!
1W!
0^"
1Y!
0=!
0n
1l
0>!
0o
0J
0V!
0p
0%
#680000
0!
1C
0j
0k
#685000
1!
0C
1j
1k
1@"
0A"
0B"
1X!
0W!
1^"
1c!
1`!
0^!
1Z!
0Y!
1=!
1n
0l
0O
1Q
1T
1>!
1o
0(
1*
1-
1J
1V!
1p
1%
1J"
1@!
0?!
#690000
0!
1C
0j
0k
