Clock/Timer/simulation/qsim/timer.msim.vcd
$comment
	File created using the following command:
		vcd file timer.msim.vcd -direction
$end
$date
	Mon Sep 04 20:58:03 2023
$end
$version
	ModelSim Version 10.4
$end
$timescale
	1ps
$end

$scope module timer_vlg_vec_tst $end
$var reg 1 ! clk $end
$var reg 1 " rst $end
$var wire 1 # pul_1 $end
$var wire 1 $ pul_01 $end
$var wire 1 % pul_001 $end
$var wire 1 & pul_10 $end
$var wire 1 ' sampler $end

$scope module i1 $end
$var wire 1 ( gnd $end
$var wire 1 ) vcc $end
$var wire 1 * unknown $end
$var tri1 1 + devclrn $end
$var tri1 1 , devpor $end
$var tri1 1 - devoe $end
$var wire 1 . pul_001~output_o $end
$var wire 1 / pul_01~output_o $end
$var wire 1 0 pul_1~output_o $end
$var wire 1 1 pul_10~output_o $end
$var wire 1 2 clk~input_o $end
$var wire 1 3 cnt_001[0]~20_combout $end
$var wire 1 4 cnt_001[0]~feeder_combout $end
$var wire 1 5 rst~input_o $end
$var wire 1 6 rst~inputclkctrl_outclk $end
$var wire 1 7 cnt_001[0]~21 $end
$var wire 1 8 cnt_001[1]~22_combout $end
$var wire 1 9 cnt_001[1]~23 $end
$var wire 1 : cnt_001[2]~24_combout $end
$var wire 1 ; cnt_001[2]~25 $end
$var wire 1 < cnt_001[3]~26_combout $end
$var wire 1 = cnt_001[3]~27 $end
$var wire 1 > cnt_001[4]~28_combout $end
$var wire 1 ? cnt_001[4]~29 $end
$var wire 1 @ cnt_001[5]~30_combout $end
$var wire 1 A cnt_001[5]~31 $end
$var wire 1 B cnt_001[6]~32_combout $end
$var wire 1 C cnt_001[6]~33 $end
$var wire 1 D cnt_001[7]~34_combout $end
$var wire 1 E cnt_001[7]~35 $end
$var wire 1 F cnt_001[8]~36_combout $end
$var wire 1 G cnt_001[8]~37 $end
$var wire 1 H cnt_001[9]~38_combout $end
$var wire 1 I cnt_001[9]~39 $end
$var wire 1 J cnt_001[10]~40_combout $end
$var wire 1 K cnt_001[10]~41 $end
$var wire 1 L cnt_001[11]~42_combout $end
$var wire 1 M Equal0~4_combout $end
$var wire 1 N cnt_001[11]~43 $end
$var wire 1 O cnt_001[12]~44_combout $end
$var wire 1 P cnt_001[12]~45 $end
$var wire 1 Q cnt_001[13]~46_combout $end
$var wire 1 R cnt_001[13]~47 $end
$var wire 1 S cnt_001[14]~48_combout $end
$var wire 1 T cnt_001[14]~49 $end
$var wire 1 U cnt_001[15]~50_combout $end
$var wire 1 V Equal0~5_combout $end
$var wire 1 W Equal0~1_combout $end
$var wire 1 X Equal0~2_combout $end
$var wire 1 Y Equal0~3_combout $end
$var wire 1 Z cnt_001[15]~51 $end
$var wire 1 [ cnt_001[16]~52_combout $end
$var wire 1 \ cnt_001[16]~53 $end
$var wire 1 ] cnt_001[17]~54_combout $end
$var wire 1 ^ cnt_001[17]~55 $end
$var wire 1 _ cnt_001[18]~56_combout $end
$var wire 1 ` cnt_001[18]~57 $end
$var wire 1 a cnt_001[19]~58_combout $end
$var wire 1 b Equal0~0_combout $end
$var wire 1 c rtl~0_combout $end
$var wire 1 d rtl~0clkctrl_outclk $end
$var wire 1 e cnt_01~3_combout $end
$var wire 1 f cnt_01~1_combout $end
$var wire 1 g cnt_01~0_combout $end
$var wire 1 h Add1~0_combout $end
$var wire 1 i cnt_01~2_combout $end
$var wire 1 j Equal1~0_combout $end
$var wire 1 k cnt_01 [3] $end
$var wire 1 l cnt_01 [2] $end
$var wire 1 m cnt_01 [1] $end
$var wire 1 n cnt_01 [0] $end
$var wire 1 o cnt_001 [19] $end
$var wire 1 p cnt_001 [18] $end
$var wire 1 q cnt_001 [17] $end
$var wire 1 r cnt_001 [16] $end
$var wire 1 s cnt_001 [15] $end
$var wire 1 t cnt_001 [14] $end
$var wire 1 u cnt_001 [13] $end
$var wire 1 v cnt_001 [12] $end
$var wire 1 w cnt_001 [11] $end
$var wire 1 x cnt_001 [10] $end
$var wire 1 y cnt_001 [9] $end
$var wire 1 z cnt_001 [8] $end
$var wire 1 { cnt_001 [7] $end
$var wire 1 | cnt_001 [6] $end
$var wire 1 } cnt_001 [5] $end
$var wire 1 ~ cnt_001 [4] $end
$var wire 1 !! cnt_001 [3] $end
$var wire 1 "! cnt_001 [2] $end
$var wire 1 #! cnt_001 [1] $end
$var wire 1 $! cnt_001 [0] $end
$upscope $end
$upscope $end
$enddefinitions $end
#0
$dumpvars
0!
0"
0#
0$
0%
0&
x'
0(
1)
x*
1+
1,
1-
0.
0/
00
01
02
13
14
05
06
07
08
19
0:
0;
0<
1=
0>
0?
0@
1A
0B
0C
0D
1E
0F
0G
0H
1I
0J
0K
0L
1M
1N
0O
0P
0Q
1R
0S
0T
0U
1V
0W
1X
0Y
1Z
0[
0\
0]
1^
0_
0`
0a
1b
0c
0d
1e
0f
0g
0h
0i
1j
0n
0m
0l
0k
0$!
0#!
0"!
0!!
0~
0}
0|
0{
0z
0y
0x
0w
0v
0u
0t
0s
0r
0q
0p
0o
$end
#5000
1!
0'
12
1$!
17
03
18
04
#10000
0!
1'
02
#15000
1!
0'
12
1#!
0$!
09
08
07
13
1:
19
18
14
0:
#20000
0!
1'
02
#25000
1!
0'
12
1$!
17
03
09
08
04
1:
#30000
0!
1'
02
#35000
1!
0'
12
1"!
0#!
0$!
1;
0:
19
18
07
13
1<
0;
1:
08
14
0<
#40000
0!
1'
02
#45000
1!
0'
12
1$!
17
03
18
04
#50000
0!
1'
02
#55000
1!
0'
12
1#!
0$!
09
08
07
13
1;
0:
19
18
14
1<
0;
1:
0<
#60000
0!
1'
02
#65000
1!
0'
12
1$!
17
03
09
08
04
1;
0:
1<
#70000
0!
1'
02
#75000
1!
0'
12
1!!
0"!
0#!
0$!
1W
0=
0<
0;
1:
19
18
07
13
1>
1=
1<
0:
08
14
0>
#80000
0!
1'
02
#85000
1!
0'
12
1$!
1Y
17
03
1c
18
04
1d
1.
1%
1n
1f
0e
#90000
0!
1'
02
#95000
1!
0'
12
0!!
0$!
0W
0<
0Y
07
13
0c
08
14
0d
0.
0%
#100000
0!
1'
02
#105000
1!
0'
12
1$!
17
03
18
04
#110000
0!
1'
02
#115000
1!
0'
12
1#!
0$!
09
08
07
13
1:
19
18
14
0:
#120000
0!
1'
02
#125000
1!
0'
12
1$!
17
03
09
08
04
1:
#130000
0!
1'
02
#135000
1!
0'
12
1"!
0#!
0$!
1;
0:
19
18
07
13
1<
0;
1:
08
14
0<
#140000
0!
1'
02
#145000
1!
0'
12
1$!
17
03
18
04
#150000
0!
1'
02
#155000
1!
0'
12
1#!
0$!
09
08
07
13
1;
0:
19
18
14
1<
0;
1:
0<
#160000
0!
1'
02
#165000
1!
0'
12
1$!
17
03
09
08
04
1;
0:
1<
#170000
0!
1'
02
#175000
1!
0'
12
1!!
0"!
0#!
0$!
1W
0=
0<
0;
1:
19
18
07
13
1>
1=
1<
0:
08
14
0>
#180000
0!
1'
02
#185000
1!
0'
12
1$!
1Y
17
03
1c
18
04
1d
1.
1%
1m
0n
1e
#190000
0!
1'
02
#195000
1!
0'
12
0!!
0$!
0W
0<
0Y
07
13
0c
08
14
0d
0.
0%
#200000
0!
1'
02
#205000
1!
0'
12
1$!
17
03
18
04
#210000
0!
1'
02
#215000
1!
0'
12
1#!
0$!
09
08
07
13
1:
19
18
14
0:
#220000
0!
1'
02
#225000
1!
0'
12
1$!
17
03
09
08
04
1:
#230000
0!
1'
02
#235000
1!
0'
12
1"!
0#!
0$!
1;
0:
19
18
07
13
1<
0;
1:
08
14
0<
#240000
0!
1'
02
#245000
1!
0'
12
1$!
17
03
18
04
#250000
0!
1'
02
#255000
1!
0'
12
1#!
0$!
09
08
07
13
1;
0:
19
18
14
1<
0;
1:
0<
#260000
0!
1'
02
#265000
1!
0'
12
1$!
17
03
09
08
04
1;
0:
1<
#270000
0!
1'
02
#275000
1!
0'
12
1!!
0"!
0#!
0$!
1W
0=
0<
0;
1:
19
18
07
13
1>
1=
1<
0:
08
14
0>
#280000
0!
1'
02
#285000
1!
0'
12
1$!
1Y
17
03
1c
18
04
1d
1.
1%
1n
1g
0f
0e
#290000
0!
1'
02
#295000
1!
0'
12
0!!
0$!
0W
0<
0Y
07
13
0c
08
14
0d
0.
0%
#300000
0!
1'
02
#305000
1!
0'
12
1$!
17
03
18
04
#310000
0!
1'
02
#315000
1!
0'
12
1#!
0$!
09
08
07
13
1:
19
18
14
0:
#320000
0!
1'
02
#325000
1!
0'
12
1$!
17
03
09
08
04
1:
#330000
0!
1'
02
#335000
1!
0'
12
1"!
0#!
0$!
1;
0:
19
18
07
13
1<
0;
1:
08
14
0<
#340000
0!
1'
02
#345000
1!
0'
12
1$!
17
03
18
04
#350000
0!
1'
02
#355000
1!
0'
12
1#!
0$!
09
08
07
13
1;
0:
19
18
14
1<
0;
1:
0<
#360000
0!
1'
02
#365000
1!
0'
12
1$!
17
03
09
08
04
1;
0:
1<
#370000
0!
1'
02
#375000
1!
0'
12
1!!
0"!
0#!
0$!
1W
0=
0<
0;
1:
19
18
07
13
1>
1=
1<
0:
08
14
0>
#380000
0!
1'
02
#385000
1!
0'
12
1$!
1Y
17
03
1c
18
04
1d
1.
1%
1l
0m
0n
1e
#390000
0!
1'
02
#395000
1!
0'
12
0!!
0$!
0W
0<
0Y
07
13
0c
08
14
0d
0.
0%
#400000
0!
1'
02
#405000
1!
0'
12
1$!
17
03
18
04
#410000
0!
1'
02
#415000
1!
0'
12
1#!
0$!
09
08
07
13
1:
19
18
14
0:
#420000
0!
1'
02
#425000
1!
0'
12
1$!
17
03
09
08
04
1:
#430000
0!
1'
02
#435000
1!
0'
12
1"!
0#!
0$!
1;
0:
19
18
07
13
1<
0;
1:
08
14
0<
#440000
0!
1'
02
#445000
1!
0'
12
1$!
17
03
18
04
#450000
0!
1'
02
#455000
1!
0'
12
1#!
0$!
09
08
07
13
1;
0:
19
18
14
1<
0;
1:
0<
#460000
0!
1'
02
#465000
1!
0'
12
1$!
17
03
09
08
04
1;
0:
1<
#470000
0!
1'
02
#475000
1!
0'
12
1!!
0"!
0#!
0$!
1W
0=
0<
0;
1:
19
18
07
13
1>
1=
1<
0:
08
14
0>
#480000
0!
1'
02
#485000
1!
0'
12
1$!
1Y
17
03
1c
18
04
1d
1.
1%
1n
1f
0e
#490000
0!
1'
02
#495000
1!
0'
12
0!!
0$!
0W
0<
0Y
07
13
0c
08
14
0d
0.
0%
#500000
0!
1'
02
#505000
1!
0'
12
1$!
17
03
18
04
#510000
0!
1'
02
#515000
1!
0'
12
1#!
0$!
09
08
07
13
1:
19
18
14
0:
#520000
0!
1'
02
#525000
1!
0'
12
1$!
17
03
09
08
04
1:
#530000
0!
1'
02
#535000
1!
0'
12
1"!
0#!
0$!
1;
0:
19
18
07
13
1<
0;
1:
08
14
0<
#540000
0!
1'
02
#545000
1!
0'
12
1$!
17
03
18
04
#550000
0!
1'
02
#555000
1!
0'
12
1#!
0$!
09
08
07
13
1;
0:
19
18
14
1<
0;
1:
0<
#560000
0!
1'
02
#565000
1!
0'
12
1$!
17
03
09
08
04
1;
0:
1<
#570000
0!
1'
02
#575000
1!
0'
12
1!!
0"!
0#!
0$!
1W
0=
0<
0;
1:
19
18
07
13
1>
1=
1<
0:
08
14
0>
#580000
0!
1'
02
#585000
1!
0'
12
1$!
1Y
17
03
1c
18
04
1d
1.
1%
1m
0n
1e
#590000
0!
1'
02
#595000
1!
0'
12
0!!
0$!
0W
0<
0Y
07
13
0c
08
14
0d
0.
0%
#600000
0!
1'
02
#605000
1!
0'
12
1$!
17
03
18
04
#610000
0!
1'
02
#615000
1!
0'
12
1#!
0$!
09
08
07
13
1:
19
18
14
0:
#620000
0!
1'
02
#625000
1!
0'
12
1$!
17
03
09
08
04
1:
#630000
0!
1'
02
#635000
1!
0'
12
1"!
0#!
0$!
1;
0:
19
18
07
13
1<
0;
1:
08
14
0<
#640000
0!
1'
02
#645000
1!
0'
12
1$!
17
03
18
04
#650000
0!
1'
02
#655000
1!
0'
12
1#!
0$!
09
08
07
13
1;
0:
19
18
14
1<
0;
1:
0<
#660000
0!
1'
02
#665000
1!
0'
12
1$!
17
03
09
08
04
1;
0:
1<
#670000
0!
1'
02
#675000
1!
0'
12
1!!
0"!
0#!
0$!
1W
0=
0<
0;
1:
19
18
07
13
1>
1=
1<
0:
08
14
0>
#680000
0!
1'
02
#685000
1!
0'
12
1$!
1Y
17
03
1c
18
04
1d
1.
1%
1n
1h
0g
0f
0e
1i
#690000
0!
1'
02
#695000
1!
0'
12
0!!
0$!
0W
0<
0Y
07
13
0c
08
14
0d
0.
0%
#700000
0!
1'
02
#705000
1!
0'
12
1$!
17
03
18
04
#710000
0!
1'
02
#715000
1!
0'
12
1#!
0$!
09
08
07
13
1:
19
18
14
0:
#720000
0!
1'
02
#725000
1!
0'
12
1$!
17
03
09
08
04
1:
#730000
0!
1'
02
#735000
1!
0'
12
1"!
0#!
0$!
1;
0:
19
18
07
13
1<
0;
1:
08
14
0<
#740000
0!
1'
02
#745000
1!
0'
12
1$!
17
03
18
04
#750000
0!
1'
02
#755000
1!
0'
12
1#!
0$!
09
08
07
13
1;
0:
19
18
14
1<
0;
1:
0<
#760000
0!
1'
02
#765000
1!
0'
12
1$!
17
03
09
08
04
1;
0:
1<
#770000
0!
1'
02
#775000
1!
0'
12
1!!
0"!
0#!
0$!
1W
0=
0<
0;
1:
19
18
07
13
1>
1=
1<
0:
08
14
0>
#780000
0!
1'
02
#785000
1!
0'
12
1$!
1Y
17
03
1c
18
04
1d
1.
1%
1k
0l
0m
0n
1e
#790000
0!
1'
02
#795000
1!
0'
12
0!!
0$!
0W
0<
0Y
07
13
0c
08
14
0d
0.
0%
#800000
0!
1'
02
#805000
1!
0'
12
1$!
17
03
18
04
#810000
0!
1'
02
#815000
1!
0'
12
1#!
0$!
09
08
07
13
1:
19
18
14
0:
#820000
0!
1'
02
#825000
1!
0'
12
1$!
17
03
09
08
04
1:
#830000
0!
1'
02
#835000
1!
0'
12
1"!
0#!
0$!
1;
0:
19
18
07
13
1<
0;
1:
08
14
0<
#840000
0!
1'
02
#845000
1!
0'
12
1$!
17
03
18
04
#850000
0!
1'
02
#855000
1!
0'
12
1#!
0$!
09
08
07
13
1;
0:
19
18
14
1<
0;
1:
0<
#860000
0!
1'
02
#865000
1!
0'
12
1$!
17
03
09
08
04
1;
0:
1<
#870000
0!
1'
02
#875000
1!
0'
12
1!!
0"!
0#!
0$!
1W
0=
0<
0;
1:
19
18
07
13
1>
1=
1<
0:
08
14
0>
#880000
0!
1'
02
#885000
1!
0'
12
1$!
1Y
17
03
1c
18
04
1d
1.
1%
1n
0j
1f
0e
1/
0i
0f
1$
#890000
0!
1'
02
#895000
1!
0'
12
0!!
0$!
0W
0<
0Y
07
13
0c
08
14
0d
0.
0%
#900000
0!
1'
02
#905000
1!
0'
12
1$!
17
03
18
04
#910000
0!
1'
02
#915000
1!
0'
12
1#!
0$!
09
08
07
13
1:
19
18
14
0:
#920000
0!
1'
02
#925000
1!
0'
12
1$!
17
03
09
08
04
1:
#930000
0!
1'
02
#935000
1!
0'
12
1"!
0#!
0$!
1;
0:
19
18
07
13
1<
0;
1:
08
14
0<
#940000
0!
1'
02
#945000
1!
0'
12
1$!
17
03
18
04
#950000
0!
1'
02
#955000
1!
0'
12
1#!
0$!
09
08
07
13
1;
0:
19
18
14
1<
0;
1:
0<
#960000
0!
1'
02
#965000
1!
0'
12
1$!
17
03
09
08
04
1;
0:
1<
#970000
0!
1'
02
#975000
1!
0'
12
1!!
0"!
0#!
0$!
1W
0=
0<
0;
1:
19
18
07
13
1>
1=
1<
0:
08
14
0>
#980000
0!
1'
02
#985000
1!
0'
12
1$!
1Y
17
03
1c
18
04
1d
1.
1%
0k
0n
1j
0h
1e
0/
0$
#990000
0!
1'
02
#995000
1!
0'
12
0!!
0$!
0W
0<
0Y
07
13
0c
08
14
0d
0.
0%
#1000000
0!
1'
02
#1005000
1!
0'
12
1$!
17
03
18
04
#1010000
0!
1'
02
#1015000
1!
0'
12
1#!
0$!
09
08
07
13
1:
19
18
14
0:
#1020000
0!
1'
02
#1025000
1!
0'
12
1$!
17
03
09
08
04
1:
#1030000
0!
1'
02
#1035000
1!
0'
12
1"!
0#!
0$!
1;
0:
19
18
07
13
1<
0;
1:
08
14
0<
#1040000
0!
1'
02
#1045000
1!
0'
12
1$!
17
03
18
04
#1050000
0!
1'
02
#1055000
1!
0'
12
1#!
0$!
09
08
07
13
1;
0:
19
18
14
1<
0;
1:
0<
#1060000
0!
1'
02
#1065000
1!
0'
12
1$!
17
03
09
08
04
1;
0:
1<
#1070000
0!
1'
02
#1075000
1!
0'
12
1!!
0"!
0#!
0$!
1W
0=
0<
0;
1:
19
18
07
13
1>
1=
1<
0:
08
14
0>
#1080000
0!
1'
02
#1085000
1!
0'
12
1$!
1Y
17
03
1c
18
04
1d
1.
1%
1n
1f
0e
#1090000
0!
1'
02
#1095000
1!
0'
12
0!!
0$!
0W
0<
0Y
07
13
0c
08
14
0d
0.
0%
#1100000
0!
1'
02
#1105000
1!
0'
12
1$!
17
03
18
04
#1110000
0!
1'
02
#1115000
1!
0'
12
1#!
0$!
09
08
07
13
1:
19
18
14
0:
#1120000
0!
1'
02
#1125000
1!
0'
12
1$!
17
03
09
08
04
1:
#1130000
0!
1'
02
#1135000
1!
0'
12
1"!
0#!
0$!
1;
0:
19
18
07
13
1<
0;
1:
08
14
0<
#1140000
0!
1'
02
#1145000
1!
0'
12
1$!
17
03
18
04
#1150000
0!
1'
02
#1155000
1!
0'
12
1#!
0$!
09
08
07
13
1;
0:
19
18
14
1<
0;
1:
0<
#1160000
0!
1'
02
#1165000
1!
0'
12
1$!
17
03
09
08
04
1;
0:
1<
#1170000
0!
1'
02
#1175000
1!
0'
12
1!!
0"!
0#!
0$!
1W
0=
0<
0;
1:
19
18
07
13
1>
1=
1<
0:
08
14
0>
#1180000
0!
1'
02
#1185000
1!
0'
12
1$!
1Y
17
03
1c
18
04
1d
1.
1%
1m
0n
1e
#1190000
0!
1'
02
#1195000
1!
0'
12
0!!
0$!
0W
0<
0Y
07
13
0c
08
14
0d
0.
0%
#1200000
0!
1'
02
#1205000
1!
0'
12
1$!
17
03
18
04
#1210000
0!
1'
02
#1215000
1!
0'
12
1#!
0$!
09
08
07
13
1:
19
18
14
0:
#1220000
0!
1'
02
#1225000
1!
0'
12
1$!
17
03
09
08
04
1:
#1230000
0!
1'
02
#1235000
1!
0'
12
1"!
0#!
0$!
1;
0:
19
18
07
13
1<
0;
1:
08
14
0<
#1240000
0!
1'
02
#1245000
1!
0'
12
1$!
17
03
18
04
#1250000
0!
1'
02
#1255000
1!
0'
12
1#!
0$!
09
08
07
13
1;
0:
19
18
14
1<
0;
1:
0<
#1260000
0!
1'
02
#1265000
1!
0'
12
1$!
17
03
09
08
04
1;
0:
1<
#1270000
0!
1'
02
#1275000
1!
0'
12
1!!
0"!
0#!
0$!
1W
0=
0<
0;
1:
19
18
07
13
1>
1=
1<
0:
08
14
0>
#1280000
0!
1'
02
#1285000
1!
0'
12
1$!
1Y
17
03
1c
18
04
1d
1.
1%
1n
1g
0f
0e
#1290000
0!
1'
02
#1295000
1!
0'
12
0!!
0$!
0W
0<
0Y
07
13
0c
08
14
0d
0.
0%
#1300000
0!
1'
02
#1305000
1!
0'
12
1$!
17
03
18
04
#1310000
0!
1'
02
#1315000
1!
0'
12
1#!
0$!
09
08
07
13
1:
19
18
14
0:
#1320000
0!
1'
02
#1325000
1!
0'
12
1$!
17
03
09
08
04
1:
#1330000
0!
1'
02
#1335000
1!
0'
12
1"!
0#!
0$!
1;
0:
19
18
07
13
1<
0;
1:
08
14
0<
#1340000
0!
1'
02
#1345000
1!
0'
12
1$!
17
03
18
04
#1350000
0!
1'
02
#1355000
1!
0'
12
1#!
0$!
09
08
07
13
1;
0:
19
18
14
1<
0;
1:
0<
#1360000
0!
1'
02
#1365000
1!
0'
12
1$!
17
03
09
08
04
1;
0:
1<
#1370000
0!
1'
02
#1375000
1!
0'
12
1!!
0"!
0#!
0$!
1W
0=
0<
0;
1:
19
18
07
13
1>
1=
1<
0:
08
14
0>
#1380000
0!
1'
02
#1385000
1!
0'
12
1$!
1Y
17
03
1c
18
04
1d
1.
1%
1l
0m
0n
1e
#1390000
0!
1'
02
#1395000
1!
0'
12
0!!
0$!
0W
0<
0Y
07
13
0c
08
14
0d
0.
0%
#1400000
0!
1'
02
#1405000
1!
0'
12
1$!
17
03
18
04
#1410000
0!
1'
02
#1415000
1!
0'
12
1#!
0$!
09
08
07
13
1:
19
18
14
0:
#1420000
0!
1'
02
#1425000
1!
0'
12
1$!
17
03
09
08
04
1:
#1430000
0!
1'
02
#1435000
1!
0'
12
1"!
0#!
0$!
1;
0:
19
18
07
13
1<
0;
1:
08
14
0<
#1440000
0!
1'
02
#1445000
1!
0'
12
1$!
17
03
18
04
#1450000
0!
1'
02
#1455000
1!
0'
12
1#!
0$!
09
08
07
13
1;
0:
19
18
14
1<
0;
1:
0<
#1460000
0!
1'
02
#1465000
1!
0'
12
1$!
17
03
09
08
04
1;
0:
1<
#1470000
0!
1'
02
#1475000
1!
0'
12
1!!
0"!
0#!
0$!
1W
0=
0<
0;
1:
19
18
07
13
1>
1=
1<
0:
08
14
0>
#1480000
0!
1'
02
#1485000
1!
0'
12
1$!
1Y
17
03
1c
18
04
1d
1.
1%
1n
1f
0e
#1490000
0!
1'
02
#1495000
1!
0'
12
0!!
0$!
0W
0<
0Y
07
13
0c
08
14
0d
0.
0%
#1500000
0!
1'
02
#1505000
1!
0'
12
1$!
17
03
18
04
#1510000
0!
1'
02
#1515000
1!
0'
12
1#!
0$!
09
08
07
13
1:
19
18
14
0:
#1520000
0!
1'
02
#1525000
1!
0'
12
1$!
17
03
09
08
04
1:
#1530000
0!
1'
02
#1535000
1!
0'
12
1"!
0#!
0$!
1;
0:
19
18
07
13
1<
0;
1:
08
14
0<
#1540000
0!
1'
02
#1545000
1!
0'
12
1$!
17
03
18
04
#1550000
0!
1'
02
#1555000
1!
0'
12
1#!
0$!
09
08
07
13
1;
0:
19
18
14
1<
0;
1:
0<
#1560000
0!
1'
02
#1565000
1!
0'
12
1$!
17
03
09
08
04
1;
0:
1<
#1570000
0!
1'
02
#1575000
1!
0'
12
1!!
0"!
0#!
0$!
1W
0=
0<
0;
1:
19
18
07
13
1>
1=
1<
0:
08
14
0>
#1580000
0!
1'
02
#1585000
1!
0'
12
1$!
1Y
17
03
1c
18
04
1d
1.
1%
1m
0n
1e
#1590000
0!
1'
02
#1595000
1!
0'
12
0!!
0$!
0W
0<
0Y
07
13
0c
08
14
0d
0.
0%
#1600000
0!
1'
02
#1605000
1!
0'
12
1$!
17
03
18
04
#1610000
0!
1'
02
#1615000
1!
0'
12
1#!
0$!
09
08
07
13
1:
19
18
14
0:
#1620000
0!
1'
02
#1625000
1!
0'
12
1$!
17
03
09
08
04
1:
#1630000
0!
1'
02
#1635000
1!
0'
12
1"!
0#!
0$!
1;
0:
19
18
07
13
1<
0;
1:
08
14
0<
#1640000
0!
1'
02
#1645000
1!
0'
12
1$!
17
03
18
04
#1650000
0!
1'
02
#1655000
1!
0'
12
1#!
0$!
09
08
07
13
1;
0:
19
18
14
1<
0;
1:
0<
#1660000
0!
1'
02
#1665000
1!
0'
12
1$!
17
03
09
08
04
1;
0:
1<
#1670000
0!
1'
02
#1675000
1!
0'
12
1!!
0"!
0#!
0$!
1W
0=
0<
0;
1:
19
18
07
13
1>
1=
1<
0:
08
14
0>
#1680000
0!
1'
02
#1685000
1!
0'
12
1$!
1Y
17
03
1c
18
04
1d
1.
1%
1n
1h
0g
0f
0e
1i
#1690000
0!
1'
02
#1695000
1!
0'
12
0!!
0$!
0W
0<
0Y
07
13
0c
08
14
0d
0.
0%
#1700000
0!
1'
02
#1705000
1!
0'
12
1$!
17
03
18
04
#1710000
0!
1'
02
#1715000
1!
0'
12
1#!
0$!
09
08
07
13
1:
19
18
14
0:
#1720000
0!
1'
02
#1725000
1!
0'
12
1$!
17
03
09
08
04
1:
#1730000
0!
1'
02
#1735000
1!
0'
12
1"!
0#!
0$!
1;
0:
19
18
07
13
1<
0;
1:
08
14
0<
#1740000
0!
1'
02
#1745000
1!
0'
12
1$!
17
03
18
04
#1750000
0!
1'
02
#1755000
1!
0'
12
1#!
0$!
09
08
07
13
1;
0:
19
18
14
1<
0;
1:
0<
#1760000
0!
1'
02
#1765000
1!
0'
12
1$!
17
03
09
08
04
1;
0:
1<
#1770000
0!
1'
02
#1775000
1!
0'
12
1!!
0"!
0#!
0$!
1W
0=
0<
0;
1:
19
18
07
13
1>
1=
1<
0:
08
14
0>
#1780000
0!
1'
02
#1785000
1!
0'
12
1$!
1Y
17
03
1c
18
04
1d
1.
1%
1k
0l
0m
0n
1e
#1790000
0!
1'
02
#1795000
1!
0'
12
0!!
0$!
0W
0<
0Y
07
13
0c
08
14
0d
0.
0%
#1800000
0!
1'
02
#1805000
1!
0'
12
1$!
17
03
18
04
#1810000
0!
1'
02
#1815000
1!
0'
12
1#!
0$!
09
08
07
13
1:
19
18
14
0:
#1820000
0!
1'
02
#1825000
1!
0'
12
1$!
17
03
09
08
04
1:
#1830000
0!
1'
02
#1835000
1!
0'
12
1"!
0#!
0$!
1;
0:
19
18
07
13
1<
0;
1:
08
14
0<
#1840000
0!
1'
02
#1845000
1!
0'
12
1$!
17
03
18
04
#1850000
0!
1'
02
#1855000
1!
0'
12
1#!
0$!
09
08
07
13
1;
0:
19
18
14
1<
0;
1:
0<
#1860000
0!
1'
02
#1865000
1!
0'
12
1$!
17
03
09
08
04
1;
0:
1<
#1870000
0!
1'
02
#1875000
1!
0'
12
1!!
0"!
0#!
0$!
1W
0=
0<
0;
1:
19
18
07
13
1>
1=
1<
0:
08
14
0>
#1880000
0!
1'
02
#1885000
1!
0'
12
1$!
1Y
17
03
1c
18
04
1d
1.
1%
1n
0j
1f
0e
1/
0i
0f
1$
#1890000
0!
1'
02
#1895000
1!
0'
12
0!!
0$!
0W
0<
0Y
07
13
0c
08
14
0d
0.
0%
#1900000
0!
1'
02
#1905000
1!
0'
12
1$!
17
03
18
04
#1910000
0!
1'
02
#1915000
1!
0'
12
1#!
0$!
09
08
07
13
1:
19
18
14
0:
#1920000
0!
1'
02
#1925000
1!
0'
12
1$!
17
03
09
08
04
1:
#1930000
0!
1'
02
#1935000
1!
0'
12
1"!
0#!
0$!
1;
0:
19
18
07
13
1<
0;
1:
08
14
0<
#1940000
0!
1'
02
#1945000
1!
0'
12
1$!
17
03
18
04
#1950000
0!
1'
02
#1955000
1!
0'
12
1#!
0$!
09
08
07
13
1;
0:
19
18
14
1<
0;
1:
0<
#1960000
0!
1'
02
#1965000
1!
0'
12
1$!
17
03
09
08
04
1;
0:
1<
#1970000
0!
1'
02
#1975000
1!
0'
12
1!!
0"!
0#!
0$!
1W
0=
0<
0;
1:
19
18
07
13
1>
1=
1<
0:
08
14
0>
#1980000
0!
1'
02
#1985000
1!
0'
12
1$!
1Y
17
03
1c
18
04
1d
1.
1%
0k
0n
1j
0h
1e
0/
0$
#1990000
0!
1'
02
#1995000
1!
0'
12
0!!
0$!
0W
0<
0Y
07
13
0c
08
14
0d
0.
0%
#2000000
0!
1'
02
#2005000
1!
0'
12
1$!
17
03
18
04
#2010000
0!
1'
02
#2015000
1!
0'
12
1#!
0$!
09
08
07
13
1:
19
18
14
0:
#2020000
0!
1'
02
#2025000
1!
0'
12
1$!
17
03
09
08
04
1:
#2030000
0!
1'
02
#2035000
1!
0'
12
1"!
0#!
0$!
1;
0:
19
18
07
13
1<
0;
1:
08
14
0<
#2040000
0!
1'
02
#2045000
1!
0'
12
1$!
17
03
18
04
#2050000
0!
1'
02
#2055000
1!
0'
12
1#!
0$!
09
08
07
13
1;
0:
19
18
14
1<
0;
1:
0<
#2060000
0!
1'
02
#2065000
1!
0'
12
1$!
17
03
09
08
04
1;
0:
1<
#2070000
0!
1'
02
#2075000
1!
0'
12
1!!
0"!
0#!
0$!
1W
0=
0<
0;
1:
19
18
07
13
1>
1=
1<
0:
08
14
0>
#2080000
0!
1'
02
#2085000
1!
0'
12
1$!
1Y
17
03
1c
18
04
1d
1.
1%
1n
1f
0e
#2090000
0!
1'
02
#2095000
1!
0'
12
0!!
0$!
0W
0<
0Y
07
13
0c
08
14
0d
0.
0%
#2100000
0!
1'
02
#2105000
1!
0'
12
1$!
17
03
18
04
#2110000
0!
1'
02
#2115000
1!
0'
12
1#!
0$!
09
08
07
13
1:
19
18
14
0:
#2120000
0!
1'
02
#2125000
1!
0'
12
1$!
17
03
09
08
04
1:
#2130000
0!
1'
02
#2135000
1!
0'
12
1"!
0#!
0$!
1;
0:
19
18
07
13
1<
0;
1:
08
14
0<
#2140000
0!
1'
02
#2145000
1!
0'
12
1$!
17
03
18
04
#2150000
0!
1'
02
#2155000
1!
0'
12
1#!
0$!
09
08
07
13
1;
0:
19
18
14
1<
0;
1:
0<
#2160000
0!
1'
02
#2165000
1!
0'
12
1$!
17
03
09
08
04
1;
0:
1<
#2170000
0!
1'
02
#2175000
1!
0'
12
1!!
0"!
0#!
0$!
1W
0=
0<
0;
1:
19
18
07
13
1>
1=
1<
0:
08
14
0>
#2180000
0!
1'
02
#2185000
1!
0'
12
1$!
1Y
17
03
1c
18
04
1d
1.
1%
1m
0n
1e
#2190000
0!
1'
02
#2195000
1!
0'
12
0!!
0$!
0W
0<
0Y
07
13
0c
08
14
0d
0.
0%
#2200000
0!
1'
02
#2205000
1!
0'
12
1$!
17
03
18
04
#2210000
0!
1'
02
#2215000
1!
0'
12
1#!
0$!
09
08
07
13
1:
19
18
14
0:
#2220000
0!
1'
02
