Start_lab/start_1/simulation/qsim/test2.msim.vcd
$comment
	File created using the following command:
		vcd file test2.msim.vcd -direction
$end
$date
	Thu Aug 10 08:29:25 2023
$end
$version
	ModelSim Version 10.4
$end
$timescale
	1ps
$end

$scope module test2_vlg_vec_tst $end
$var reg 1 ! SW0 $end
$var wire 1 " LED0 $end
$var wire 1 # LED1 $end
$var wire 1 $ LED2 $end
$var wire 1 % LED3 $end
$var wire 1 & LED4 $end
$var wire 1 ' LED5 $end
$var wire 1 ( LED6 $end
$var wire 1 ) LED7 $end
$var wire 1 * sampler $end

$scope module i1 $end
$var wire 1 + gnd $end
$var wire 1 , vcc $end
$var wire 1 - unknown $end
$var tri1 1 . devclrn $end
$var tri1 1 / devpor $end
$var tri1 1 0 devoe $end
$var wire 1 1 LED0~output_o $end
$var wire 1 2 LED1~output_o $end
$var wire 1 3 LED2~output_o $end
$var wire 1 4 LED3~output_o $end
$var wire 1 5 LED4~output_o $end
$var wire 1 6 LED5~output_o $end
$var wire 1 7 LED6~output_o $end
$var wire 1 8 LED7~output_o $end
$var wire 1 9 SW0~input_o $end
$upscope $end
$upscope $end
$enddefinitions $end
#0
$dumpvars
0!
0"
0#
0$
0%
0&
0'
0(
0)
x*
0+
1,
x-
1.
1/
10
01
02
03
04
05
06
07
08
09
$end
#5000
1!
0*
19
11
12
13
14
15
16
17
18
1"
1#
1$
1%
1&
1'
1(
1)
#15000
0!
1*
09
01
02
03
04
05
06
07
08
0"
0#
0$
0%
0&
0'
0(
0)
#25000
1!
0*
19
11
12
13
14
15
16
17
18
1"
1#
1$
1%
1&
1'
1(
1)
#35000
0!
1*
09
01
02
03
04
05
06
07
08
0"
0#
0$
0%
0&
0'
0(
0)
#45000
1!
0*
19
11
12
13
14
15
16
17
18
1"
1#
1$
1%
1&
1'
1(
1)
#60000
0!
1*
09
01
02
03
04
05
06
07
08
0"
0#
0$
0%
0&
0'
0(
0)
#65000
1!
0*
19
11
12
13
14
15
16
17
18
1"
1#
1$
1%
1&
1'
1(
1)
#70000
0!
1*
09
01
02
03
04
05
06
07
08
0"
0#
0$
0%
0&
0'
0(
0)
#75000
1!
0*
19
11
12
13
14
15
16
17
18
1"
1#
1$
1%
1&
1'
1(
1)
#85000
0!
1*
09
01
02
03
04
05
06
07
08
0"
0#
0$
0%
0&
0'
0(
0)
#95000
1!
0*
19
11
12
13
14
15
16
17
18
1"
1#
1$
1%
1&
1'
1(
1)
#120000
0!
1*
09
01
02
03
04
05
06
07
08
0"
0#
0$
0%
0&
0'
0(
0)
#125000
1!
0*
19
11
12
13
14
15
16
17
18
1"
1#
1$
1%
1&
1'
1(
1)
#130000
0!
1*
09
01
02
03
04
05
06
07
08
0"
0#
0$
0%
0&
0'
0(
0)
#140000
1!
0*
19
11
12
13
14
15
16
17
18
1"
1#
1$
1%
1&
1'
1(
1)
#145000
0!
1*
09
01
02
03
04
05
06
07
08
0"
0#
0$
0%
0&
0'
0(
0)
#155000
1!
0*
19
11
12
13
14
15
16
17
18
1"
1#
1$
1%
1&
1'
1(
1)
#165000
0!
1*
09
01
02
03
04
05
06
07
08
0"
0#
0$
0%
0&
0'
0(
0)
#180000
1!
0*
19
11
12
13
14
15
16
17
18
1"
1#
1$
1%
1&
1'
1(
1)
#185000
0!
1*
09
01
02
03
04
05
06
07
08
0"
0#
0$
0%
0&
0'
0(
0)
#190000
1!
0*
19
11
12
13
14
15
16
17
18
1"
1#
1$
1%
1&
1'
1(
1)
#195000
0!
1*
09
01
02
03
04
05
06
07
08
0"
0#
0$
0%
0&
0'
0(
0)
#200000
1!
0*
19
11
12
13
14
15
16
17
18
1"
1#
1$
1%
1&
1'
1(
1)
#205000
0!
1*
09
01
02
03
04
05
06
07
08
0"
0#
0$
0%
0&
0'
0(
0)
#210000
1!
0*
19
11
12
13
14
15
16
17
18
1"
1#
1$
1%
1&
1'
1(
1)
#215000
0!
1*
09
01
02
03
04
05
06
07
08
0"
0#
0$
0%
0&
0'
0(
0)
#230000
1!
0*
19
11
12
13
14
15
16
17
18
1"
1#
1$
1%
1&
1'
1(
1)
#235000
0!
1*
09
01
02
03
04
05
06
07
08
0"
0#
0$
0%
0&
0'
0(
0)
#240000
1!
0*
19
11
12
13
14
15
16
17
18
1"
1#
1$
1%
1&
1'
1(
1)
#245000
0!
1*
09
01
02
03
04
05
06
07
08
0"
0#
0$
0%
0&
0'
0(
0)
#250000
1!
0*
19
11
12
13
14
15
16
17
18
1"
1#
1$
1%
1&
1'
1(
1)
#270000
0!
1*
09
01
02
03
04
05
06
07
08
0"
0#
0$
0%
0&
0'
0(
0)
#275000
1!
0*
19
11
12
13
14
15
16
17
18
1"
1#
1$
1%
1&
1'
1(
1)
#280000
0!
1*
09
01
02
03
04
05
06
07
08
0"
0#
0$
0%
0&
0'
0(
0)
#300000
1!
0*
19
11
12
13
14
15
16
17
18
1"
1#
1$
1%
1&
1'
1(
1)
#305000
0!
1*
09
01
02
03
04
05
06
07
08
0"
0#
0$
0%
0&
0'
0(
0)
#310000
1!
0*
19
11
12
13
14
15
16
17
18
1"
1#
1$
1%
1&
1'
1(
1)
#320000
0!
1*
09
01
02
03
04
05
06
07
08
0"
0#
0$
0%
0&
0'
0(
0)
#325000
1!
0*
19
11
12
13
14
15
16
17
18
1"
1#
1$
1%
1&
1'
1(
1)
#340000
0!
1*
09
01
02
03
04
05
06
07
08
0"
0#
0$
0%
0&
0'
0(
0)
#345000
1!
0*
19
11
12
13
14
15
16
17
18
1"
1#
1$
1%
1&
1'
1(
1)
#355000
0!
1*
09
01
02
03
04
05
06
07
08
0"
0#
0$
0%
0&
0'
0(
0)
#360000
1!
0*
19
11
12
13
14
15
16
17
18
1"
1#
1$
1%
1&
1'
1(
1)
#390000
0!
1*
09
01
02
03
04
05
06
07
08
0"
0#
0$
0%
0&
0'
0(
0)
#395000
1!
0*
19
11
12
13
14
15
16
17
18
1"
1#
1$
1%
1&
1'
1(
1)
#405000
0!
1*
09
01
02
03
04
05
06
07
08
0"
0#
0$
0%
0&
0'
0(
0)
#415000
1!
0*
19
11
12
13
14
15
16
17
18
1"
1#
1$
1%
1&
1'
1(
1)
#430000
0!
1*
09
01
02
03
04
05
06
07
08
0"
0#
0$
0%
0&
0'
0(
0)
#440000
1!
0*
19
11
12
13
14
15
16
17
18
1"
1#
1$
1%
1&
1'
1(
1)
#445000
0!
1*
09
01
02
03
04
05
06
07
08
0"
0#
0$
0%
0&
0'
0(
0)
#455000
1!
0*
19
11
12
13
14
15
16
17
18
1"
1#
1$
1%
1&
1'
1(
1)
#465000
0!
1*
09
01
02
03
04
05
06
07
08
0"
0#
0$
0%
0&
0'
0(
0)
#470000
1!
0*
19
11
12
13
14
15
16
17
18
1"
1#
1$
1%
1&
1'
1(
1)
#490000
0!
1*
09
01
02
03
04
05
06
07
08
0"
0#
0$
0%
0&
0'
0(
0)
#520000
1!
0*
19
11
12
13
14
15
16
17
18
1"
1#
1$
1%
1&
1'
1(
1)
#525000
0!
1*
09
01
02
03
04
05
06
07
08
0"
0#
0$
0%
0&
0'
0(
0)
#530000
1!
0*
19
11
12
13
14
15
16
17
18
1"
1#
1$
1%
1&
1'
1(
1)
#535000
0!
1*
09
01
02
03
04
05
06
07
08
0"
0#
0$
0%
0&
0'
0(
0)
#545000
1!
0*
19
11
12
13
14
15
16
17
18
1"
1#
1$
1%
1&
1'
1(
1)
#550000
0!
1*
09
01
02
03
04
05
06
07
08
0"
0#
0$
0%
0&
0'
0(
0)
#555000
1!
0*
19
11
12
13
14
15
16
17
18
1"
1#
1$
1%
1&
1'
1(
1)
#570000
0!
1*
09
01
02
03
04
05
06
07
08
0"
0#
0$
0%
0&
0'
0(
0)
#575000
1!
0*
19
11
12
13
14
15
16
17
18
1"
1#
1$
1%
1&
1'
1(
1)
#585000
0!
1*
09
01
02
03
04
05
06
07
08
0"
0#
0$
0%
0&
0'
0(
0)
#590000
1!
0*
19
11
12
13
14
15
16
17
18
1"
1#
1$
1%
1&
1'
1(
1)
#595000
0!
1*
09
01
02
03
04
05
06
07
08
0"
0#
0$
0%
0&
0'
0(
0)
#600000
1!
0*
19
11
12
13
14
15
16
17
18
1"
1#
1$
1%
1&
1'
1(
1)
#605000
0!
1*
09
01
02
03
04
05
06
07
08
0"
0#
0$
0%
0&
0'
0(
0)
#610000
1!
0*
19
11
12
13
14
15
16
17
18
1"
1#
1$
1%
1&
1'
1(
1)
#620000
0!
1*
09
01
02
03
04
05
06
07
08
0"
0#
0$
0%
0&
0'
0(
0)
#625000
1!
0*
19
11
12
13
14
15
16
17
18
1"
1#
1$
1%
1&
1'
1(
1)
#630000
0!
1*
09
01
02
03
04
05
06
07
08
0"
0#
0$
0%
0&
0'
0(
0)
#635000
1!
0*
19
11
12
13
14
15
16
17
18
1"
1#
1$
1%
1&
1'
1(
1)
#640000
0!
1*
09
01
02
03
04
05
06
07
08
0"
0#
0$
0%
0&
0'
0(
0)
#645000
1!
0*
19
11
12
13
14
15
16
17
18
1"
1#
1$
1%
1&
1'
1(
1)
#650000
0!
1*
09
01
02
03
04
05
06
07
08
0"
0#
0$
0%
0&
0'
0(
0)
#655000
1!
0*
19
11
12
13
14
15
16
17
18
1"
1#
1$
1%
1&
1'
1(
1)
#665000
0!
1*
09
01
02
03
04
05
06
07
08
0"
0#
0$
0%
0&
0'
0(
0)
#675000
1!
0*
19
11
12
13
14
15
16
17
18
1"
1#
1$
1%
1&
1'
1(
1)
#685000
0!
1*
09
01
02
03
04
05
06
07
08
0"
0#
0$
0%
0&
0'
0(
0)
#695000
1!
0*
19
11
12
13
14
15
16
17
18
1"
1#
1$
1%
1&
1'
1(
1)
#700000
0!
1*
09
01
02
03
04
05
06
07
08
0"
0#
0$
0%
0&
0'
0(
0)
#705000
1!
0*
19
11
12
13
14
15
16
17
18
1"
1#
1$
1%
1&
1'
1(
1)
#715000
0!
1*
09
01
02
03
04
05
06
07
08
0"
0#
0$
0%
0&
0'
0(
0)
#720000
1!
0*
19
11
12
13
14
15
16
17
18
1"
1#
1$
1%
1&
1'
1(
1)
#730000
0!
1*
09
01
02
03
04
05
06
07
08
0"
0#
0$
0%
0&
0'
0(
0)
#740000
1!
0*
19
11
12
13
14
15
16
17
18
1"
1#
1$
1%
1&
1'
1(
1)
#745000
0!
1*
09
01
02
03
04
05
06
07
08
0"
0#
0$
0%
0&
0'
0(
0)
#760000
1!
0*
19
11
12
13
14
15
16
17
18
1"
1#
1$
1%
1&
1'
1(
1)
#800000
0!
1*
09
01
02
03
04
05
06
07
08
0"
0#
0$
0%
0&
0'
0(
0)
#815000
1!
0*
19
11
12
13
14
15
16
17
18
1"
1#
1$
1%
1&
1'
1(
1)
#820000
0!
1*
09
01
02
03
04
05
06
07
08
0"
0#
0$
0%
0&
0'
0(
0)
#830000
1!
0*
19
11
12
13
14
15
16
17
18
1"
1#
1$
1%
1&
1'
1(
1)
#865000
0!
1*
09
01
02
03
04
05
06
07
08
0"
0#
0$
0%
0&
0'
0(
0)
#870000
1!
0*
19
11
12
13
14
15
16
17
18
1"
1#
1$
1%
1&
1'
1(
1)
#880000
0!
1*
09
01
02
03
04
05
06
07
08
0"
0#
0$
0%
0&
0'
0(
0)
#885000
1!
0*
19
11
12
13
14
15
16
17
18
1"
1#
1$
1%
1&
1'
1(
1)
#890000
0!
1*
09
01
02
03
04
05
06
07
08
0"
0#
0$
0%
0&
0'
0(
0)
#905000
1!
0*
19
11
12
13
14
15
16
17
18
1"
1#
1$
1%
1&
1'
1(
1)
#910000
0!
1*
09
01
02
03
04
05
06
07
08
0"
0#
0$
0%
0&
0'
0(
0)
#930000
1!
0*
19
11
12
13
14
15
16
17
18
1"
1#
1$
1%
1&
1'
1(
1)
#940000
0!
1*
09
01
02
03
04
05
06
07
08
0"
0#
0$
0%
0&
0'
0(
0)
#945000
1!
0*
19
11
12
13
14
15
16
17
18
1"
1#
1$
1%
1&
1'
1(
1)
#990000
0!
1*
09
01
02
03
04
05
06
07
08
0"
0#
0$
0%
0&
0'
0(
0)
#995000
1!
0*
19
11
12
13
14
15
16
17
18
1"
1#
1$
1%
1&
1'
1(
1)
