RTL/state_mechine/simulation/qsim/state_cola.msim.vcd
$comment
	File created using the following command:
		vcd file state_cola.msim.vcd -direction
$end
$date
	Sun Aug 27 12:05:47 2023
$end
$version
	ModelSim Version 10.4
$end
$timescale
	1ps
$end

$scope module list_test_vlg_vec_tst $end
$var reg 1 ! CLK $end
$var reg 1 " DATA_IN $end
$var reg 1 # RET $end
$var wire 1 $ OUT $end
$var wire 1 % sampler $end

$scope module i1 $end
$var wire 1 & gnd $end
$var wire 1 ' vcc $end
$var wire 1 ( unknown $end
$var tri1 1 ) devclrn $end
$var tri1 1 * devpor $end
$var tri1 1 + devoe $end
$var wire 1 , OUT~output_o $end
$var wire 1 - CLK~input_o $end
$var wire 1 . CLK~inputclkctrl_outclk $end
$var wire 1 / DATA_IN~input_o $end
$var wire 1 0 Selector0~0_combout $end
$var wire 1 1 RET~input_o $end
$var wire 1 2 RET~inputclkctrl_outclk $end
$var wire 1 3 stateR.s0~q $end
$var wire 1 4 Selector1~0_combout $end
$var wire 1 5 Selector1~1_combout $end
$var wire 1 6 stateR.s1~q $end
$var wire 1 7 Selector2~0_combout $end
$var wire 1 8 stateR.s2~q $end
$var wire 1 9 next_state.s3~0_combout $end
$var wire 1 : stateR.s3~q $end
$var wire 1 ; next_state.s4~0_combout $end
$var wire 1 < stateR.s4~q $end
$upscope $end
$upscope $end
$enddefinitions $end
#0
$dumpvars
0!
1"
0#
0$
x%
0&
1'
x(
1)
1*
1+
0,
0-
0.
1/
10
01
02
03
04
15
06
07
08
09
0:
0;
0<
$end
#10000
1!
0"
0%
1-
0/
1.
05
00
16
13
17
10
#20000
0!
1%
0-
0.
#30000
1!
0%
1-
1.
18
06
00
07
#40000
1"
0!
1%
1/
0-
0.
19
10
#50000
1!
0%
1-
1.
1:
08
1;
09
#60000
0"
0!
1%
0/
0-
0.
0;
14
15
#70000
1"
1!
0%
1/
1-
1.
1;
04
05
0:
16
0;
14
15
#80000
0!
1%
0-
0.
#90000
1!
0%
1-
1.
#100000
0"
0!
1%
0/
0-
0.
17
04
05
#110000
1"
1!
0%
1/
1-
1.
07
14
15
18
06
19
04
05
#120000
0"
0!
1%
0/
0-
0.
09
00
#130000
1"
1!
0%
1/
1-
1.
19
10
08
03
09
15
#140000
0"
0!
1%
0/
0-
0.
05
00
#150000
1!
0%
1-
1.
#160000
1"
0!
1%
1/
0-
0.
15
10
#170000
0"
1!
0%
0/
1-
1.
05
00
16
13
17
10
#180000
1"
0!
1%
1/
0-
0.
07
14
15
#190000
0"
1!
0%
0/
1-
1.
17
04
05
#200000
0!
1%
0-
0.
#210000
1!
0%
1-
1.
18
06
00
07
#220000
1"
0!
1%
1/
0-
0.
19
10
#230000
0"
1!
0%
0/
1-
1.
09
00
1:
08
14
10
15
#240000
0!
1%
0-
0.
#250000
1!
0%
1-
1.
0:
16
04
17
05
#260000
1"
0!
1%
1/
0-
0.
07
14
15
#270000
0"
1!
0%
0/
1-
1.
17
04
05
#280000
0!
1%
0-
0.
#290000
1!
0%
1-
1.
18
06
00
07
#300000
0!
1%
0-
0.
#310000
1"
1!
0%
1/
1-
1.
19
10
08
03
09
15
#320000
0"
0!
1%
0/
0-
0.
05
00
#330000
1"
1!
0%
1/
1-
1.
15
10
#340000
0"
0!
1%
0/
0-
0.
05
00
#350000
1"
1!
0%
1/
1-
1.
15
10
#360000
0"
0!
1%
0/
0-
0.
05
00
#370000
1"
1!
0%
1/
1-
1.
15
10
#380000
0"
0!
1%
0/
0-
0.
05
00
#390000
1"
1!
0%
1/
1-
1.
15
10
#400000
0"
0!
1%
0/
0-
0.
05
00
#410000
1"
1!
0%
1/
1-
1.
15
10
#420000
0!
1%
0-
0.
#430000
1!
0%
1-
1.
16
13
14
05
15
#440000
0!
1%
0-
0.
#450000
0"
1!
0%
0/
1-
1.
17
04
05
#460000
0!
1%
0-
0.
#470000
1!
0%
1-
1.
18
06
00
07
#480000
1"
0!
1%
1/
0-
0.
19
10
#490000
0"
1!
0%
0/
1-
1.
09
00
1:
08
14
10
15
#500000
1"
0!
1%
1/
0-
0.
1;
04
05
#510000
1!
0%
1-
1.
0:
1<
1,
0;
14
1$
15
#520000
0"
0!
1%
0/
0-
0.
17
04
05
#530000
1!
0%
1-
1.
18
0<
0,
00
07
0$
#540000
0!
1%
0-
0.
#550000
1"
1!
0%
1/
1-
1.
19
10
08
03
09
15
#560000
0!
1%
0-
0.
#570000
1!
0%
1-
1.
16
13
14
05
15
#580000
0!
1%
0-
0.
#590000
0"
1!
0%
0/
1-
1.
17
04
05
#600000
1"
0!
1%
1/
0-
0.
07
14
15
#610000
1!
0%
1-
1.
#620000
0"
0!
1%
0/
0-
0.
17
04
05
#630000
1"
1!
0%
1/
1-
1.
07
14
15
18
06
19
04
05
#640000
0"
0!
1%
0/
0-
0.
09
00
#650000
1!
0%
1-
1.
08
03
#660000
1"
0!
1%
1/
0-
0.
15
10
#670000
0"
1!
0%
0/
1-
1.
05
00
16
13
17
10
#680000
1"
0!
1%
1/
0-
0.
07
14
15
#690000
1!
0%
1-
1.
#700000
0"
0!
1%
0/
0-
0.
17
04
05
#710000
1"
1!
0%
1/
1-
1.
07
14
15
18
06
19
04
05
#720000
0"
0!
1%
0/
0-
0.
09
00
#730000
1!
0%
1-
1.
08
03
#740000
1"
0!
1%
1/
0-
0.
15
10
#750000
0"
1!
0%
0/
1-
1.
05
00
16
13
17
10
#760000
0!
1%
0-
0.
#770000
1!
0%
1-
1.
18
06
00
07
#780000
0!
1%
0-
0.
#790000
1!
0%
1-
1.
08
03
#800000
0!
1%
0-
0.
#810000
1!
0%
1-
1.
#820000
0!
1%
0-
0.
#830000
1"
1!
0%
1/
1-
1.
15
10
#840000
0"
0!
1%
0/
0-
0.
05
00
#850000
1"
1!
0%
1/
1-
1.
15
10
#860000
0"
0!
1%
0/
0-
0.
05
00
#870000
1"
1!
0%
1/
1-
1.
15
10
#880000
0!
1%
0-
0.
#890000
1!
0%
1-
1.
16
13
14
05
15
#900000
0"
0!
1%
0/
0-
0.
17
04
05
#910000
1!
0%
1-
1.
18
06
00
07
#920000
1"
0!
1%
1/
0-
0.
19
10
#930000
0"
1!
0%
0/
1-
1.
09
00
1:
08
14
10
15
#940000
1"
0!
1%
1/
0-
0.
1;
04
05
#950000
0"
1!
0%
0/
1-
1.
0;
14
15
0:
1<
1,
04
17
1$
05
#960000
0!
1%
0-
0.
#970000
1!
0%
1-
1.
18
0<
0,
00
07
0$
#980000
0!
1%
0-
0.
#990000
1!
0%
1-
1.
08
03
