RTL/state_mechine/simulation/qsim/state_cola.msim.vcd
$comment
	File created using the following command:
		vcd file state_cola.msim.vcd -direction
$end
$date
	Sat Aug 26 21:48:38 2023
$end
$version
	ModelSim Version 10.4
$end
$timescale
	1ps
$end

$scope module state_cola_vlg_vec_tst $end
$var reg 1 ! CENT1IN $end
$var reg 1 " CLK $end
$var reg 1 # RST $end
$var wire 1 $ TINOUT $end
$var wire 1 % sampler $end

$scope module i1 $end
$var wire 1 & gnd $end
$var wire 1 ' vcc $end
$var wire 1 ( unknown $end
$var tri1 1 ) devclrn $end
$var tri1 1 * devpor $end
$var tri1 1 + devoe $end
$var wire 1 , TINOUT~output_o $end
$var wire 1 - CLK~input_o $end
$var wire 1 . CLK~inputclkctrl_outclk $end
$var wire 1 / CENT1IN~input_o $end
$var wire 1 0 Selector0~0_combout $end
$var wire 1 1 RST~input_o $end
$var wire 1 2 RST~inputclkctrl_outclk $end
$var wire 1 3 stateR.ST_0_CENT~q $end
$var wire 1 4 stateR.ST_1_CENT~0_combout $end
$var wire 1 5 stateR.ST_1_CENT~q $end
$var wire 1 6 stateR.ST_2_CENT~feeder_combout $end
$var wire 1 7 stateR.ST_2_CENT~q $end
$var wire 1 8 next_state.ST_3_CENT~0_combout $end
$var wire 1 9 stateR.ST_3_CENT~q $end
$upscope $end
$upscope $end
$enddefinitions $end
#0
$dumpvars
1!
0"
0#
0$
x%
0&
1'
x(
1)
1*
1+
0,
0-
0.
1/
10
01
02
03
14
05
06
07
08
09
$end
#5000
1"
0%
1-
1.
15
13
16
04
#10000
0"
1%
0-
0.
#15000
1"
0%
1-
1.
17
05
18
06
#20000
0"
1%
0-
0.
#25000
1"
0%
1-
1.
07
19
1,
08
00
1$
#30000
0"
1%
0-
0.
#35000
1"
0%
1-
1.
03
09
0,
14
10
0$
#40000
0"
1%
0-
0.
#45000
1"
0%
1-
1.
15
13
16
04
#50000
0"
1%
0-
0.
#55000
1"
0%
1-
1.
17
05
18
06
#60000
0"
1%
0-
0.
#65000
1"
0%
1-
1.
07
19
1,
08
00
1$
#70000
0"
1%
0-
0.
#75000
1"
0%
1-
1.
03
09
0,
14
10
0$
#80000
0"
1%
0-
0.
#85000
1"
0%
1-
1.
15
13
16
04
#90000
0"
1%
0-
0.
#95000
1"
0%
1-
1.
17
05
18
06
#100000
0"
1%
0-
0.
#105000
1"
0%
1-
1.
07
19
1,
08
00
1$
#110000
0"
1%
0-
0.
#115000
1"
0%
1-
1.
03
09
0,
14
10
0$
#120000
0"
1%
0-
0.
#125000
1"
0%
1-
1.
15
13
16
04
#130000
0"
1%
0-
0.
#135000
1"
0%
1-
1.
17
05
18
06
#140000
0"
1%
0-
0.
#145000
1"
0%
1-
1.
07
19
1,
08
00
1$
#150000
0"
1%
0-
0.
#155000
1"
0%
1-
1.
03
09
0,
14
10
0$
#160000
0"
1%
0-
0.
#165000
1"
0%
1-
1.
15
13
16
04
#170000
0"
1%
0-
0.
#175000
1"
0%
1-
1.
17
05
18
06
#180000
0"
1%
0-
0.
#185000
1"
0%
1-
1.
07
19
1,
08
00
1$
#190000
0"
1%
0-
0.
#195000
1"
0%
1-
1.
03
09
0,
14
10
0$
#200000
0"
1%
0-
0.
#205000
1"
0%
1-
1.
15
13
16
04
#210000
0"
1%
0-
0.
#215000
1"
0%
1-
1.
17
05
18
06
#220000
0"
1%
0-
0.
#225000
1"
0%
1-
1.
07
19
1,
08
00
1$
#230000
0"
1%
0-
0.
#235000
1"
0%
1-
1.
03
09
0,
14
10
0$
#240000
0"
1%
0-
0.
#245000
1"
0%
1-
1.
15
13
16
04
#250000
0"
1%
0-
0.
#255000
1"
0%
1-
1.
17
05
18
06
#260000
0"
1%
0-
0.
#265000
1"
0%
1-
1.
07
19
1,
08
00
1$
#270000
0"
1%
0-
0.
#275000
1"
0%
1-
1.
03
09
0,
14
10
0$
#280000
0"
1%
0-
0.
#285000
1"
0%
1-
1.
15
13
16
04
#290000
0"
1%
0-
0.
#295000
1"
0%
1-
1.
17
05
18
06
#300000
0"
1%
0-
0.
#305000
1"
0%
1-
1.
07
19
1,
08
00
1$
#310000
0"
1%
0-
0.
#315000
1"
0%
1-
1.
03
09
0,
14
10
0$
#320000
0"
1%
0-
0.
#325000
1"
0%
1-
1.
15
13
16
04
#330000
0"
1%
0-
0.
#335000
1"
0%
1-
1.
17
05
18
06
#340000
0"
1%
0-
0.
#345000
1"
0%
1-
1.
07
19
1,
08
00
1$
#350000
0"
1%
0-
0.
#355000
1"
0%
1-
1.
03
09
0,
14
10
0$
#360000
0"
1%
0-
0.
#365000
1"
0%
1-
1.
15
13
16
04
#370000
0"
1%
0-
0.
#375000
1"
0%
1-
1.
17
05
18
06
#380000
0"
1%
0-
0.
#385000
1"
0%
1-
1.
07
19
1,
08
00
1$
#390000
0"
1%
0-
0.
#395000
1"
0%
1-
1.
03
09
0,
14
10
0$
#400000
0"
1%
0-
0.
#405000
1"
0%
1-
1.
15
13
16
04
#410000
0"
1%
0-
0.
#415000
1"
0%
1-
1.
17
05
18
06
#420000
0"
1%
0-
0.
#425000
1"
0%
1-
1.
07
19
1,
08
00
1$
#430000
0"
1%
0-
0.
#435000
1"
0%
1-
1.
03
09
0,
14
10
0$
#440000
0"
1%
0-
0.
#445000
1"
0%
1-
1.
15
13
16
04
#450000
0"
1%
0-
0.
#455000
1"
0%
1-
1.
17
05
18
06
#460000
0"
1%
0-
0.
#465000
1"
0%
1-
1.
07
19
1,
08
00
1$
#470000
0"
1%
0-
0.
#475000
1"
0%
1-
1.
03
09
0,
14
10
0$
#480000
0"
1%
0-
0.
#485000
1"
0%
1-
1.
15
13
16
04
#490000
0"
1%
0-
0.
#495000
1"
0%
1-
1.
17
05
18
06
#500000
0"
1%
0-
0.
#505000
1"
0%
1-
1.
07
19
1,
08
00
1$
#510000
0"
1%
0-
0.
#515000
1"
0%
1-
1.
03
09
0,
14
10
0$
#520000
0"
1%
0-
0.
#525000
1"
0%
1-
1.
15
13
16
04
#530000
0"
1%
0-
0.
#535000
1"
0%
1-
1.
17
05
18
06
#540000
0"
1%
0-
0.
#545000
1"
0%
1-
1.
07
19
1,
08
00
1$
#550000
0"
1%
0-
0.
#555000
1"
0%
1-
1.
03
09
0,
14
10
0$
#560000
0"
1%
0-
0.
#565000
1"
0%
1-
1.
15
13
16
04
#570000
0"
1%
0-
0.
#575000
1"
0%
1-
1.
17
05
18
06
#580000
0"
1%
0-
0.
#585000
1"
0%
1-
1.
07
19
1,
08
00
1$
#590000
0"
1%
0-
0.
#595000
1"
0%
1-
1.
03
09
0,
14
10
0$
#600000
0"
1%
0-
0.
#605000
1"
0%
1-
1.
15
13
16
04
#610000
0"
1%
0-
0.
#615000
1"
0%
1-
1.
17
05
18
06
#620000
0"
1%
0-
0.
#625000
1"
0%
1-
1.
07
19
1,
08
00
1$
#630000
0"
1%
0-
0.
#635000
1"
0%
1-
1.
03
09
0,
14
10
0$
#640000
0"
1%
0-
0.
#645000
1"
0%
1-
1.
15
13
16
04
#650000
0"
1%
0-
0.
#655000
1"
0%
1-
1.
17
05
18
06
#660000
0"
1%
0-
0.
#665000
1"
0%
1-
1.
07
19
1,
08
00
1$
#670000
0"
1%
0-
0.
#675000
1"
0%
1-
1.
03
09
0,
14
10
0$
#680000
0"
1%
0-
0.
#685000
1"
0%
1-
1.
15
13
16
04
#690000
0"
1%
0-
0.
#695000
1"
0%
1-
1.
17
05
18
06
#700000
0"
1%
0-
0.
#705000
1"
0%
1-
1.
07
19
1,
08
00
1$
#710000
0"
1%
0-
0.
#715000
1"
0%
1-
1.
03
09
0,
14
10
0$
#720000
0"
1%
0-
0.
#725000
1"
0%
1-
1.
15
13
16
04
#730000
0"
1%
0-
0.
#735000
1"
0%
1-
1.
17
05
18
06
#740000
0"
1%
0-
0.
#745000
1"
0%
1-
1.
07
19
1,
08
00
1$
#750000
0"
1%
0-
0.
#755000
1"
0%
1-
1.
03
09
0,
14
10
0$
#760000
0"
1%
0-
0.
#765000
1"
0%
1-
1.
15
13
16
04
#770000
0"
1%
0-
0.
#775000
1"
0%
1-
1.
17
05
18
06
#780000
0"
1%
0-
0.
#785000
1"
0%
1-
1.
07
19
1,
08
00
1$
#790000
0"
1%
0-
0.
#795000
1"
0%
1-
1.
03
09
0,
14
10
0$
#800000
0"
1%
0-
0.
#805000
1"
0%
1-
1.
15
13
16
04
#810000
0"
1%
0-
0.
#815000
1"
0%
1-
1.
17
05
18
06
#820000
0"
1%
0-
0.
#825000
1"
0%
1-
1.
07
19
1,
08
00
1$
#830000
0"
1%
0-
0.
#835000
1"
0%
1-
1.
03
09
0,
14
10
0$
#840000
0"
1%
0-
0.
#845000
1"
0%
1-
1.
15
13
16
04
#850000
0"
1%
0-
0.
#855000
1"
0%
1-
1.
17
05
18
06
#860000
0"
1%
0-
0.
#865000
1"
0%
1-
1.
07
19
1,
08
00
1$
#870000
0"
1%
0-
0.
#875000
1"
0%
1-
1.
03
09
0,
14
10
0$
#880000
0"
1%
0-
0.
#885000
1"
0%
1-
1.
15
13
16
04
#890000
0"
1%
0-
0.
#895000
1"
0%
1-
1.
17
05
18
06
#900000
0"
1%
0-
0.
#905000
1"
0%
1-
1.
07
19
1,
08
00
1$
#910000
0"
1%
0-
0.
#915000
1"
0%
1-
1.
03
09
0,
14
10
0$
#920000
0"
1%
0-
0.
#925000
1"
0%
1-
1.
15
13
16
04
#930000
0"
1%
0-
0.
#935000
1"
0%
1-
1.
17
05
18
06
#940000
0"
1%
0-
0.
#945000
1"
0%
1-
1.
07
19
1,
08
00
1$
#950000
0"
1%
0-
0.
#955000
1"
0%
1-
1.
03
09
0,
14
10
0$
#960000
0"
1%
0-
0.
#965000
1"
0%
1-
1.
15
13
16
04
#970000
0"
1%
0-
0.
#975000
1"
0%
1-
1.
17
05
18
06
#980000
0"
1%
0-
0.
#985000
1"
0%
1-
1.
07
19
1,
08
00
1$
#990000
0"
1%
0-
0.
#995000
1"
0%
1-
1.
03
09
0,
14
10
0$
