Start_lab/start_5/simulation/qsim/start_5.msim.vcd
$comment
	File created using the following command:
		vcd file start_5.msim.vcd -direction
$end
$date
	Sat Aug 19 11:35:00 2023
$end
$version
	ModelSim Version 10.4
$end
$timescale
	1ps
$end

$scope module start_5_vlg_vec_tst $end
$var reg 1 ! CLK_50 $end
$var reg 1 " SW0 $end
$var reg 1 # SW1 $end
$var wire 1 $ EN_OUT $end
$var wire 1 % OUT [5] $end
$var wire 1 & OUT [4] $end
$var wire 1 ' OUT [3] $end
$var wire 1 ( OUT [2] $end
$var wire 1 ) OUT [1] $end
$var wire 1 * OUT [0] $end
$var wire 1 + sampler $end

$scope module i1 $end
$var wire 1 , gnd $end
$var wire 1 - vcc $end
$var wire 1 . unknown $end
$var tri1 1 / devclrn $end
$var tri1 1 0 devpor $end
$var tri1 1 1 devoe $end
$var wire 1 2 EN_OUT~output_o $end
$var wire 1 3 OUT[5]~output_o $end
$var wire 1 4 OUT[4]~output_o $end
$var wire 1 5 OUT[3]~output_o $end
$var wire 1 6 OUT[2]~output_o $end
$var wire 1 7 OUT[1]~output_o $end
$var wire 1 8 OUT[0]~output_o $end
$var wire 1 9 CLK_50~input_o $end
$var wire 1 : CLK_50~inputclkctrl_outclk $end
$var wire 1 ; inst1|CNTVAL[0]~32_combout $end
$var wire 1 < inst1|CNTVAL[1]~35 $end
$var wire 1 = inst1|CNTVAL[2]~36_combout $end
$var wire 1 > inst1|CNTVAL[2]~37 $end
$var wire 1 ? inst1|CNTVAL[3]~38_combout $end
$var wire 1 @ inst1|CNTVAL[3]~39 $end
$var wire 1 A inst1|CNTVAL[4]~40_combout $end
$var wire 1 B inst1|CNTVAL[4]~41 $end
$var wire 1 C inst1|CNTVAL[5]~42_combout $end
$var wire 1 D inst1|CNTVAL[5]~43 $end
$var wire 1 E inst1|CNTVAL[6]~44_combout $end
$var wire 1 F inst1|CNTVAL[6]~45 $end
$var wire 1 G inst1|CNTVAL[7]~46_combout $end
$var wire 1 H inst1|CNTVAL[7]~47 $end
$var wire 1 I inst1|CNTVAL[8]~48_combout $end
$var wire 1 J inst1|CNTVAL[8]~49 $end
$var wire 1 K inst1|CNTVAL[9]~50_combout $end
$var wire 1 L inst1|CNTVAL[9]~51 $end
$var wire 1 M inst1|CNTVAL[10]~52_combout $end
$var wire 1 N inst1|Equal0~1_combout $end
$var wire 1 O inst1|Equal0~0_combout $end
$var wire 1 P inst1|CNTVAL[10]~53 $end
$var wire 1 Q inst1|CNTVAL[11]~54_combout $end
$var wire 1 R inst1|CNTVAL[11]~55 $end
$var wire 1 S inst1|CNTVAL[12]~56_combout $end
$var wire 1 T inst1|CNTVAL[12]~57 $end
$var wire 1 U inst1|CNTVAL[13]~58_combout $end
$var wire 1 V inst1|CNTVAL[13]~59 $end
$var wire 1 W inst1|CNTVAL[14]~60_combout $end
$var wire 1 X inst1|CNTVAL[14]~61 $end
$var wire 1 Y inst1|CNTVAL[15]~62_combout $end
$var wire 1 Z inst1|CNTVAL[15]~63 $end
$var wire 1 [ inst1|CNTVAL[16]~64_combout $end
$var wire 1 \ inst1|CNTVAL[16]~65 $end
$var wire 1 ] inst1|CNTVAL[17]~66_combout $end
$var wire 1 ^ inst1|CNTVAL[17]~67 $end
$var wire 1 _ inst1|CNTVAL[18]~68_combout $end
$var wire 1 ` inst1|Equal0~3_combout $end
$var wire 1 a inst1|Equal0~2_combout $end
$var wire 1 b inst1|Equal0~4_combout $end
$var wire 1 c inst1|CNTVAL[18]~69 $end
$var wire 1 d inst1|CNTVAL[19]~70_combout $end
$var wire 1 e inst1|CNTVAL[19]~71 $end
$var wire 1 f inst1|CNTVAL[20]~72_combout $end
$var wire 1 g inst1|CNTVAL[20]~73 $end
$var wire 1 h inst1|CNTVAL[21]~74_combout $end
$var wire 1 i inst1|CNTVAL[21]~75 $end
$var wire 1 j inst1|CNTVAL[22]~76_combout $end
$var wire 1 k inst1|CNTVAL[22]~77 $end
$var wire 1 l inst1|CNTVAL[23]~78_combout $end
$var wire 1 m inst1|CNTVAL[23]~79 $end
$var wire 1 n inst1|CNTVAL[24]~80_combout $end
$var wire 1 o inst1|CNTVAL[24]~81 $end
$var wire 1 p inst1|CNTVAL[25]~82_combout $end
$var wire 1 q inst1|CNTVAL[25]~83 $end
$var wire 1 r inst1|CNTVAL[26]~84_combout $end
$var wire 1 s inst1|CNTVAL[26]~85 $end
$var wire 1 t inst1|CNTVAL[27]~86_combout $end
$var wire 1 u inst1|CNTVAL[27]~87 $end
$var wire 1 v inst1|CNTVAL[28]~88_combout $end
$var wire 1 w inst1|CNTVAL[28]~89 $end
$var wire 1 x inst1|CNTVAL[29]~90_combout $end
$var wire 1 y inst1|CNTVAL[29]~91 $end
$var wire 1 z inst1|CNTVAL[30]~92_combout $end
$var wire 1 { inst1|CNTVAL[30]~93 $end
$var wire 1 | inst1|CNTVAL[31]~94_combout $end
$var wire 1 } inst1|Equal0~5_combout $end
$var wire 1 ~ inst1|Equal0~6_combout $end
$var wire 1 !! inst1|Equal0~7_combout $end
$var wire 1 "! inst1|Equal0~8_combout $end
$var wire 1 #! inst1|Equal0~9_combout $end
$var wire 1 $! inst1|LessThan0~0_combout $end
$var wire 1 %! inst1|CNTVAL[0]~33 $end
$var wire 1 &! inst1|CNTVAL[1]~34_combout $end
$var wire 1 '! inst1|Equal0~10_combout $end
$var wire 1 (! SW1~input_o $end
$var wire 1 )! SW0~input_o $end
$var wire 1 *! inst2|shift_R~5_combout $end
$var wire 1 +! inst2|shift_R~4_combout $end
$var wire 1 ,! inst2|shift_R~3_combout $end
$var wire 1 -! inst2|shift_R~2_combout $end
$var wire 1 .! inst2|shift_R~1_combout $end
$var wire 1 /! inst2|shift_R~0_combout $end
$var wire 1 0! inst1|CNTVAL [31] $end
$var wire 1 1! inst1|CNTVAL [30] $end
$var wire 1 2! inst1|CNTVAL [29] $end
$var wire 1 3! inst1|CNTVAL [28] $end
$var wire 1 4! inst1|CNTVAL [27] $end
$var wire 1 5! inst1|CNTVAL [26] $end
$var wire 1 6! inst1|CNTVAL [25] $end
$var wire 1 7! inst1|CNTVAL [24] $end
$var wire 1 8! inst1|CNTVAL [23] $end
$var wire 1 9! inst1|CNTVAL [22] $end
$var wire 1 :! inst1|CNTVAL [21] $end
$var wire 1 ;! inst1|CNTVAL [20] $end
$var wire 1 <! inst1|CNTVAL [19] $end
$var wire 1 =! inst1|CNTVAL [18] $end
$var wire 1 >! inst1|CNTVAL [17] $end
$var wire 1 ?! inst1|CNTVAL [16] $end
$var wire 1 @! inst1|CNTVAL [15] $end
$var wire 1 A! inst1|CNTVAL [14] $end
$var wire 1 B! inst1|CNTVAL [13] $end
$var wire 1 C! inst1|CNTVAL [12] $end
$var wire 1 D! inst1|CNTVAL [11] $end
$var wire 1 E! inst1|CNTVAL [10] $end
$var wire 1 F! inst1|CNTVAL [9] $end
$var wire 1 G! inst1|CNTVAL [8] $end
$var wire 1 H! inst1|CNTVAL [7] $end
$var wire 1 I! inst1|CNTVAL [6] $end
$var wire 1 J! inst1|CNTVAL [5] $end
$var wire 1 K! inst1|CNTVAL [4] $end
$var wire 1 L! inst1|CNTVAL [3] $end
$var wire 1 M! inst1|CNTVAL [2] $end
$var wire 1 N! inst1|CNTVAL [1] $end
$var wire 1 O! inst1|CNTVAL [0] $end
$var wire 1 P! inst2|shift_R [5] $end
$var wire 1 Q! inst2|shift_R [4] $end
$var wire 1 R! inst2|shift_R [3] $end
$var wire 1 S! inst2|shift_R [2] $end
$var wire 1 T! inst2|shift_R [1] $end
$var wire 1 U! inst2|shift_R [0] $end
$upscope $end
$upscope $end
$enddefinitions $end
#0
$dumpvars
0!
1"
0#
0$
0*
0)
0(
0'
0&
0%
x+
0,
1-
x.
1/
10
11
02
03
04
05
06
07
08
09
0:
1;
1<
0=
0>
0?
1@
0A
0B
0C
1D
0E
0F
0G
1H
0I
0J
0K
1L
0M
1N
1O
0P
0Q
1R
0S
0T
0U
1V
0W
0X
0Y
1Z
0[
0\
0]
1^
0_
1`
1a
1b
0c
0d
1e
0f
0g
0h
1i
0j
0k
0l
1m
0n
0o
0p
1q
0r
0s
0t
1u
0v
0w
0x
1y
0z
0{
0|
1}
1~
1!!
1"!
1#!
0$!
0%!
0&!
0'!
0(!
1)!
0*!
0+!
0,!
0-!
0.!
1/!
0O!
0N!
0M!
0L!
0K!
0J!
0I!
0H!
0G!
0F!
0E!
0D!
0C!
0B!
0A!
0@!
0?!
0>!
0=!
0<!
0;!
0:!
09!
08!
07!
06!
05!
04!
03!
02!
01!
00!
0U!
0T!
0S!
0R!
0Q!
0P!
$end
#5000
1!
0+
19
1:
1O!
1%!
0;
1&!
#10000
0!
1+
09
0:
#15000
1!
0+
19
1:
1N!
0O!
0<
0&!
0%!
1;
1=
1<
1&!
0=
#20000
0!
1+
09
0:
#25000
1!
0+
19
1:
1O!
1%!
0;
0<
0&!
1=
#30000
0!
1+
09
0:
#35000
1!
0+
19
1:
0N!
0O!
1M!
1<
1&!
0%!
1;
1>
0=
0>
1=
0&!
1?
0?
#40000
0!
1+
09
0:
#45000
1!
0+
19
1:
1O!
1'!
1$!
1%!
0;
12
1&!
1$
#50000
0!
1+
09
0:
#55000
1!
0+
19
1:
0O!
0M!
1P!
13
0'!
0$!
0%!
1;
0=
1.!
1%
02
0&!
0$
#60000
0!
1+
09
0:
#65000
1!
0+
19
1:
1O!
1%!
0;
1&!
#70000
0!
1+
09
0:
#75000
1!
0+
19
1:
1N!
0O!
0<
0&!
0%!
1;
1=
1<
1&!
0=
#80000
0!
1+
09
0:
#85000
1!
0+
19
1:
1O!
1%!
0;
0<
0&!
1=
#90000
0!
1+
09
0:
#95000
1!
0+
19
1:
0N!
0O!
1M!
1<
1&!
0%!
1;
1>
0=
0>
1=
0&!
1?
0?
#100000
0!
1+
09
0:
#105000
1!
0+
19
1:
1O!
1'!
1$!
1%!
0;
12
1&!
1$
#110000
0!
1+
09
0:
#115000
1!
0+
19
1:
0O!
0M!
1Q!
14
0'!
0$!
0%!
1;
0=
1-!
1&
02
0&!
0$
#120000
0!
1+
09
0:
#125000
1!
0+
19
1:
1O!
1%!
0;
1&!
#130000
0!
1+
09
0:
#135000
1!
0+
19
1:
1N!
0O!
0<
0&!
0%!
1;
1=
1<
1&!
0=
#140000
0!
1+
09
0:
#145000
1!
0+
19
1:
1O!
1%!
0;
0<
0&!
1=
#150000
0!
1+
09
0:
#155000
1!
0+
19
1:
0N!
0O!
1M!
1<
1&!
0%!
1;
1>
0=
0>
1=
0&!
1?
0?
#160000
0!
1+
09
0:
#165000
1!
0+
19
1:
1O!
1'!
1$!
1%!
0;
12
1&!
1$
#170000
0!
1+
09
0:
#175000
1!
0+
19
1:
0O!
0M!
1R!
15
0'!
0$!
0%!
1;
0=
1,!
1'
02
0&!
0$
#180000
0!
1+
09
0:
#185000
1!
0+
19
1:
1O!
1%!
0;
1&!
#190000
0!
1+
09
0:
#195000
1!
0+
19
1:
1N!
0O!
0<
0&!
0%!
1;
1=
1<
1&!
0=
#200000
0!
1+
09
0:
#205000
1!
0+
19
1:
1O!
1%!
0;
0<
0&!
1=
#210000
0!
1+
09
0:
#215000
1!
0+
19
1:
0N!
0O!
1M!
1<
1&!
0%!
1;
1>
0=
0>
1=
0&!
1?
0?
#220000
0!
1+
09
0:
#225000
1!
0+
19
1:
1O!
1'!
1$!
1%!
0;
12
1&!
1$
#230000
0!
1+
09
0:
#235000
1!
0+
19
1:
0O!
0M!
1S!
16
0'!
0$!
0%!
1;
0=
1+!
1(
02
0&!
0$
#240000
0!
1+
09
0:
#245000
1!
0+
19
1:
1O!
1%!
0;
1&!
#250000
0!
1+
09
0:
#255000
1!
0+
19
1:
1N!
0O!
0<
0&!
0%!
1;
1=
1<
1&!
0=
#260000
0!
1+
09
0:
#265000
1!
0+
19
1:
1O!
1%!
0;
0<
0&!
1=
#270000
0!
1+
09
0:
#275000
1!
0+
19
1:
0N!
0O!
1M!
1<
1&!
0%!
1;
1>
0=
0>
1=
0&!
1?
0?
#280000
0!
1+
09
0:
#285000
1!
0+
19
1:
1O!
1'!
1$!
1%!
0;
12
1&!
1$
#290000
0!
1+
09
0:
#295000
1!
0+
19
1:
0O!
0M!
1T!
17
0'!
0$!
0%!
1;
0=
1*!
1)
02
0&!
0$
#300000
0!
1+
09
0:
#305000
1!
0+
19
1:
1O!
1%!
0;
1&!
#310000
0!
1+
09
0:
#315000
1!
0+
19
1:
1N!
0O!
0<
0&!
0%!
1;
1=
1<
1&!
0=
#320000
0!
1+
09
0:
#325000
1!
0+
19
1:
1O!
1%!
0;
0<
0&!
1=
#330000
0!
1+
09
0:
#335000
1!
0+
19
1:
0N!
0O!
1M!
1<
1&!
0%!
1;
1>
0=
0>
1=
0&!
1?
0?
#340000
0!
1+
09
0:
#345000
1!
0+
19
1:
1O!
1'!
1$!
1%!
0;
12
1&!
1$
#350000
0!
1+
09
0:
#355000
1!
0+
19
1:
0O!
0M!
1U!
18
0'!
0$!
0%!
1;
0=
1*
02
0&!
0$
#360000
0!
1+
09
0:
#365000
1!
0+
19
1:
1O!
1%!
0;
1&!
#370000
0!
1+
09
0:
#375000
1!
0+
19
1:
1N!
0O!
0<
0&!
0%!
1;
1=
1<
1&!
0=
#380000
0!
1+
09
0:
#385000
1!
0+
19
1:
1O!
1%!
0;
0<
0&!
1=
#390000
0!
1+
09
0:
#395000
1!
0+
19
1:
0N!
0O!
1M!
1<
1&!
0%!
1;
1>
0=
0>
1=
0&!
1?
0?
#400000
0!
1+
09
0:
#405000
1!
0+
19
1:
1O!
1'!
1$!
1%!
0;
12
1&!
1$
#410000
0!
1+
09
0:
#415000
1!
0+
19
1:
0O!
0M!
0'!
0$!
0%!
1;
0=
02
0&!
0$
#420000
0!
1+
09
0:
#425000
1!
0+
19
1:
1O!
1%!
0;
1&!
#430000
0!
1+
09
0:
#435000
1!
0+
19
1:
1N!
0O!
0<
0&!
0%!
1;
1=
1<
1&!
0=
#440000
0!
1+
09
0:
#445000
1!
0+
19
1:
1O!
1%!
0;
0<
0&!
1=
#450000
0!
1+
09
0:
#455000
1!
0+
19
1:
0N!
0O!
1M!
1<
1&!
0%!
1;
1>
0=
0>
1=
0&!
1?
0?
#460000
0!
1+
09
0:
#465000
1!
0+
19
1:
1O!
1'!
1$!
1%!
0;
12
1&!
1$
#470000
0!
1+
09
0:
#475000
1!
0+
19
1:
0O!
0M!
0'!
0$!
0%!
1;
0=
02
0&!
0$
#480000
0!
1+
09
0:
#485000
1!
0+
19
1:
1O!
1%!
0;
1&!
#490000
0!
1+
09
0:
#495000
1!
0+
19
1:
1N!
0O!
0<
0&!
0%!
1;
1=
1<
1&!
0=
#500000
0!
1+
09
0:
#505000
1!
0+
19
1:
1O!
1%!
0;
0<
0&!
1=
#510000
0!
1+
09
0:
#515000
1!
0+
19
1:
0N!
0O!
1M!
1<
1&!
0%!
1;
1>
0=
0>
1=
0&!
1?
0?
#520000
0!
1+
09
0:
#525000
1!
0+
19
1:
1O!
1'!
1$!
1%!
0;
12
1&!
1$
#530000
0!
1+
09
0:
#535000
1!
0+
19
1:
0O!
0M!
0'!
0$!
0%!
1;
0=
02
0&!
0$
#540000
0!
1+
09
0:
#545000
1!
0+
19
1:
1O!
1%!
0;
1&!
#550000
0!
1+
09
0:
#555000
1!
0+
19
1:
1N!
0O!
0<
0&!
0%!
1;
1=
1<
1&!
0=
#560000
0!
1+
09
0:
#565000
1!
0+
19
1:
1O!
1%!
0;
0<
0&!
1=
#570000
0!
1+
09
0:
#575000
1!
0+
19
1:
0N!
0O!
1M!
1<
1&!
0%!
1;
1>
0=
0>
1=
0&!
1?
0?
#580000
0!
1+
09
0:
#585000
1!
0+
19
1:
1O!
1'!
1$!
1%!
0;
12
1&!
1$
#590000
0!
1+
09
0:
#595000
1!
0+
19
1:
0O!
0M!
0'!
0$!
0%!
1;
0=
02
0&!
0$
#600000
0!
1+
09
0:
#605000
1!
0+
19
1:
1O!
1%!
0;
1&!
#610000
0!
1+
09
0:
#615000
1!
0+
19
1:
1N!
0O!
0<
0&!
0%!
1;
1=
1<
1&!
0=
#620000
0!
1+
09
0:
#625000
1!
0+
19
1:
1O!
1%!
0;
0<
0&!
1=
#630000
0!
1+
09
0:
#635000
1!
0+
19
1:
0N!
0O!
1M!
1<
1&!
0%!
1;
1>
0=
0>
1=
0&!
1?
0?
#640000
0!
1+
09
0:
#645000
1!
0+
19
1:
1O!
1'!
1$!
1%!
0;
12
1&!
1$
#650000
0!
1+
09
0:
#655000
1!
0+
19
1:
0O!
0M!
0'!
0$!
0%!
1;
0=
02
0&!
0$
#660000
0!
1+
09
0:
#665000
1!
0+
19
1:
1O!
1%!
0;
1&!
#670000
0!
1+
09
0:
#675000
1!
0+
19
1:
1N!
0O!
0<
0&!
0%!
1;
1=
1<
1&!
0=
#680000
0!
1+
09
0:
#685000
1!
0+
19
1:
1O!
1%!
0;
0<
0&!
1=
#690000
0!
1+
09
0:
#695000
1!
0+
19
1:
0N!
0O!
1M!
1<
1&!
0%!
1;
1>
0=
0>
1=
0&!
1?
0?
#700000
0!
1+
09
0:
#705000
1!
0+
19
1:
1O!
1'!
1$!
1%!
0;
12
1&!
1$
#710000
0!
1+
09
0:
#715000
1!
0+
19
1:
0O!
0M!
0'!
0$!
0%!
1;
0=
02
0&!
0$
#720000
0!
1+
09
0:
#725000
1!
0+
19
1:
1O!
1%!
0;
1&!
#730000
0!
1+
09
0:
#735000
1!
0+
19
1:
1N!
0O!
0<
0&!
0%!
1;
1=
1<
1&!
0=
#740000
0!
1+
09
0:
#745000
1!
0+
19
1:
1O!
1%!
0;
0<
0&!
1=
#750000
0!
1+
09
0:
#755000
1!
0+
19
1:
0N!
0O!
1M!
1<
1&!
0%!
1;
1>
0=
0>
1=
0&!
1?
0?
#760000
0!
1+
09
0:
#765000
1!
0+
19
1:
1O!
1'!
1$!
1%!
0;
12
1&!
1$
#770000
0!
1+
09
0:
#775000
1!
0+
19
1:
0O!
0M!
0'!
0$!
0%!
1;
0=
02
0&!
0$
#780000
0!
1+
09
0:
#785000
1!
0+
19
1:
1O!
1%!
0;
1&!
#790000
0!
1+
09
0:
#795000
1!
0+
19
1:
1N!
0O!
0<
0&!
0%!
1;
1=
1<
1&!
0=
#800000
0!
1+
09
0:
#805000
1!
0+
19
1:
1O!
1%!
0;
0<
0&!
1=
#810000
0!
1+
09
0:
#815000
1!
0+
19
1:
0N!
0O!
1M!
1<
1&!
0%!
1;
1>
0=
0>
1=
0&!
1?
0?
#820000
0!
1+
09
0:
#825000
1!
0+
19
1:
1O!
1'!
1$!
1%!
0;
12
1&!
1$
#830000
0!
1+
09
0:
#835000
1!
0+
19
1:
0O!
0M!
0'!
0$!
0%!
1;
0=
02
0&!
0$
#840000
0!
1+
09
0:
#845000
1!
0+
19
1:
1O!
1%!
0;
1&!
#850000
0!
1+
09
0:
#855000
1!
0+
19
1:
1N!
0O!
0<
0&!
0%!
1;
1=
1<
1&!
0=
#860000
0!
1+
09
0:
#865000
1!
0+
19
1:
1O!
1%!
0;
0<
0&!
1=
#870000
0!
1+
09
0:
#875000
1!
0+
19
1:
0N!
0O!
1M!
1<
1&!
0%!
1;
1>
0=
0>
1=
0&!
1?
0?
#880000
0!
1+
09
0:
#885000
1!
0+
19
1:
1O!
1'!
1$!
1%!
0;
12
1&!
1$
#890000
0!
1+
09
0:
#895000
1!
0+
19
1:
0O!
0M!
0'!
0$!
0%!
1;
0=
02
0&!
0$
#900000
0!
1+
09
0:
#905000
1!
0+
19
1:
1O!
1%!
0;
1&!
#910000
0!
1+
09
0:
#915000
1!
0+
19
1:
1N!
0O!
0<
0&!
0%!
1;
1=
1<
1&!
0=
#920000
0!
1+
09
0:
#925000
1!
0+
19
1:
1O!
1%!
0;
0<
0&!
1=
#930000
0!
1+
09
0:
#935000
1!
0+
19
1:
0N!
0O!
1M!
1<
1&!
0%!
1;
1>
0=
0>
1=
0&!
1?
0?
#940000
0!
1+
09
0:
#945000
1!
0+
19
1:
1O!
1'!
1$!
1%!
0;
12
1&!
1$
#950000
0!
1+
09
0:
#955000
1!
0+
19
1:
0O!
0M!
0'!
0$!
0%!
1;
0=
02
0&!
0$
#960000
0!
1+
09
0:
#965000
1!
0+
19
1:
1O!
1%!
0;
1&!
#970000
0!
1+
09
0:
#975000
1!
0+
19
1:
1N!
0O!
0<
0&!
0%!
1;
1=
1<
1&!
0=
#980000
0!
1+
09
0:
#985000
1!
0+
19
1:
1O!
1%!
0;
0<
0&!
1=
#990000
0!
1+
09
0:
#995000
1!
0+
19
1:
0N!
0O!
1M!
1<
1&!
0%!
1;
1>
0=
0>
1=
0&!
1?
0?
#1000000
0!
1+
09
0:
#1005000
1!
0+
19
1:
1O!
1'!
1$!
1%!
0;
12
1&!
1$
#1010000
0!
1+
09
0:
#1015000
1!
0+
19
1:
0O!
0M!
0'!
0$!
0%!
1;
0=
02
0&!
0$
#1020000
0!
1+
09
0:
#1025000
1!
0+
19
1:
1O!
1%!
0;
1&!
#1030000
0!
1+
09
0:
#1035000
1!
0+
19
1:
1N!
0O!
0<
0&!
0%!
1;
1=
1<
1&!
0=
#1040000
0!
1+
09
0:
#1045000
1!
0+
19
1:
1O!
1%!
0;
0<
0&!
1=
#1050000
0!
1+
09
0:
#1055000
1!
0+
19
1:
0N!
0O!
1M!
1<
1&!
0%!
1;
1>
0=
0>
1=
0&!
1?
0?
#1060000
0!
1+
09
0:
#1065000
1!
0+
19
1:
1O!
1'!
1$!
1%!
0;
12
1&!
1$
#1070000
0!
1+
09
0:
#1075000
1!
0+
19
1:
0O!
0M!
0'!
0$!
0%!
1;
0=
02
0&!
0$
#1080000
0!
1+
09
0:
#1085000
1!
0+
19
1:
1O!
1%!
0;
1&!
#1090000
0!
1+
09
0:
#1095000
1!
0+
19
1:
1N!
0O!
0<
0&!
0%!
1;
1=
1<
1&!
0=
#1100000
0!
1+
09
0:
#1105000
1!
0+
19
1:
1O!
1%!
0;
0<
0&!
1=
#1110000
0!
1+
09
0:
#1115000
1!
0+
19
1:
0N!
0O!
1M!
1<
1&!
0%!
1;
1>
0=
0>
1=
0&!
1?
0?
#1120000
0!
1+
09
0:
#1125000
1!
0+
19
1:
1O!
1'!
1$!
1%!
0;
12
1&!
1$
#1130000
0!
1+
09
0:
#1135000
1!
0+
19
1:
0O!
0M!
0'!
0$!
0%!
1;
0=
02
0&!
0$
#1140000
0!
1+
09
0:
#1145000
1!
0+
19
1:
1O!
1%!
0;
1&!
#1150000
0!
1+
09
0:
#1155000
1!
0+
19
1:
1N!
0O!
0<
0&!
0%!
1;
1=
1<
1&!
0=
#1160000
0!
1+
09
0:
#1165000
1!
0+
19
1:
1O!
1%!
0;
0<
0&!
1=
#1170000
0!
1+
09
0:
#1175000
1!
0+
19
1:
0N!
0O!
1M!
1<
1&!
0%!
1;
1>
0=
0>
1=
0&!
1?
0?
#1180000
0!
1+
09
0:
#1185000
1!
0+
19
1:
1O!
1'!
1$!
1%!
0;
12
1&!
1$
#1190000
0!
1+
09
0:
#1195000
1!
0+
19
1:
0O!
0M!
0'!
0$!
0%!
1;
0=
02
0&!
0$
#1200000
0!
1+
09
0:
#1205000
1!
0+
19
1:
1O!
1%!
0;
1&!
#1210000
0!
1+
09
0:
#1215000
1!
0+
19
1:
1N!
0O!
0<
0&!
0%!
1;
1=
1<
1&!
0=
#1220000
0!
1+
09
0:
#1225000
1!
0+
19
1:
1O!
1%!
0;
0<
0&!
1=
#1230000
0!
1+
09
0:
#1235000
1!
0+
19
1:
0N!
0O!
1M!
1<
1&!
0%!
1;
1>
0=
0>
1=
0&!
1?
0?
#1240000
0!
1+
09
0:
#1245000
1!
0+
19
1:
1O!
1'!
1$!
1%!
0;
12
1&!
1$
#1250000
0!
1+
09
0:
#1255000
1!
0+
19
1:
0O!
0M!
0'!
0$!
0%!
1;
0=
02
0&!
0$
#1260000
0!
1+
09
0:
#1265000
1!
0+
19
1:
1O!
1%!
0;
1&!
#1270000
0!
1+
09
0:
#1275000
1!
0+
19
1:
1N!
0O!
0<
0&!
0%!
1;
1=
1<
1&!
0=
#1280000
0!
1+
09
0:
#1285000
1!
0+
19
1:
1O!
1%!
0;
0<
0&!
1=
#1290000
0!
1+
09
0:
#1295000
1!
0+
19
1:
0N!
0O!
1M!
1<
1&!
0%!
1;
1>
0=
0>
1=
0&!
1?
0?
#1300000
0!
1+
09
0:
#1305000
1!
0+
19
1:
1O!
1'!
1$!
1%!
0;
12
1&!
1$
#1310000
0!
1+
09
0:
#1315000
1!
0+
19
1:
0O!
0M!
0'!
0$!
0%!
1;
0=
02
0&!
0$
#1320000
0!
1+
09
0:
#1325000
1!
0+
19
1:
1O!
1%!
0;
1&!
#1330000
0!
1+
09
0:
#1335000
1!
0+
19
1:
1N!
0O!
0<
0&!
0%!
1;
1=
1<
1&!
0=
#1340000
0!
1+
09
0:
#1345000
1!
0+
19
1:
1O!
1%!
0;
0<
0&!
1=
#1350000
0!
1+
09
0:
#1355000
1!
0+
19
1:
0N!
0O!
1M!
1<
1&!
0%!
1;
1>
0=
0>
1=
0&!
1?
0?
#1360000
0!
1+
09
0:
#1365000
1!
0+
19
1:
1O!
1'!
1$!
1%!
0;
12
1&!
1$
#1370000
0!
1+
09
0:
#1375000
1!
0+
19
1:
0O!
0M!
0'!
0$!
0%!
1;
0=
02
0&!
0$
#1380000
0!
1+
09
0:
#1385000
1!
0+
19
1:
1O!
1%!
0;
1&!
#1390000
0!
1+
09
0:
#1395000
1!
0+
19
1:
1N!
0O!
0<
0&!
0%!
1;
1=
1<
1&!
0=
#1400000
0!
1+
09
0:
#1405000
1!
0+
19
1:
1O!
1%!
0;
0<
0&!
1=
#1410000
0!
1+
09
0:
#1415000
1!
0+
19
1:
0N!
0O!
1M!
1<
1&!
0%!
1;
1>
0=
0>
1=
0&!
1?
0?
#1420000
0!
1+
09
0:
#1425000
1!
0+
19
1:
1O!
1'!
1$!
1%!
0;
12
1&!
1$
#1430000
0!
1+
09
0:
#1435000
1!
0+
19
1:
0O!
0M!
0'!
0$!
0%!
1;
0=
02
0&!
0$
#1440000
0!
1+
09
0:
#1445000
1!
0+
19
1:
1O!
1%!
0;
1&!
#1450000
0!
1+
09
0:
#1455000
1!
0+
19
1:
1N!
0O!
0<
0&!
0%!
1;
1=
1<
1&!
0=
#1460000
0!
1+
09
0:
#1465000
1!
0+
19
1:
1O!
1%!
0;
0<
0&!
1=
#1470000
0!
1+
09
0:
#1475000
1!
0+
19
1:
0N!
0O!
1M!
1<
1&!
0%!
1;
1>
0=
0>
1=
0&!
1?
0?
#1480000
0!
1+
09
0:
#1485000
1!
0+
19
1:
1O!
1'!
1$!
1%!
0;
12
1&!
1$
#1490000
0!
1+
09
0:
#1495000
1!
0+
19
1:
0O!
0M!
0'!
0$!
0%!
1;
0=
02
0&!
0$
#1500000
0!
1+
09
0:
#1505000
1!
0+
19
1:
1O!
1%!
0;
1&!
#1510000
0!
1+
09
0:
#1515000
1!
0+
19
1:
1N!
0O!
0<
0&!
0%!
1;
1=
1<
1&!
0=
#1520000
0!
1+
09
0:
#1525000
1!
0+
19
1:
1O!
1%!
0;
0<
0&!
1=
#1530000
0!
1+
09
0:
#1535000
1!
0+
19
1:
0N!
0O!
1M!
1<
1&!
0%!
1;
1>
0=
0>
1=
0&!
1?
0?
#1540000
0!
1+
09
0:
#1545000
1!
0+
19
1:
1O!
1'!
1$!
1%!
0;
12
1&!
1$
#1550000
0!
1+
09
0:
#1555000
1!
0+
19
1:
0O!
0M!
0'!
0$!
0%!
1;
0=
02
0&!
0$
#1560000
0!
1+
09
0:
#1565000
1!
0+
19
1:
1O!
1%!
0;
1&!
#1570000
0!
1+
09
0:
#1575000
1!
0+
19
1:
1N!
0O!
0<
0&!
0%!
1;
1=
1<
1&!
0=
#1580000
0!
1+
09
0:
#1585000
1!
0+
19
1:
1O!
1%!
0;
0<
0&!
1=
#1590000
0!
1+
09
0:
#1595000
1!
0+
19
1:
0N!
0O!
1M!
1<
1&!
0%!
1;
1>
0=
0>
1=
0&!
1?
0?
#1600000
0!
1+
09
0:
#1605000
1!
0+
19
1:
1O!
1'!
1$!
1%!
0;
12
1&!
1$
#1610000
0!
1+
09
0:
#1615000
1!
0+
19
1:
0O!
0M!
0'!
0$!
0%!
1;
0=
02
0&!
0$
#1620000
0!
1+
09
0:
#1625000
1!
0+
19
1:
1O!
1%!
0;
1&!
#1630000
0!
1+
09
0:
#1635000
1!
0+
19
1:
1N!
0O!
0<
0&!
0%!
1;
1=
1<
1&!
0=
#1640000
0!
1+
09
0:
#1645000
1!
0+
19
1:
1O!
1%!
0;
0<
0&!
1=
#1650000
0!
1+
09
0:
#1655000
1!
0+
19
1:
0N!
0O!
1M!
1<
1&!
0%!
1;
1>
0=
0>
1=
0&!
1?
0?
#1660000
0!
1+
09
0:
#1665000
1!
0+
19
1:
1O!
1'!
1$!
1%!
0;
12
1&!
1$
#1670000
0!
1+
09
0:
#1675000
1!
0+
19
1:
0O!
0M!
0'!
0$!
0%!
1;
0=
02
0&!
0$
#1680000
0!
1+
09
0:
#1685000
1!
0+
19
1:
1O!
1%!
0;
1&!
#1690000
0!
1+
09
0:
#1695000
1!
0+
19
1:
1N!
0O!
0<
0&!
0%!
1;
1=
1<
1&!
0=
#1700000
0!
1+
09
0:
#1705000
1!
0+
19
1:
1O!
1%!
0;
0<
0&!
1=
#1710000
0!
1+
09
0:
#1715000
1!
0+
19
1:
0N!
0O!
1M!
1<
1&!
0%!
1;
1>
0=
0>
1=
0&!
1?
0?
#1720000
0!
1+
09
0:
#1725000
1!
0+
19
1:
1O!
1'!
1$!
1%!
0;
12
1&!
1$
