RTL/adder/adder/simulation/qsim/adder.msim.vcd
$comment
	File created using the following command:
		vcd file adder.msim.vcd -direction
$end
$date
	Tue Aug 22 21:38:34 2023
$end
$version
	ModelSim Version 10.4
$end
$timescale
	1ps
$end

$scope module adder8_vlg_vec_tst $end
$var reg 8 ! IN1 [7:0] $end
$var reg 8 " IN2 [7:0] $end
$var wire 1 # OUT [8] $end
$var wire 1 $ OUT [7] $end
$var wire 1 % OUT [6] $end
$var wire 1 & OUT [5] $end
$var wire 1 ' OUT [4] $end
$var wire 1 ( OUT [3] $end
$var wire 1 ) OUT [2] $end
$var wire 1 * OUT [1] $end
$var wire 1 + OUT [0] $end
$var wire 1 , sampler $end

$scope module i1 $end
$var wire 1 - gnd $end
$var wire 1 . vcc $end
$var wire 1 / unknown $end
$var tri1 1 0 devclrn $end
$var tri1 1 1 devpor $end
$var tri1 1 2 devoe $end
$var wire 1 3 OUT[0]~output_o $end
$var wire 1 4 OUT[1]~output_o $end
$var wire 1 5 OUT[2]~output_o $end
$var wire 1 6 OUT[3]~output_o $end
$var wire 1 7 OUT[4]~output_o $end
$var wire 1 8 OUT[5]~output_o $end
$var wire 1 9 OUT[6]~output_o $end
$var wire 1 : OUT[7]~output_o $end
$var wire 1 ; OUT[8]~output_o $end
$var wire 1 < IN2[0]~input_o $end
$var wire 1 = IN1[0]~input_o $end
$var wire 1 > Add0~0_combout $end
$var wire 1 ? IN2[1]~input_o $end
$var wire 1 @ IN1[1]~input_o $end
$var wire 1 A Add0~1 $end
$var wire 1 B Add0~2_combout $end
$var wire 1 C IN1[2]~input_o $end
$var wire 1 D IN2[2]~input_o $end
$var wire 1 E Add0~3 $end
$var wire 1 F Add0~4_combout $end
$var wire 1 G IN2[3]~input_o $end
$var wire 1 H IN1[3]~input_o $end
$var wire 1 I Add0~5 $end
$var wire 1 J Add0~6_combout $end
$var wire 1 K IN1[4]~input_o $end
$var wire 1 L IN2[4]~input_o $end
$var wire 1 M Add0~7 $end
$var wire 1 N Add0~8_combout $end
$var wire 1 O IN1[5]~input_o $end
$var wire 1 P IN2[5]~input_o $end
$var wire 1 Q Add0~9 $end
$var wire 1 R Add0~10_combout $end
$var wire 1 S IN1[6]~input_o $end
$var wire 1 T IN2[6]~input_o $end
$var wire 1 U Add0~11 $end
$var wire 1 V Add0~12_combout $end
$var wire 1 W IN2[7]~input_o $end
$var wire 1 X IN1[7]~input_o $end
$var wire 1 Y Add0~13 $end
$var wire 1 Z Add0~14_combout $end
$var wire 1 [ Add0~15 $end
$var wire 1 \ Add0~16_combout $end
$upscope $end
$upscope $end
$enddefinitions $end
#0
$dumpvars
b110000 !
b10001 "
1+
0*
0)
0(
0'
0&
1%
0$
0#
x,
0-
1.
x/
10
11
12
13
04
05
06
07
08
19
0:
0;
1<
0=
1>
0?
0@
0A
0B
0C
0D
1E
0F
0G
0H
0I
0J
1K
1L
1M
0N
1O
0P
1Q
0R
0S
0T
0U
1V
0W
0X
0Y
0Z
1[
0\
$end
#10000
b10010001 "
b11010001 "
b11110001 "
b11110101 "
b10110000 !
b11110000 !
b11100000 !
b11100100 !
0,
1C
0K
1S
1X
1D
1P
1T
1W
1I
0Q
1N
1Y
0[
1R
18
17
1J
0R
1Z
1\
1&
1'
1;
1:
08
16
1#
1$
0&
1(
#20000
b11100101 "
b11101101 "
b11101100 "
b11100110 !
b11100111 !
b11101000 "
b1100111 !
b1110111 !
b1110011 !
1,
1=
1@
0C
1K
0X
0<
0D
1G
0L
1B
0I
0Z
0M
0J
06
0:
14
1M
1J
1Q
0N
0(
0$
1*
07
16
0Q
1N
1R
0'
1(
18
17
0R
1&
1'
08
0&
#30000
b1010011 !
b10011 !
b11100000 "
b10010 !
b10 !
0,
0G
0=
0K
0O
0S
0J
0>
0N
1U
1R
0V
09
18
07
03
06
0Y
1V
0%
1&
0'
0+
0(
19
1[
1Z
1%
1:
0\
1$
0;
0#
#40000
b1010 !
b1100000 "
b100000 "
b0 "
b1 "
b1000 !
b101 "
b1100 !
b1001100 !
b1101 "
b1001101 !
b1011101 !
1,
1<
1D
1G
0P
0T
0W
1=
0@
1C
1H
1K
1S
1A
1I
0M
0R
0Z
0B
1N
17
04
0:
08
1B
1J
1Q
0N
1'
0*
0$
0&
07
16
14
1R
0'
1(
1*
18
1&
#50000
b1111 "
b1010101 !
b10001111 "
b10001110 "
b10001010 "
b1010100 !
b1000100 !
0,
0=
0H
0K
0<
1?
0D
1W
0A
0J
0Q
1N
0E
0B
0I
1F
1Z
1:
15
04
17
06
1E
1B
0R
1I
0F
1M
1J
1$
1)
0*
1'
0(
16
05
08
14
0I
1F
0M
0J
0N
1(
0)
0&
1*
07
06
15
1M
1J
1N
0'
0(
1)
17
16
0N
1'
1(
07
0'
#60000
b10011010 "
b11000100 !
b11011010 "
b11111010 "
b11000000 !
b11001000 !
b11111110 "
1,
0C
1H
1X
1D
1L
1P
1T
0M
0J
0[
0Z
1N
1R
1Y
0V
09
18
17
0:
06
1Q
0N
1\
1Z
0%
1&
1'
0$
0(
1:
1;
07
0U
0R
1$
1#
0'
08
1V
0&
19
1%
#70000
b11101000 !
b11011110 "
b11101100 !
b11100100 !
0,
0P
1C
0H
1O
1I
0F
1M
1J
16
05
0M
0J
0Q
1N
1(
0)
17
06
1Q
0N
1U
1R
1'
0(
18
07
0U
0R
0V
1&
0'
09
08
1V
0%
0&
19
1%
#80000
b10100100 !
b11010110 "
b11010100 "
b1010100 "
b1010101 "
b10110100 !
b1000101 "
b110100 !
b101 "
b110000 !
b111000 !
1,
1<
0?
0G
0L
0T
0W
0C
1H
1K
0S
0X
1>
0B
0Y
1[
0I
1F
15
04
13
0Z
0\
1M
1J
1)
0*
1+
16
0;
0:
0Q
1N
1(
0#
0$
17
1U
1R
1'
18
0V
1&
09
0%
#90000
b111001 !
b11001 !
b1101 "
b1111 "
b1110 "
b1001 !
b11110 "
b10001001 !
b10001101 !
0,
0<
1?
1G
1L
1=
1C
0K
0O
1X
1B
0M
0J
1I
0F
0R
1Z
1:
08
05
06
14
1Q
0N
1J
1$
0&
0)
0(
1*
16
07
1R
1(
0'
18
1&
#100000
b10001111 !
b111110 "
b11001111 !
b10111110 "
b11000111 !
b11100111 !
b10110110 "
b10110111 "
b11110111 !
b11110011 !
1,
1<
0G
1P
1W
1@
0C
0H
1K
1O
1S
1A
0>
1M
0U
0[
0Z
0E
0B
0I
1F
1N
1V
19
17
15
04
0:
03
1B
0N
1Y
0V
1\
1I
0F
0J
1%
1'
1)
0*
0$
0+
06
05
1;
09
07
14
1Z
1J
0(
0)
1#
0%
0'
1*
16
1:
1(
1$
#110000
b10110011 "
b10110001 "
b1110011 !
b10010001 "
b10001 "
b1010011 !
b11001 "
b11000 "
0,
0O
0X
0<
0?
0D
1G
0P
0W
1U
1[
0A
1>
0B
0I
1F
0M
0J
06
15
04
13
0Y
1V
0\
1E
1B
1M
1J
1N
0(
1)
0*
1+
17
16
14
0;
19
0Z
0F
0N
1'
1(
1*
0#
1%
07
05
0:
0'
0)
0$
#120000
b1011000 "
b1001000 "
b1010001 !
b10001 !
b11001 !
b1001 !
b1101 !
b1001100 "
b1101100 "
b11101100 "
b11100100 "
1,
0@
1C
1H
0K
0S
1D
0G
0L
1P
1T
1W
0B
1I
0Q
0U
0R
1Z
1:
08
04
0M
0J
1U
1R
1Y
0V
1$
0&
0*
09
18
06
1N
0Y
1V
0[
0Z
0%
1&
0(
0:
19
17
1[
1Z
1\
0$
1%
1'
1;
1:
0\
1#
1$
0;
0#
#130000
b1100 !
b11100110 "
b101100 !
b10100110 "
b10110110 "
b101110 !
b100110 !
b110110 !
b110010 !
b10110010 "
0,
1?
0D
1L
0T
0=
1@
0C
0H
1K
1O
0E
0I
1Q
0V
0>
1M
1J
0U
0R
08
16
03
09
1F
0J
1R
0N
1V
0&
1(
0+
0%
19
07
18
06
15
1%
0'
1&
0(
1)
#140000
b10110011 "
b1110010 !
b110011 "
b111011 "
b1110011 !
b111001 "
b1010011 !
b1111001 "
b1010001 !
b1011001 !
b1011101 !
b1111101 "
1,
1=
0@
1C
1H
0O
1S
1<
0?
1D
1G
1T
0W
1A
1E
1I
0M
0R
1Y
0Z
0:
08
1B
0F
1J
1N
1Z
0$
0&
1:
17
16
05
14
1$
1'
1(
0)
1*
#150000
b1101101 "
b1001101 !
b1101 !
b1100101 "
b1100 !
b101100 !
b100101 "
b101110 !
b101010 !
0,
0=
1@
0C
0K
1O
0S
0G
0L
0T
0A
1>
0E
0B
0I
1F
0Q
1R
0Y
0J
06
18
15
04
13
1E
1B
1I
0F
1M
1J
0R
0Z
0(
1&
1)
0*
1+
0:
08
16
05
14
0I
1F
0M
0J
0N
0$
0&
1(
0)
1*
07
06
15
1M
1J
1N
0'
0(
1)
17
16
0N
1'
1(
07
0'
#160000
b101 "
b100010 !
b110010 !
b10010 !
b1000101 "
b10000 !
b10100 !
1,
0@
1C
0H
1K
0O
0P
1T
0B
1I
0F
0J
1N
1U
1Y
0V
09
17
06
05
04
1J
0Y
1V
1Z
0%
1'
0(
0)
0*
1:
19
16
0Z
1$
1%
1(
0:
0$
#170000
b10010100 !
b1000100 "
b11000100 "
b11010100 !
b11001100 "
b11010101 !
b11000101 !
b11100101 !
b10001100 "
b11100111 !
0,
0<
1G
0T
1W
1=
1@
0K
1O
1S
1X
0M
0J
0[
1B
0N
1R
18
07
14
06
1N
1\
1&
0'
1*
0(
1;
17
1#
1'
#180000
b10011100 "
b10100111 !
b10010100 "
b10100110 !
b10110110 !
b10010110 !
b11010100 "
1,
0=
1K
0O
0S
0G
1L
1T
0>
1Q
0R
1M
1J
16
08
03
1R
0N
1(
0&
0+
07
18
0'
1&
#190000
b11010000 "
b11110000 "
b10010010 !
b11110001 "
b1110001 "
b1100001 "
b11010010 !
b11010011 !
b11110011 !
b100001 "
0,
1=
0C
1O
1S
1<
0D
0L
1P
0T
0W
1A
0I
0U
0Q
1N
1[
1Z
1:
17
0E
0B
0J
1Y
0V
0R
0\
1$
1'
0;
08
09
06
04
1F
0[
0Z
0#
0&
0%
0(
0*
0:
15
1\
0$
1)
1;
1#
#200000
b100011 "
b11111011 !
b1111011 !
b1111001 !
b101011 "
b1111101 !
b111011 "
b1111100 !
1,
0=
0@
1C
1H
0X
1?
1G
1L
0A
1>
1I
0F
0M
1[
1Z
1Q
0N
07
1:
05
13
1E
1B
1J
1N
0\
1R
0'
1$
0)
1+
18
0;
17
16
14
0I
1F
1&
0#
1'
1(
1*
15
0J
1)
06
0(
#210000
b1101100 !
b111111 "
b11111 "
b11101 "
b1100100 !
b1100110 !
b10101 "
b1100111 !
0,
0?
1D
0G
0P
1=
1@
0H
0K
1I
0F
1M
0R
1A
0>
0N
07
03
08
05
1J
0Q
1N
0E
0B
0'
0+
0&
0)
04
17
16
1U
1R
1F
0*
1'
1(
15
18
0Y
1V
1)
1&
19
0Z
1%
0:
0$
#220000
b10100 "
b10010100 "
b100111 !
b110111 !
b10110100 "
b110101 !
b10111100 "
b110100 !
1,
0=
0@
1K
0S
0<
1G
1P
1W
0A
1E
1B
1Q
0N
0V
0M
0J
0U
0R
1Z
1:
08
06
09
07
14
0B
0F
1R
1N
1V
1$
0&
0(
0%
0'
1*
19
17
18
05
04
1%
1'
1&
0)
0*
#230000
b10110100 !
b10101100 "
b10101110 "
b10101111 "
b11110100 !
b11100100 !
b11100101 !
0,
1<
1?
0L
1=
0K
1S
1X
1A
1B
0Q
1Y
0V
0[
0Z
0:
09
14
0E
0B
0R
1Z
1\
0$
0%
1*
1;
1:
08
04
1F
1#
1$
0&
0*
15
1)
#240000
b11100001 !
b10101011 "
b11101001 !
b101011 "
b1101001 !
b101001 !
1,
0D
0W
0C
1H
0S
0X
0I
1[
1J
0Y
1V
19
16
0J
0\
0Z
1%
1(
0:
0;
06
0$
0#
0(
#250000
b1001 !
b111011 "
b111001 "
b1000 !
b10111001 "
b10001000 !
b11001000 !
0,
0?
1L
1W
0=
0O
1S
1X
1E
1B
1Q
0N
0[
0A
1>
1U
1R
1Y
0V
09
18
13
07
14
0F
0U
0R
1\
0B
0Y
1V
1Z
0%
1&
1+
0'
1*
1:
19
04
1;
08
05
1Y
0V
0Z
1$
1%
0*
1#
0&
0)
0:
09
1Z
0$
0%
1:
1$
#260000
b11111001 "
b11001010 !
b11111000 "
b11011010 !
b11011110 !
b11111100 "
b11101100 "
b11101110 "
1,
1@
1C
1K
0<
1?
1D
0L
1T
0E
1I
0>
1V
19
03
1F
1J
1%
0+
16
15
1(
1)
#270000
b11001110 "
b11010110 !
b11110110 !
b1001110 "
b1110110 !
b110110 !
b1001111 "
b1011111 "
b1011101 "
0,
0H
1O
0S
0X
1<
0?
1L
0P
0W
0J
0V
1[
1>
1E
1B
1N
17
14
13
09
06
0\
0F
1'
1*
1+
0%
0(
05
0;
0)
0#
#280000
b110111 !
b1111101 "
b1111100 "
1,
0<
1P
1=
1R
18
1&
#290000
b1111000 "
b111111 !
b11111 !
b11111000 "
b11101000 "
b11110 !
b11001000 "
b11001001 "
0,
0=
1H
0O
1<
0D
0L
0P
1W
1J
1U
0I
1F
0N
0[
0Z
0:
07
15
16
0Y
1V
0J
1\
0$
0'
1)
1(
1;
06
19
1[
1Z
1#
0(
1%
1:
0\
1$
0;
0#
#300000
b10001001 "
b11100 !
b1100 !
b1000 !
b10001000 !
b11001000 !
b10001011 "
b11101000 !
b1011 "
b1010 "
1,
0@
0C
0K
1O
1S
1X
0<
1?
0T
0W
0F
0Q
1N
0U
0R
0>
03
08
17
05
1U
1R
1Y
0V
0+
0&
1'
0)
09
18
0Y
1V
0[
0Z
0%
1&
0:
19
1[
1Z
1\
0$
1%
1;
1:
0\
1#
1$
0;
0#
#310000
b10 "
b10010 "
b110010 "
b11101100 !
b10101100 !
b10110010 "
0,
1C
0S
0G
1L
1P
1W
1F
0V
1M
1J
1Q
0N
0U
0R
0[
0Z
0:
08
07
16
09
15
0Q
1N
1R
1V
1\
0$
0&
0'
1(
0%
1)
1;
19
18
17
0R
1#
1%
1&
1'
08
0&
#320000
b11110010 "
b10111100 !
b111100 !
b11111010 "
b11101010 "
b1111100 !
1,
1K
1S
0X
1G
0L
1T
1Y
1[
1Z
0M
0J
06
1:
0[
0Z
0\
1Q
0N
0(
1$
07
0;
0:
1\
1R
0'
0#
0$
18
1;
1&
1#
#330000
b11101110 "
b1110100 !
b1110101 !
b1110111 !
b11101100 "
b11101101 "
b11001101 "
b10001101 "
b1100111 !
b11100111 !
b10000101 "
b10010101 "
0,
1=
1@
0H
0K
1X
1<
0?
1D
0G
1L
0P
0T
1A
1M
1Z
1I
0F
0R
0V
09
08
05
1:
0E
0B
0Q
1N
1J
0%
0&
0)
1$
16
17
04
1F
1U
1R
1(
1'
0*
18
15
0Y
1V
1&
1)
19
0Z
1%
0:
0$
#340000
b11000111 !
b10101 "
b11001111 !
b11001101 !
b10111 "
b110111 "
b100111 "
1,
1?
0L
1P
0W
0@
1H
0O
0N
1[
1Z
0M
0J
06
1:
07
0\
1N
0(
1$
0'
17
0;
1'
0#
#350000
b100110 "
b1001101 !
b101110 "
b10101110 "
b1001111 !
b10101100 "
b10111100 "
0,
1@
0X
0<
0?
1G
1L
1W
0A
1>
1J
1Q
0N
07
16
13
1E
1B
0U
0R
0'
1(
1+
08
14
0F
1Y
0V
0&
1*
09
05
0[
0Z
0%
0)
0:
1\
0$
1;
1#
#360000
b1001011 !
b1011 !
b10111000 "
b11111000 "
b11011000 "
b10001011 !
b11010000 "
b1010000 "
b10001001 !
b1000000 "
1,
0D
0G
0L
0P
1T
0W
0@
0C
0S
1X
0I
0J
0Q
1N
1U
1R
0B
04
18
17
06
1M
1J
0R
0Y
1V
0*
1&
1'
0(
19
08
16
0N
1[
1Z
1%
0&
1(
1:
07
0\
1$
0'
0;
0#
#370000
b10001000 !
b10000000 !
b1000010 "
b11000000 !
b1000110 "
b110 "
b100110 "
b10100110 "
b11000010 !
0,
1?
1D
1P
0T
1W
0=
1@
0H
1S
0E
1F
1R
0[
0Z
0>
0J
06
03
0:
18
15
1I
0F
1\
0(
0+
0$
1&
1)
1;
05
1J
1#
0)
16
1(
#380000
b11100010 !
b10100111 "
b10110111 "
b11100011 !
b11101011 !
b10110101 "
b11101001 !
1,
1<
0?
1L
1=
0@
1H
1O
1A
1E
1N
0M
0J
0U
0R
08
06
17
1B
0I
1F
1Q
0N
1Y
0V
0&
0(
1'
09
07
15
14
1M
1J
1R
1Z
0%
0'
1)
1*
1:
18
16
0Q
1N
1$
1&
1(
17
0R
1'
08
0&
#390000
b11101101 !
b10101101 !
b10110100 "
b10101100 !
b10101110 !
0,
0<
0=
1@
1C
0S
0A
0E
0B
1I
0F
0Y
1V
19
05
04
1E
1B
1F
0M
0J
0Z
1%
0)
0*
0:
06
15
14
0F
1Q
0N
0$
0(
1)
1*
07
05
1R
0'
0)
18
1&
#400000
b10111110 !
b110100 "
b10110110 !
b110110 "
b11110110 !
b110111 "
b11110111 !
b11110101 !
1,
1<
1?
0W
1=
0@
0H
1K
1S
1A
1[
1Z
1M
1J
1N
1Y
0V
09
17
16
1:
0E
0B
0\
0N
0[
0Z
0%
1'
1(
1$
0:
07
0;
04
1F
1\
0$
0'
0#
0*
1;
15
1#
1)
#410000
b110011 "
b1110011 "
b1010011 "
b1000011 "
b11110001 !
b11100001 !
b11101001 !
b1000001 "
b11101000 !
b11101010 !
0,
0=
1@
0C
1H
0K
0?
0D
0L
0P
1T
0A
1>
0I
0M
0J
0Q
0R
1V
19
08
06
13
1E
1B
1M
1J
1N
1U
1R
1%
0&
0(
1+
18
17
16
14
0F
0N
0V
1&
1'
1(
1*
09
07
05
0%
0'
0)
#420000
b11001010 !
b11000001 "
b10001010 !
b11100001 "
b10001110 !
b10000110 !
b11100011 "
1,
1?
1P
1W
1C
0H
0O
0S
0E
0B
1Z
1F
0J
0Y
1V
19
06
15
1:
04
1I
0F
0Z
1%
0(
1)
1$
0*
0:
05
1J
0$
0)
16
1(
#430000
b110 !
b11100111 "
b11110111 "
b111 !
b101 !
b100101 !
b1110111 "
b1100101 !
b1010111 "
b1101101 !
b1010101 "
0,
0?
1D
1L
0P
0W
1=
0@
1H
1O
1S
0X
1E
1F
1N
1[
1A
0>
0M
0J
1Y
0V
09
06
03
17
15
0F
0\
1B
1Q
0N
1Z
0%
0(
0+
1'
1)
1:
07
14
0;
05
0U
0R
1$
0'
1*
0#
0)
08
1V
0&
19
1%
#440000
b1011101 "
b1011100 "
b11100 "
b1101001 !
b1100 "
b1101000 !
b1101010 !
b10001100 "
b10101100 "
b1100010 !
1,
0=
1@
0C
0H
0<
1G
0L
1P
0T
1W
0A
0E
0B
0I
1F
0Q
1N
1R
0V
0[
0Z
0:
09
18
17
15
04
1E
1B
1I
0F
1M
1J
0R
1\
0$
0%
1&
1'
1)
0*
1;
08
16
05
14
0I
1F
0M
0J
0N
1#
0&
1(
0)
1*
07
06
15
1M
1J
1N
0'
0(
1)
17
16
0N
1'
1(
07
0'
#450000
b10101000 "
b10101010 "
b11101010 "
b1100110 !
b1100111 !
0,
1=
1C
1?
0D
1T
1>
0E
0B
1V
19
04
13
1I
0F
1%
0*
1+
05
0M
0J
0)
06
1N
0(
17
1'
#460000
b11100111 !
b11000111 !
b11111010 "
b1111010 "
b1011010 "
b11001111 !
b1011000 "
1,
0?
1L
0P
0W
1H
0O
1X
1E
1B
1Q
0N
1U
1J
16
07
14
0I
1F
1R
0V
1(
0'
1*
09
18
15
0J
0%
1&
1)
06
0(
#470000
b11001101 !
b11001100 !
b11101100 !
b1001000 "
b1101000 "
b11100100 !
b1101010 "
0,
1?
0L
1P
0=
0@
0H
1O
0Q
1N
0U
0>
1M
1J
16
03
17
0R
1V
0N
1(
0+
1'
07
19
08
0'
1%
0&
#480000
b1100010 "
b11100101 !
b1110010 "
b1010010 "
1,
1=
0G
1L
0P
1>
0J
1N
1U
1R
18
17
06
13
0V
1&
1'
0(
1+
09
0%
#490000
b11110101 !
b10110101 !
b1010011 "
b1010111 "
b10110001 !
b110001 !
b111001 !
b1010101 "
0,
1<
0?
1D
0C
1H
1K
0S
0X
1A
0>
0B
1J
1Q
0N
0Y
1V
1[
1Z
1:
19
07
16
04
03
1B
0U
0R
0Z
0\
1$
1%
0'
1(
0*
0+
0;
0:
08
14
1Y
0V
0#
0$
0&
1*
09
1Z
0%
1:
1$
#500000
b10101 "
b10010101 "
b111011 !
b10011101 "
b111010 !
b10111101 "
b101010 !
b100010 !
1,
0=
1@
0H
0K
1G
1P
0T
1W
0A
1>
0E
0B
0Q
1N
1R
0Y
1V
0[
0Z
0:
19
18
17
04
13
1E
1B
1I
0F
0R
1[
1Z
1\
0$
1%
1&
1'
0*
1+
1;
1:
08
05
14
0I
1F
0M
0J
0\
1#
1$
0&
0)
1*
0;
06
15
1M
1J
1Q
0N
0#
0(
1)
07
16
0Q
1N
1R
0'
1(
18
17
0R
1&
1'
08
0&
#510000
b10 !
b1000010 !
b10111100 "
b11000010 !
b10110100 "
b10010100 "
0,
0<
0G
0P
0O
1S
1X
0>
0J
1U
1Y
0V
0[
0Z
0:
09
06
03
0Y
1V
1Z
1\
0$
0%
0(
0+
1;
1:
19
0Z
1#
1$
1%
0:
0$
#520000
b10000100 "
b11000100 "
b1000100 "
b11000000 !
b11000001 !
b11001001 !
b11101001 !
b10101001 !
b1000101 "
b101001 !
1,
1=
0@
1H
1O
0S
0X
1<
0L
1T
0W
1A
0B
1J
1R
1[
0N
07
18
16
04
1B
0\
0'
1&
1(
0*
0;
14
0#
1*
#530000
b1000001 "
b101101 !
b111101 !
b1001001 "
b1011001 "
b11001 "
b110101 !
b10101 !
b1010101 !
b11000 "
b11010101 !
0,
1C
0H
1K
0O
1S
1X
0<
0D
1G
1L
0T
1Q
0R
1Z
0A
1>
13
1:
08
1R
0B
1+
1$
0&
04
18
0*
1&
#540000
b11010 "
b111010 "
b11010100 !
b101010 "
b11011100 !
b10011100 !
b101011 "
1,
0=
1H
0S
1<
1?
0L
1P
0M
0J
0V
1B
0Q
1N
0U
0R
08
17
14
09
06
1Q
0N
1U
1R
1V
0&
1'
1*
0%
0(
19
18
07
0U
0R
0V
1%
1&
0'
09
08
1V
0%
0&
19
1%
#550000
b10101011 "
b10011000 !
b10100011 "
b11100011 "
b11000 !
b11000011 "
b11010011 "
b10000 !
b11010010 "
0,
0C
0H
0X
0<
0G
1L
0P
1T
1W
0F
1M
0>
1N
1U
1R
1Y
0V
09
18
17
03
05
0N
0Y
1V
0[
0Z
0%
1&
1'
0+
0)
0:
19
07
1[
1Z
1\
0$
1%
0'
1;
1:
0\
1#
1$
0;
0#
#560000
b0 !
b1000000 !
b1010010 "
b1011010 "
b11010 "
b11000000 !
b1010 "
1,
1G
0L
0T
0W
0K
1S
1X
1J
0Q
16
0R
1(
08
0&
#570000
b1110 "
b1100 "
b11000001 !
b1101 "
b11010001 !
b101 "
b1010001 !
b10101 "
0,
1=
1K
0X
1<
0?
1D
0G
1L
1A
1Q
0Z
0B
1F
0J
06
15
04
0:
1B
1R
0(
1)
0*
0$
18
14
1&
1*
#580000
b1110001 !
b110101 "
b1111001 !
b111001 !
b110001 "
b111000 !
b110000 "
b101000 !
b111000 "
1,
0<
0D
1G
1P
0=
1H
0K
1O
0S
0A
0F
0M
0U
0Q
1N
0V
09
17
05
0B
1Q
0N
1V
0R
0%
1'
0)
08
19
07
04
1R
0&
1%
0'
0*
18
1&
#590000
b101100 !
b1111000 "
b1011000 "
b100100 !
b1011100 "
0,
1D
0P
1T
1C
0H
1I
0R
1Y
0V
1M
1J
16
09
08
0M
0J
1Z
0Q
1N
1(
0%
0&
17
1:
06
1Q
0N
1U
1R
1'
1$
0(
18
07
0U
0R
0Y
1V
1&
0'
19
08
1Y
0V
0Z
1%
0&
0:
09
1Z
0$
0%
1:
1$
#600000
b100110 !
b10100110 !
b10000110 !
b11000110 !
b11010110 !
b1111100 "
b11011110 !
b1111000 "
1,
0D
1P
1@
1H
1K
0O
1S
1X
0I
1F
1B
1J
1N
1V
0[
0Z
0:
19
17
16
14
15
0J
1\
0$
1%
1'
1(
1*
1)
1;
06
1#
0(
#610000
b1101000 "
b11011111 !
b1100000 "
b11011011 !
b1011011 !
b11011 !
b10011 !
0,
1=
0C
0H
0S
0X
0G
0L
1>
0F
1M
0V
1[
1Z
0N
07
1:
09
05
13
0Q
1N
0\
0'
1$
0%
0)
1+
0;
17
1U
1R
0#
1'
18
0Y
1V
1&
19
0Z
1%
0:
0$
#620000
b1100010 "
b1000010 "
b1000110 "
b1010110 "
b10010 !
b1010010 !
b1011010 !
1,
0=
1H
1S
1?
1D
1L
0P
0>
1J
1Y
0V
0E
0B
1F
1Q
0N
0R
08
07
15
04
09
16
03
1Z
1I
0F
1R
0&
0'
1)
0*
0%
1(
0+
18
05
1:
0M
0J
1&
0)
1$
06
1N
0(
17
1'
#630000
b11010110 "
b10010110 "
b1001010 !
b11001010 !
b10010100 "
b10110100 "
b10100100 "
b10001010 !
0,
0K
0S
1X
0?
0L
1P
0T
1W
0Q
0Y
0[
1E
1B
0U
0R
08
14
1U
1R
0Z
1\
0I
1F
1V
0&
1*
19
15
1;
0:
18
0V
1M
1J
1%
1)
1#
0$
1&
16
09
0N
1(
0%
07
0'
#640000
b10001000 !
b10101000 !
b10101100 "
b10101100 !
b10101000 "
b10101101 !
b10100101 !
b101000 "
b100101 !
b101010 "
b1010 "
1,
1?
0D
1G
0P
0W
1=
0@
1C
0H
1O
0X
1[
1>
13
0\
1+
0;
0#
#650000
b1011 "
b1001011 "
b110101 !
b1011011 "
b1010011 "
b110100 !
b111100 !
b11010011 "
0,
0=
1H
1K
1<
0G
1L
1T
1W
1Q
1V
1Z
1:
19
0U
0R
1$
1%
08
1Y
0V
0&
09
0[
0Z
0%
0:
1\
0$
1;
1#
#660000
b1111100 !
b1011100 !
b1011000 !
b10010011 "
b1001000 !
b1001001 !
b1000001 !
b10011 "
1,
0T
0W
1=
0C
0H
0K
0O
1S
1[
1Z
1A
0>
0F
0J
0Q
1N
1U
1R
18
17
06
05
03
1:
0\
0E
0B
0R
0Y
1V
1&
1'
0(
0)
0+
1$
19
08
04
0;
1F
0Z
1%
0&
0*
0#
0:
15
0$
1)
#670000
b1000011 !
b11000011 !
b10001 "
b11000111 !
b11001111 !
0,
0?
1@
1C
1H
1X
1I
0F
1J
1Z
1:
16
05
0M
0J
1$
1(
0)
06
1Q
0N
0(
07
1R
0'
18
1&
#680000
b10101 "
b101 "
b1000101 "
b11011111 !
b11000101 "
b11011101 !
b11000111 "
b11011001 !
b11010001 !
1,
0@
0C
0H
1K
1?
1D
0L
1T
1W
1M
1J
1Y
0V
0[
0Z
0:
09
16
0Q
1N
1Z
1\
0$
0%
1(
1;
1:
17
0R
1#
1$
1'
08
0&
#690000
b11001111 "
b10010001 !
b10110001 !
b11001011 "
b11011011 "
b10011011 "
b10111001 !
0,
1H
1O
0S
0D
1G
1L
0T
0M
1R
0Y
0I
1F
1Q
0N
07
15
18
1N
0Z
0J
0U
0R
0'
1)
1&
08
06
0:
17
1V
0&
0(
0$
1'
19
1%
#700000
b10101001 !
b10011001 "
b10101101 !
b10010001 "
b10001101 !
b10010101 "
b10000101 "
b11000101 "
1,
0?
1D
0G
0L
1T
1C
0K
0O
1E
1B
1I
1M
1J
0Q
1Y
0V
1U
1R
18
09
16
14
0F
0M
0J
0N
0R
1Z
0Y
1V
1&
0%
1(
1*
19
1:
08
07
06
05
1N
0Z
1%
1$
0&
0'
0(
0)
0:
17
0$
1'
#710000
b11000100 "
b1101 !
b1001101 !
b1011101 !
b11000110 "
b1011001 !
b11001110 "
b11001010 "
b11011010 "
b10011010 "
0,
0C
1K
1S
0X
0<
1?
0D
1G
1L
0T
0I
1Q
1[
1Z
0A
1>
0E
0B
1J
16
04
13
1:
0J
1R
0\
1E
1B
1F
1(
0*
1+
1$
15
14
0;
18
06
0F
1)
1*
0#
1&
0(
05
0)
#720000
b11010 "
b1011011 !
b1111011 !
b11000 "
b1111111 !
b10000 "
b0 "
b1000000 "
1,
1@
1C
1O
0?
0G
0L
1T
0W
1F
0U
0R
1M
1J
0N
1Y
0V
0Z
0:
09
07
16
08
15
1V
0Q
1N
1Z
0$
0%
0'
1(
0&
1)
1:
17
19
1U
1R
1$
1'
1%
18
0V
1&
09
0%
#730000
b1100000 "
b11100000 "
b1111101 !
b1011101 !
b11100010 "
b1011001 !
b10100010 "
0,
0@
0C
0O
1?
1P
0T
1W
0F
0Y
1V
0[
0Z
0:
19
05
1[
1Z
1\
0$
1%
0)
1;
1:
0\
1#
1$
0;
0#
#740000
b1011000 !
b1001000 !
b10100110 "
b10101110 "
b10111110 "
b111110 "
b1101000 !
b111100 "
b1101100 !
1,
0?
1D
1G
1L
0W
0=
1C
0K
1O
0B
1I
0M
0J
0Z
0>
0U
0R
08
03
0:
06
04
1J
1Q
0N
1Y
0V
0&
0+
0$
0(
0*
09
07
16
1R
1Z
0%
0'
1(
1:
18
1$
1&
#750000
b111101 "
b11101100 !
b10101100 !
b1111101 "
b10101101 !
b10111101 !
b1111001 "
b1110001 "
b1100001 "
b11100001 "
b10011101 !
0,
1=
1K
0O
0S
1X
1<
0D
0G
0L
1T
1W
1A
0R
0[
0I
1F
0J
06
15
08
1B
1\
1M
1J
0(
1)
0&
16
1;
14
0Q
1N
1(
1#
1*
17
1U
1R
1'
18
0Y
1V
1&
19
0Z
1%
0:
0$
#760000
b11000001 "
b11101 !
b1011101 !
b1111101 !
1,
1O
1S
0X
0P
1Y
0V
1[
1Z
1:
09
0[
0Z
0\
1$
0%
0;
0:
1\
0#
0$
1;
1#
