FPGA_circuit_logic/4to16decoder/simulation/qsim/4to16decoder.msim.vcd
$comment
	File created using the following command:
		vcd file 4to16decoder.msim.vcd -direction
$end
$date
	Sun Aug 20 10:38:53 2023
$end
$version
	ModelSim Version 10.4
$end
$timescale
	1ps
$end

$scope module dec4to16_vlg_vec_tst $end
$var reg 1 ! D0 $end
$var reg 1 " D1 $end
$var reg 1 # D2 $end
$var reg 1 $ D3 $end
$var wire 1 % Y0 $end
$var wire 1 & Y1 $end
$var wire 1 ' Y2 $end
$var wire 1 ( Y3 $end
$var wire 1 ) Y4 $end
$var wire 1 * Y5 $end
$var wire 1 + Y6 $end
$var wire 1 , Y7 $end
$var wire 1 - Y8 $end
$var wire 1 . Y9 $end
$var wire 1 / Y10 $end
$var wire 1 0 Y11 $end
$var wire 1 1 Y12 $end
$var wire 1 2 Y13 $end
$var wire 1 3 Y14 $end
$var wire 1 4 Y15 $end
$var wire 1 5 sampler $end

$scope module i1 $end
$var wire 1 6 gnd $end
$var wire 1 7 vcc $end
$var wire 1 8 unknown $end
$var tri1 1 9 devclrn $end
$var tri1 1 : devpor $end
$var tri1 1 ; devoe $end
$var wire 1 < Y8~output_o $end
$var wire 1 = Y9~output_o $end
$var wire 1 > Y10~output_o $end
$var wire 1 ? Y11~output_o $end
$var wire 1 @ Y13~output_o $end
$var wire 1 A Y14~output_o $end
$var wire 1 B Y15~output_o $end
$var wire 1 C Y0~output_o $end
$var wire 1 D Y1~output_o $end
$var wire 1 E Y2~output_o $end
$var wire 1 F Y3~output_o $end
$var wire 1 G Y4~output_o $end
$var wire 1 H Y5~output_o $end
$var wire 1 I Y6~output_o $end
$var wire 1 J Y7~output_o $end
$var wire 1 K Y12~output_o $end
$var wire 1 L D3~input_o $end
$var wire 1 M D1~input_o $end
$var wire 1 N D2~input_o $end
$var wire 1 O D0~input_o $end
$var wire 1 P inst|15~0_combout $end
$var wire 1 Q inst|15~1_combout $end
$var wire 1 R inst|15~2_combout $end
$var wire 1 S inst|15~3_combout $end
$var wire 1 T inst|15~4_combout $end
$var wire 1 U inst|15~5_combout $end
$var wire 1 V inst|15~6_combout $end
$var wire 1 W inst|15~7_combout $end
$var wire 1 X inst|15~8_combout $end
$var wire 1 Y inst|15~9_combout $end
$var wire 1 Z inst|15~10_combout $end
$var wire 1 [ inst|15~11_combout $end
$var wire 1 \ inst|15~12_combout $end
$var wire 1 ] inst|15~13_combout $end
$var wire 1 ^ inst|15~14_combout $end
$var wire 1 _ inst|15~15_combout $end
$upscope $end
$upscope $end
$enddefinitions $end
#0
$dumpvars
0!
0"
1#
0$
1%
1&
1'
1(
0)
1*
1+
1,
1-
1.
1/
10
11
12
13
14
x5
06
17
x8
19
1:
1;
1<
1=
1>
1?
1@
1A
1B
1C
1D
1E
1F
0G
1H
1I
1J
1K
0L
0M
1N
0O
0P
0Q
0R
0S
0T
0U
0V
0W
0X
0Y
0Z
1[
0\
0]
0^
0_
$end
#10000
1$
1!
1"
05
1L
1O
1M
0[
1V
0B
1G
04
1)
#20000
0#
15
0N
0V
1S
0?
1B
00
14
#30000
0$
0!
05
0L
0O
1Y
0S
1?
0E
10
0'
#40000
0"
1#
15
0M
1N
1[
0Y
1E
0G
1'
0)
#50000
1"
0#
05
1M
0N
0[
1Y
0E
1G
0'
1)
#70000
1!
15
1O
1Z
0Y
1E
0F
1'
0(
#80000
1$
0"
0!
05
1L
0M
0O
0Z
1P
0<
1F
0-
1(
#90000
1#
15
1N
1_
0P
1<
0K
1-
01
#100000
0$
1!
05
0L
1O
0_
1\
0H
1K
0*
11
#110000
1$
0!
15
1L
0O
1_
0\
1H
0K
1*
01
#120000
1"
1!
05
1M
1O
0_
1V
0B
1K
04
11
#130000
0"
0!
15
0M
0O
1_
0V
1B
0K
14
01
#150000
0#
0$
1"
05
0N
0L
1M
0_
1Y
0E
1K
0'
11
#160000
1#
0"
15
1N
0M
1[
0Y
1E
0G
1'
0)
#170000
1!
1$
0#
05
1O
1L
0N
0[
1Q
0=
1G
0.
1)
#180000
1"
0!
1#
15
1M
0O
1N
1U
0Q
1=
0A
1.
03
#190000
0$
05
0L
1]
0U
1A
0I
13
0+
#200000
1!
0#
1$
15
1O
0N
1L
0]
1S
0?
1I
00
1+
#210000
0"
0!
1#
05
0M
0O
1N
1_
0S
1?
0K
10
01
#220000
0$
1"
1!
15
0L
1M
1O
0_
1^
0J
1K
0,
11
#230000
0#
0"
05
0N
0M
0^
1X
0D
1J
0&
1,
#240000
1$
0!
1#
15
1L
0O
1N
1_
0X
1D
0K
1&
01
#250000
1"
1!
05
1M
1O
0_
1V
0B
1K
04
11
#260000
0"
15
0M
0V
1T
0@
1B
02
14
#270000
0$
0!
05
0L
0O
1[
0T
1@
0G
12
0)
#280000
0#
1$
1!
15
0N
1L
1O
0[
1Q
0=
1G
0.
1)
#290000
1"
1#
0$
05
1M
1N
0L
1^
0Q
1=
0J
1.
0,
#300000
0!
0"
1$
15
0O
0M
1L
1_
0^
1J
0K
1,
01
#310000
1!
1"
05
1O
1M
0_
1V
0B
1K
04
11
#320000
0#
0!
0"
15
0N
0O
0M
0V
1P
0<
1B
0-
14
#330000
1#
1!
05
1N
1O
1T
0P
1<
0@
1-
02
#340000
0$
0#
15
0L
0N
1X
0T
1@
0D
12
0&
#350000
0!
1$
1#
05
0O
1L
1N
1_
0X
1D
0K
1&
01
#360000
1"
1!
0#
15
1M
1O
0N
0_
1S
0?
1K
00
11
#370000
0!
05
0O
0S
1R
0>
1?
0/
10
#380000
0$
0"
1!
15
0L
0M
1O
1X
0R
1>
0D
1/
0&
#390000
1"
05
1M
1Z
0X
1D
0F
1&
0(
#400000
1#
1$
0"
15
1N
1L
0M
0Z
1T
0@
1F
02
1(
#410000
0!
1"
05
0O
1M
1U
0T
1@
0A
12
03
#420000
0#
1!
0"
15
0N
1O
0M
0U
1Q
0=
1A
0.
13
#430000
0$
0!
1"
05
0L
0O
1M
1Y
0Q
1=
0E
1.
0'
#440000
1!
0"
15
1O
0M
0Y
1X
0D
1E
0&
1'
#450000
1$
0!
1"
05
1L
0O
1M
0X
1R
0>
1D
0/
1&
#460000
0$
1!
0"
15
0L
1O
0M
1X
0R
1>
0D
1/
0&
#470000
1#
0!
05
1N
0O
1[
0X
1D
0G
1&
0)
#480000
1!
15
1O
1\
0[
1G
0H
1)
0*
#490000
0#
05
0N
0\
1X
0D
1H
0&
1*
#500000
1"
0!
1#
15
1M
0O
1N
1]
0X
1D
0I
1&
0+
#510000
0#
05
0N
0]
1Y
0E
1I
0'
1+
#520000
0"
15
0M
0Y
1W
0C
1E
0%
1'
#530000
1$
1!
1#
05
1L
1O
1N
0W
1T
0@
1C
02
1%
#540000
1"
0!
15
1M
0O
1U
0T
1@
0A
12
03
#550000
0$
0"
1!
05
0L
0M
1O
1\
0U
1A
0H
13
0*
#560000
0#
1$
1"
0!
15
0N
1L
1M
0O
0\
1R
0>
1H
0/
1*
#570000
0$
0"
05
0L
0M
1W
0R
1>
0C
1/
0%
#580000
1#
1$
15
1N
1L
1_
0W
1C
0K
1%
01
#600000
1!
0#
05
1O
0N
0_
1Q
0=
1K
0.
11
#620000
0!
15
0O
0Q
1P
0<
1=
0-
1.
#630000
1#
05
1N
1_
0P
1<
0K
1-
01
#640000
1"
0$
0#
15
1M
0L
0N
0_
1Y
0E
1K
0'
11
#650000
1#
05
1N
1]
0Y
1E
0I
1'
0+
#660000
1$
0#
15
1L
0N
0]
1R
0>
1I
0/
1+
#670000
1!
0"
1#
05
1O
0M
1N
1T
0R
1>
0@
1/
02
#680000
0$
1"
15
0L
1M
1^
0T
1@
0J
12
0,
#690000
0!
0#
1$
05
0O
0N
1L
0^
1R
0>
1J
0/
1,
#700000
1!
1#
0$
15
1O
1N
0L
1^
0R
1>
0J
1/
0,
#710000
0!
0#
05
0O
0N
0^
1Y
0E
1J
0'
1,
#720000
0"
1$
1!
1#
15
0M
1L
1O
1N
0Y
1T
0@
1E
02
1'
#730000
1"
0$
0#
05
1M
0L
0N
1Z
0T
1@
0F
12
0(
#740000
0!
1#
15
0O
1N
1]
0Z
1F
0I
1(
0+
#750000
0"
1$
0#
05
0M
1L
0N
0]
1P
0<
1I
0-
1+
#760000
1!
0$
15
1O
0L
1X
0P
1<
0D
1-
0&
#770000
1"
05
1M
1Z
0X
1D
0F
1&
0(
#780000
1$
15
1L
0Z
1S
0?
1F
00
1(
#790000
0!
0"
05
0O
0M
0S
1P
0<
1?
0-
10
#800000
0$
15
0L
1W
0P
1<
0C
1-
0%
#810000
1"
1$
05
1M
1L
0W
1R
0>
1C
0/
1%
#820000
1#
15
1N
1U
0R
1>
0A
1/
03
#830000
0#
05
0N
0U
1R
0>
1A
0/
13
#840000
0$
15
0L
1Y
0R
1>
0E
1/
0'
#850000
1!
0"
1#
05
1O
0M
1N
1\
0Y
1E
0H
1'
0*
#870000
1$
0!
15
1L
0O
1_
0\
1H
0K
1*
01
#880000
1"
0#
0$
1!
05
1M
0N
0L
1O
0_
1Z
0F
1K
0(
11
#890000
1#
1$
0!
15
1N
1L
0O
0Z
1U
0A
1F
03
1(
#900000
0$
1!
05
0L
1O
1^
0U
1A
0J
13
0,
#910000
0#
1$
0!
15
0N
1L
0O
0^
1R
0>
1J
0/
1,
#920000
0"
1#
0$
1!
05
0M
1N
0L
1O
1\
0R
1>
0H
1/
0*
#930000
0#
1$
15
0N
1L
0\
1Q
0=
1H
0.
1*
#940000
1"
0!
1#
05
1M
0O
1N
1U
0Q
1=
0A
1.
03
#950000
0$
1!
0#
15
0L
1O
0N
1Z
0U
1A
0F
13
0(
#960000
1$
0!
1#
05
1L
0O
1N
0Z
1U
0A
1F
03
1(
#970000
0"
0$
15
0M
0L
1[
0U
1A
0G
13
0)
#980000
1!
0#
1$
05
1O
0N
1L
0[
1Q
0=
1G
0.
1)
#990000
1"
1#
15
1M
1N
1V
0Q
1=
0B
1.
04
