DDS/I2S/I2S_hand/simulation/qsim/i2s.msim.vcd
$comment
	File created using the following command:
		vcd file i2s.msim.vcd -direction
$end
$date
	Sun Oct 15 17:16:09 2023
$end
$version
	ModelSim Version 10.4
$end
$timescale
	1ps
$end

$scope module i2s_vlg_vec_tst $end
$var reg 1 ! clk $end
$var reg 1 " LOAD $end
$var reg 32 # para_in [31:0] $end
$var reg 1 $ rst $end
$var wire 1 % serial_out $end
$var wire 1 & sampler $end

$scope module i1 $end
$var wire 1 ' gnd $end
$var wire 1 ( vcc $end
$var wire 1 ) unknown $end
$var tri1 1 * devclrn $end
$var tri1 1 + devpor $end
$var tri1 1 , devoe $end
$var wire 1 - serial_out~output_o $end
$var wire 1 . clk~input_o $end
$var wire 1 / clk~inputclkctrl_outclk $end
$var wire 1 0 LOAD~input_o $end
$var wire 1 1 rst~input_o $end
$var wire 1 2 para_in[29]~input_o $end
$var wire 1 3 inst|shift_reg[31]~163_combout $end
$var wire 1 4 inst|shift_reg[31]~163clkctrl_outclk $end
$var wire 1 5 inst|shift_reg[29]~11_combout $end
$var wire 1 6 para_in[28]~input_o $end
$var wire 1 7 inst|shift_reg[28]~16_combout $end
$var wire 1 8 para_in[27]~input_o $end
$var wire 1 9 inst|shift_reg[27]~21_combout $end
$var wire 1 : para_in[26]~input_o $end
$var wire 1 ; inst|shift_reg[26]~26_combout $end
$var wire 1 < para_in[25]~input_o $end
$var wire 1 = inst|shift_reg[25]~31_combout $end
$var wire 1 > para_in[24]~input_o $end
$var wire 1 ? inst|shift_reg[24]~36_combout $end
$var wire 1 @ para_in[23]~input_o $end
$var wire 1 A inst|shift_reg[23]~41_combout $end
$var wire 1 B para_in[22]~input_o $end
$var wire 1 C inst|shift_reg[22]~46_combout $end
$var wire 1 D para_in[21]~input_o $end
$var wire 1 E inst|shift_reg[21]~51_combout $end
$var wire 1 F para_in[20]~input_o $end
$var wire 1 G inst|shift_reg[20]~56_combout $end
$var wire 1 H para_in[19]~input_o $end
$var wire 1 I inst|shift_reg[19]~61_combout $end
$var wire 1 J para_in[18]~input_o $end
$var wire 1 K inst|shift_reg[18]~66_combout $end
$var wire 1 L para_in[17]~input_o $end
$var wire 1 M inst|shift_reg[17]~71_combout $end
$var wire 1 N para_in[16]~input_o $end
$var wire 1 O inst|shift_reg[16]~76_combout $end
$var wire 1 P para_in[15]~input_o $end
$var wire 1 Q inst|shift_reg[15]~81_combout $end
$var wire 1 R para_in[14]~input_o $end
$var wire 1 S inst|shift_reg[14]~86_combout $end
$var wire 1 T para_in[13]~input_o $end
$var wire 1 U inst|shift_reg[13]~91_combout $end
$var wire 1 V para_in[12]~input_o $end
$var wire 1 W para_in[11]~input_o $end
$var wire 1 X inst|shift_reg[11]~101_combout $end
$var wire 1 Y para_in[10]~input_o $end
$var wire 1 Z para_in[9]~input_o $end
$var wire 1 [ inst|shift_reg[9]~111_combout $end
$var wire 1 \ para_in[8]~input_o $end
$var wire 1 ] inst|shift_reg[8]~116_combout $end
$var wire 1 ^ para_in[7]~input_o $end
$var wire 1 _ inst|shift_reg[7]~121_combout $end
$var wire 1 ` para_in[6]~input_o $end
$var wire 1 a inst|shift_reg[6]~126_combout $end
$var wire 1 b para_in[5]~input_o $end
$var wire 1 c inst|shift_reg[5]~131_combout $end
$var wire 1 d para_in[4]~input_o $end
$var wire 1 e inst|shift_reg[4]~136_combout $end
$var wire 1 f para_in[3]~input_o $end
$var wire 1 g inst|shift_reg[3]~141_combout $end
$var wire 1 h para_in[2]~input_o $end
$var wire 1 i inst|shift_reg[2]~146_combout $end
$var wire 1 j para_in[1]~input_o $end
$var wire 1 k inst|shift_reg[1]~151_combout $end
$var wire 1 l para_in[0]~input_o $end
$var wire 1 m inst|shift_reg[0]~156_combout $end
$var wire 1 n inst|shift_reg[31]~0_combout $end
$var wire 1 o inst|shift_reg[0]~_emulated_q $end
$var wire 1 p inst|shift_reg[0]~158_combout $end
$var wire 1 q inst|shift_reg[0]~157_combout $end
$var wire 1 r inst|shift_reg[1]~154_combout $end
$var wire 1 s inst|shift_reg[1]~_emulated_q $end
$var wire 1 t inst|shift_reg[1]~153_combout $end
$var wire 1 u inst|shift_reg[1]~152_combout $end
$var wire 1 v inst|shift_reg[2]~149_combout $end
$var wire 1 w inst|shift_reg[2]~_emulated_q $end
$var wire 1 x inst|shift_reg[2]~148_combout $end
$var wire 1 y inst|shift_reg[2]~147_combout $end
$var wire 1 z inst|shift_reg[3]~144_combout $end
$var wire 1 { inst|shift_reg[3]~_emulated_q $end
$var wire 1 | inst|shift_reg[3]~143_combout $end
$var wire 1 } inst|shift_reg[3]~142_combout $end
$var wire 1 ~ inst|shift_reg[4]~139_combout $end
$var wire 1 !! inst|shift_reg[4]~_emulated_q $end
$var wire 1 "! inst|shift_reg[4]~138_combout $end
$var wire 1 #! inst|shift_reg[4]~137_combout $end
$var wire 1 $! inst|shift_reg[5]~134_combout $end
$var wire 1 %! inst|shift_reg[5]~_emulated_q $end
$var wire 1 &! inst|shift_reg[5]~133_combout $end
$var wire 1 '! inst|shift_reg[5]~132_combout $end
$var wire 1 (! inst|shift_reg[6]~129_combout $end
$var wire 1 )! inst|shift_reg[6]~_emulated_q $end
$var wire 1 *! inst|shift_reg[6]~128_combout $end
$var wire 1 +! inst|shift_reg[6]~127_combout $end
$var wire 1 ,! inst|shift_reg[7]~124_combout $end
$var wire 1 -! inst|shift_reg[7]~_emulated_q $end
$var wire 1 .! inst|shift_reg[7]~123_combout $end
$var wire 1 /! inst|shift_reg[7]~122_combout $end
$var wire 1 0! inst|shift_reg[8]~119_combout $end
$var wire 1 1! inst|shift_reg[8]~_emulated_q $end
$var wire 1 2! inst|shift_reg[8]~118_combout $end
$var wire 1 3! inst|shift_reg[8]~117_combout $end
$var wire 1 4! inst|shift_reg[9]~114_combout $end
$var wire 1 5! inst|shift_reg[9]~_emulated_q $end
$var wire 1 6! inst|shift_reg[9]~113_combout $end
$var wire 1 7! inst|shift_reg[9]~112_combout $end
$var wire 1 8! inst|shift_reg[10]~106_combout $end
$var wire 1 9! inst|shift_reg[10]~109_combout $end
$var wire 1 :! inst|shift_reg[10]~_emulated_q $end
$var wire 1 ;! inst|shift_reg[10]~108_combout $end
$var wire 1 <! inst|shift_reg[10]~107_combout $end
$var wire 1 =! inst|shift_reg[11]~104_combout $end
$var wire 1 >! inst|shift_reg[11]~_emulated_q $end
$var wire 1 ?! inst|shift_reg[11]~103_combout $end
$var wire 1 @! inst|shift_reg[11]~102_combout $end
$var wire 1 A! inst|shift_reg[12]~96_combout $end
$var wire 1 B! inst|shift_reg[12]~99_combout $end
$var wire 1 C! inst|shift_reg[12]~_emulated_q $end
$var wire 1 D! inst|shift_reg[12]~98_combout $end
$var wire 1 E! inst|shift_reg[12]~97_combout $end
$var wire 1 F! inst|shift_reg[13]~94_combout $end
$var wire 1 G! inst|shift_reg[13]~_emulated_q $end
$var wire 1 H! inst|shift_reg[13]~93_combout $end
$var wire 1 I! inst|shift_reg[13]~92_combout $end
$var wire 1 J! inst|shift_reg[14]~89_combout $end
$var wire 1 K! inst|shift_reg[14]~_emulated_q $end
$var wire 1 L! inst|shift_reg[14]~88_combout $end
$var wire 1 M! inst|shift_reg[14]~87_combout $end
$var wire 1 N! inst|shift_reg[15]~84_combout $end
$var wire 1 O! inst|shift_reg[15]~_emulated_q $end
$var wire 1 P! inst|shift_reg[15]~83_combout $end
$var wire 1 Q! inst|shift_reg[15]~82_combout $end
$var wire 1 R! inst|shift_reg[16]~79_combout $end
$var wire 1 S! inst|shift_reg[16]~_emulated_q $end
$var wire 1 T! inst|shift_reg[16]~78_combout $end
$var wire 1 U! inst|shift_reg[16]~77_combout $end
$var wire 1 V! inst|shift_reg[17]~74_combout $end
$var wire 1 W! inst|shift_reg[17]~_emulated_q $end
$var wire 1 X! inst|shift_reg[17]~73_combout $end
$var wire 1 Y! inst|shift_reg[17]~72_combout $end
$var wire 1 Z! inst|shift_reg[18]~69_combout $end
$var wire 1 [! inst|shift_reg[18]~_emulated_q $end
$var wire 1 \! inst|shift_reg[18]~68_combout $end
$var wire 1 ]! inst|shift_reg[18]~67_combout $end
$var wire 1 ^! inst|shift_reg[19]~64_combout $end
$var wire 1 _! inst|shift_reg[19]~_emulated_q $end
$var wire 1 `! inst|shift_reg[19]~63_combout $end
$var wire 1 a! inst|shift_reg[19]~62_combout $end
$var wire 1 b! inst|shift_reg[20]~59_combout $end
$var wire 1 c! inst|shift_reg[20]~_emulated_q $end
$var wire 1 d! inst|shift_reg[20]~58_combout $end
$var wire 1 e! inst|shift_reg[20]~57_combout $end
$var wire 1 f! inst|shift_reg[21]~54_combout $end
$var wire 1 g! inst|shift_reg[21]~_emulated_q $end
$var wire 1 h! inst|shift_reg[21]~53_combout $end
$var wire 1 i! inst|shift_reg[21]~52_combout $end
$var wire 1 j! inst|shift_reg[22]~49_combout $end
$var wire 1 k! inst|shift_reg[22]~_emulated_q $end
$var wire 1 l! inst|shift_reg[22]~48_combout $end
$var wire 1 m! inst|shift_reg[22]~47_combout $end
$var wire 1 n! inst|shift_reg[23]~44_combout $end
$var wire 1 o! inst|shift_reg[23]~_emulated_q $end
$var wire 1 p! inst|shift_reg[23]~43_combout $end
$var wire 1 q! inst|shift_reg[23]~42_combout $end
$var wire 1 r! inst|shift_reg[24]~39_combout $end
$var wire 1 s! inst|shift_reg[24]~_emulated_q $end
$var wire 1 t! inst|shift_reg[24]~38_combout $end
$var wire 1 u! inst|shift_reg[24]~37_combout $end
$var wire 1 v! inst|shift_reg[25]~34_combout $end
$var wire 1 w! inst|shift_reg[25]~_emulated_q $end
$var wire 1 x! inst|shift_reg[25]~33_combout $end
$var wire 1 y! inst|shift_reg[25]~32_combout $end
$var wire 1 z! inst|shift_reg[26]~29_combout $end
$var wire 1 {! inst|shift_reg[26]~_emulated_q $end
$var wire 1 |! inst|shift_reg[26]~28_combout $end
$var wire 1 }! inst|shift_reg[26]~27_combout $end
$var wire 1 ~! inst|shift_reg[27]~24_combout $end
$var wire 1 !" inst|shift_reg[27]~_emulated_q $end
$var wire 1 "" inst|shift_reg[27]~23_combout $end
$var wire 1 #" inst|shift_reg[27]~22_combout $end
$var wire 1 $" inst|shift_reg[28]~19_combout $end
$var wire 1 %" inst|shift_reg[28]~_emulated_q $end
$var wire 1 &" inst|shift_reg[28]~18_combout $end
$var wire 1 '" inst|shift_reg[28]~17_combout $end
$var wire 1 (" inst|shift_reg[29]~14_combout $end
$var wire 1 )" inst|shift_reg[29]~_emulated_q $end
$var wire 1 *" inst|shift_reg[29]~13_combout $end
$var wire 1 +" inst|shift_reg[29]~12_combout $end
$var wire 1 ," para_in[30]~input_o $end
$var wire 1 -" inst|shift_reg[30]~6_combout $end
$var wire 1 ." inst|shift_reg[30]~9_combout $end
$var wire 1 /" inst|shift_reg[30]~_emulated_q $end
$var wire 1 0" inst|shift_reg[30]~8_combout $end
$var wire 1 1" inst|shift_reg[30]~7_combout $end
$var wire 1 2" para_in[31]~input_o $end
$var wire 1 3" inst|shift_reg[31]~1_combout $end
$var wire 1 4" inst|shift_reg[31]~4_combout $end
$var wire 1 5" inst|shift_reg[31]~_emulated_q $end
$var wire 1 6" inst|shift_reg[31]~3_combout $end
$var wire 1 7" inst|shift_reg[31]~2_combout $end
$var wire 1 8" inst|serial_out~0_combout $end
$var wire 1 9" inst|serial_out~q $end
$upscope $end
$upscope $end
$enddefinitions $end
#0
$dumpvars
0!
1"
b11001000000100000000000000000100 #
0$
0%
x&
0'
1(
x)
1*
1+
1,
0-
0.
0/
10
01
02
13
14
05
06
07
18
19
0:
0;
0<
0=
0>
0?
0@
0A
0B
0C
0D
0E
1F
1G
0H
0I
0J
0K
0L
0M
0N
0O
0P
0Q
0R
0S
0T
0U
0V
0W
0X
0Y
0Z
0[
0\
0]
0^
0_
0`
0a
0b
0c
0d
0e
0f
0g
1h
1i
0j
0k
0l
0m
1n
0o
0p
0q
0r
0s
0t
0u
1v
0w
1x
1y
1z
0{
0|
0}
0~
0!!
0"!
0#!
0$!
0%!
0&!
0'!
0(!
0)!
0*!
0+!
0,!
0-!
0.!
0/!
00!
01!
02!
03!
04!
05!
06!
07!
08!
09!
0:!
0;!
0<!
0=!
0>!
0?!
0@!
0A!
0B!
0C!
0D!
0E!
0F!
0G!
0H!
0I!
0J!
0K!
0L!
0M!
0N!
0O!
0P!
0Q!
0R!
0S!
0T!
0U!
0V!
0W!
0X!
0Y!
0Z!
0[!
0\!
0]!
0^!
0_!
0`!
0a!
1b!
0c!
1d!
1e!
1f!
0g!
0h!
0i!
0j!
0k!
0l!
0m!
0n!
0o!
0p!
0q!
0r!
0s!
0t!
0u!
0v!
0w!
0x!
0y!
0z!
0{!
0|!
0}!
1~!
0!"
1""
1#"
1$"
0%"
0&"
0'"
0("
0)"
0*"
0+"
1,"
1-"
1."
0/"
10"
11"
12"
13"
04"
05"
16"
17"
08"
09"
$end
#10000
1!
0&
1.
1/
#20000
0!
1&
0.
0/
#30000
1!
0&
1.
1/
#40000
0!
1&
0.
0/
#50000
1!
0&
1.
1/
#60000
0!
1&
0.
0/
#70000
1!
0&
1.
1/
#80000
0!
1&
0.
0/
#90000
1!
0&
1.
1/
#100000
0!
1&
0.
0/
#110000
1!
0&
1.
1/
#120000
0!
1&
0.
0/
#130000
1!
0&
1.
1/
#140000
0!
1&
0.
0/
#150000
1!
0&
1.
1/
#160000
0!
1&
0.
0/
#170000
1!
0&
1.
1/
#180000
0!
1&
0.
0/
#190000
1!
0&
1.
1/
#200000
0!
1&
0.
0/
#210000
1!
0&
1.
1/
#220000
0!
1&
0.
0/
#230000
1!
0&
1.
1/
#240000
0"
0!
1&
00
0.
0/
18"
03
04
0n
#250000
1!
0&
1.
1/
1/"
1%"
1!"
1g!
1c!
1{
1w
19"
1-
00"
1&"
0""
1h!
0d!
1|
0x
1%
01"
1'"
0#"
1i!
0e!
1}
0y
14"
1("
0$"
1j!
0f!
1~
0z
#260000
0!
1&
0.
0/
#270000
1!
0&
1.
1/
15"
1)"
0%"
1k!
0g!
1!!
0{
06"
1*"
0&"
1l!
0h!
1"!
0|
07"
1+"
0'"
1m!
0i!
1#!
0}
08"
0."
0("
1n!
0j!
1$!
0~
#280000
0!
1&
0.
0/
#290000
1!
0&
1.
1/
0/"
0)"
1o!
0k!
1%!
0!!
09"
0-
10"
0*"
1p!
0l!
1&!
0"!
0%
11"
0+"
1q!
0m!
1'!
0#!
04"
1."
1r!
0n!
1(!
0$!
#300000
0!
1&
0.
0/
#310000
1!
0&
1.
1/
05"
1/"
1s!
0o!
1)!
0%!
16"
00"
1t!
0p!
1*!
0&!
17"
01"
1u!
0q!
1+!
0'!
18"
14"
1v!
0r!
1,!
0(!
#320000
0!
1&
0.
0/
#330000
1!
0&
1.
1/
15"
1w!
0s!
1-!
0)!
19"
1-
06"
1x!
0t!
1.!
0*!
1%
07"
1y!
0u!
1/!
0+!
08"
1z!
0v!
10!
0,!
#340000
0!
1&
0.
0/
#350000
1!
0&
1.
1/
1{!
0w!
11!
0-!
09"
0-
1|!
0x!
12!
0.!
0%
1}!
0y!
13!
0/!
0~!
0z!
14!
00!
#360000
0!
1&
0.
0/
#370000
1!
0&
1.
1/
0!"
0{!
15!
01!
1""
0|!
16!
02!
1#"
0}!
17!
03!
1$"
1~!
19!
04!
#380000
0!
1&
0.
0/
#390000
1!
0&
1.
1/
1%"
1!"
1:!
05!
1&"
0""
1;!
06!
1'"
0#"
1<!
07!
1("
0$"
1=!
09!
#400000
0!
1&
0.
0/
#410000
1!
0&
1.
1/
1)"
0%"
1>!
0:!
1*"
0&"
1?!
0;!
1+"
0'"
1@!
0<!
0."
0("
1B!
0=!
#420000
0!
1&
0.
0/
#430000
1!
0&
1.
1/
0/"
0)"
1C!
0>!
10"
0*"
1D!
0?!
11"
0+"
1E!
0@!
04"
1."
1F!
0B!
#440000
0!
1&
0.
0/
#450000
1!
0&
1.
1/
05"
1/"
1G!
0C!
16"
00"
1H!
0D!
17"
01"
1I!
0E!
18"
14"
1J!
0F!
#460000
0!
1&
0.
0/
#470000
1!
0&
1.
1/
15"
1K!
0G!
19"
1-
06"
1L!
0H!
1%
07"
1M!
0I!
08"
1N!
0J!
#480000
0!
1&
0.
0/
#490000
1!
0&
1.
1/
1O!
0K!
09"
0-
1P!
0L!
0%
1Q!
0M!
1R!
0N!
#500000
0!
1&
0.
0/
#510000
1!
0&
1.
1/
1S!
0O!
1T!
0P!
1U!
0Q!
1V!
0R!
#520000
0!
1&
0.
0/
#530000
1!
0&
1.
1/
1W!
0S!
1X!
0T!
1Y!
0U!
1Z!
0V!
#540000
0!
1&
0.
0/
#550000
1!
0&
1.
1/
1[!
0W!
1\!
0X!
1]!
0Y!
1^!
0Z!
#560000
0!
1&
0.
0/
#570000
1!
0&
1.
1/
1_!
0[!
1`!
0\!
1a!
0]!
0b!
0^!
#580000
0!
1&
0.
0/
#590000
1!
0&
1.
1/
0c!
0_!
1d!
0`!
1e!
0a!
1f!
1b!
#600000
0!
1&
0.
0/
#610000
1!
0&
1.
1/
1g!
1c!
1h!
0d!
1i!
0e!
1j!
0f!
#620000
0!
1&
0.
0/
#630000
1!
0&
1.
1/
1k!
0g!
1l!
0h!
1m!
0i!
1n!
0j!
#640000
0!
1&
0.
0/
#650000
1!
0&
1.
1/
1o!
0k!
1p!
0l!
1q!
0m!
1r!
0n!
#660000
0!
1&
0.
0/
#670000
1!
0&
1.
1/
1s!
0o!
1t!
0p!
1u!
0q!
1v!
0r!
#680000
0!
1&
0.
0/
#690000
1!
0&
1.
1/
1w!
0s!
1x!
0t!
1y!
0u!
1z!
0v!
#700000
0!
1&
0.
0/
#710000
1!
0&
1.
1/
1{!
0w!
1|!
0x!
1}!
0y!
0~!
0z!
#720000
0!
1&
0.
0/
#730000
1!
0&
1.
1/
0!"
0{!
1""
0|!
1#"
0}!
1$"
1~!
#740000
0!
1&
0.
0/
#750000
1!
0&
1.
1/
1%"
1!"
1&"
0""
1'"
0#"
1("
0$"
#760000
0!
1&
0.
0/
#770000
1!
0&
1.
1/
1)"
0%"
1*"
0&"
1+"
0'"
0."
0("
#780000
0!
1&
0.
0/
#790000
1!
0&
1.
1/
0/"
0)"
10"
0*"
11"
0+"
04"
1."
#800000
0!
1&
0.
0/
#810000
1!
0&
1.
1/
05"
1/"
16"
00"
17"
01"
18"
14"
#820000
0!
1&
0.
0/
#830000
1!
0&
1.
1/
15"
19"
1-
06"
1%
07"
08"
#840000
0!
1&
0.
0/
#850000
1!
0&
1.
1/
09"
0-
0%
#860000
0!
1&
0.
0/
#870000
1!
0&
1.
1/
#880000
0!
1&
0.
0/
#890000
1!
0&
1.
1/
#900000
0!
1&
0.
0/
#910000
1!
0&
1.
1/
#920000
0!
1&
0.
0/
#930000
1!
0&
1.
1/
#940000
0!
1&
0.
0/
#950000
1!
0&
1.
1/
#960000
1$
0!
1&
11
0.
0/
03"
0-"
1n
0i
0G
09
16"
04"
10"
0."
1x
0v
1d!
0b!
1""
0~!
0w
0c!
0!"
0/"
05"
0x
0d!
0""
00"
06"
#970000
1!
0&
1.
1/
#980000
0!
1&
0.
0/
#990000
1!
0&
1.
1/
#1000000
0!
1&
0.
0/
#1010000
1!
0&
1.
1/
#1020000
0!
1&
0.
0/
#1030000
1!
0&
1.
1/
#1040000
1"
0!
1&
10
0.
0/
#1050000
1!
0&
1.
1/
#1060000
0!
1&
0.
0/
#1070000
1!
0&
1.
1/
#1080000
0!
1&
0.
0/
#1090000
1!
0&
1.
1/
#1100000
0!
1&
0.
0/
#1110000
1!
0&
1.
1/
#1120000
0!
1&
0.
0/
#1130000
1!
0&
1.
1/
#1140000
0!
1&
0.
0/
#1150000
1!
0&
1.
1/
#1160000
0$
0"
0!
1&
01
00
0.
0/
0n
#1170000
1!
0&
1.
1/
#1180000
0!
1&
0.
0/
#1190000
1!
0&
1.
1/
#1200000
0!
1&
0.
0/
#1210000
1!
0&
1.
1/
#1220000
0!
1&
0.
0/
#1230000
1!
0&
1.
1/
#1240000
0!
1&
0.
0/
#1250000
1!
0&
1.
1/
#1260000
0!
1&
0.
0/
#1270000
1!
0&
1.
1/
#1280000
0!
1&
0.
0/
#1290000
1!
0&
1.
1/
#1300000
0!
1&
0.
0/
#1310000
1!
0&
1.
1/
#1320000
0!
1&
0.
0/
#1330000
1!
0&
1.
1/
#1340000
0!
1&
0.
0/
#1350000
1!
0&
1.
1/
#1360000
0!
1&
0.
0/
#1370000
1!
0&
1.
1/
#1380000
0!
1&
0.
0/
#1390000
1!
0&
1.
1/
#1400000
0!
1&
0.
0/
#1410000
1!
0&
1.
1/
#1420000
0!
1&
0.
0/
#1430000
1!
0&
1.
1/
#1440000
0!
1&
0.
0/
#1450000
1!
0&
1.
1/
#1460000
0!
1&
0.
0/
#1470000
1!
0&
1.
1/
#1480000
0!
1&
0.
0/
#1490000
1!
0&
1.
1/
#1500000
0!
1&
0.
0/
#1510000
1!
0&
1.
1/
#1520000
0!
1&
0.
0/
#1530000
1!
0&
1.
1/
#1540000
0!
1&
0.
0/
#1550000
1!
0&
1.
1/
#1560000
0!
1&
0.
0/
#1570000
1!
0&
1.
1/
#1580000
0!
1&
0.
0/
#1590000
1!
0&
1.
1/
#1600000
0!
1&
0.
0/
#1610000
1!
0&
1.
1/
#1620000
0!
1&
0.
0/
#1630000
1!
0&
1.
1/
#1640000
0!
1&
0.
0/
#1650000
1!
0&
1.
1/
#1660000
0!
1&
0.
0/
#1670000
1!
0&
1.
1/
#1680000
0!
1&
0.
0/
#1690000
1!
0&
1.
1/
#1700000
0!
1&
0.
0/
#1710000
1!
0&
1.
1/
#1720000
0!
1&
0.
0/
#1730000
1!
0&
1.
1/
#1740000
0!
1&
0.
0/
#1750000
1!
0&
1.
1/
#1760000
0!
1&
0.
0/
#1770000
1!
0&
1.
1/
#1780000
0!
1&
0.
0/
#1790000
1!
0&
1.
1/
#1800000
0!
1&
0.
0/
#1810000
1!
0&
1.
1/
#1820000
0!
1&
0.
0/
#1830000
1!
0&
1.
1/
#1840000
0!
1&
0.
0/
#1850000
1!
0&
1.
1/
#1860000
0!
1&
0.
0/
#1870000
1!
0&
1.
1/
#1880000
0!
1&
0.
0/
#1890000
1!
0&
1.
1/
#1900000
0!
1&
0.
0/
#1910000
1!
0&
1.
1/
#1920000
0!
1&
0.
0/
#1930000
1!
0&
1.
1/
#1940000
0!
1&
0.
0/
#1950000
1!
0&
1.
1/
#1960000
0!
1&
0.
0/
#1970000
1!
0&
1.
1/
#1980000
0!
1&
0.
0/
#1990000
1!
0&
1.
1/
#2000000
0!
1&
0.
0/
#2010000
1!
0&
1.
1/
#2020000
0!
1&
0.
0/
#2030000
1!
0&
1.
1/
#2040000
0!
1&
0.
0/
#2050000
1!
0&
1.
1/
#2060000
0!
1&
0.
0/
#2070000
1!
0&
1.
1/
#2080000
0!
1&
0.
0/
#2090000
1!
0&
1.
1/
#2100000
0!
1&
0.
0/
#2110000
1!
0&
1.
1/
#2120000
0!
1&
0.
0/
#2130000
1!
0&
1.
1/
#2140000
0!
1&
0.
0/
#2150000
1!
0&
1.
1/
#2160000
0!
1&
0.
0/
#2170000
1!
0&
1.
1/
#2180000
0!
1&
0.
0/
#2190000
1!
0&
1.
1/
#2200000
0!
1&
0.
0/
#2210000
1!
0&
1.
1/
#2220000
0!
1&
0.
0/
#2230000
1!
0&
1.
1/
#2240000
0!
1&
0.
0/
#2250000
1!
0&
1.
1/
#2260000
0!
1&
0.
0/
#2270000
1!
0&
1.
1/
#2280000
0!
1&
0.
0/
#2290000
1!
0&
1.
1/
#2300000
0!
1&
0.
0/
#2310000
1!
0&
1.
1/
#2320000
0!
1&
0.
0/
#2330000
1!
0&
1.
1/
#2340000
0!
1&
0.
0/
#2350000
1!
0&
1.
1/
#2360000
0!
1&
0.
0/
#2370000
1!
0&
1.
1/
#2380000
0!
1&
0.
0/
#2390000
1!
0&
1.
1/
#2400000
0!
1&
0.
0/
#2410000
1!
0&
1.
1/
#2420000
0!
1&
0.
0/
#2430000
1!
0&
1.
1/
#2440000
0!
1&
0.
0/
#2450000
1!
0&
1.
1/
#2460000
0!
1&
0.
0/
#2470000
1!
0&
1.
1/
#2480000
0!
1&
0.
0/
#2490000
1!
0&
1.
1/
#2500000
0!
1&
0.
0/
#2510000
1!
0&
1.
1/
#2520000
1$
0!
1&
11
0.
0/
1n
#2530000
1!
0&
1.
1/
#2540000
0!
1&
0.
0/
#2550000
1!
0&
1.
1/
#2560000
0!
1&
0.
0/
#2570000
1!
0&
1.
1/
#2580000
0!
1&
0.
0/
#2590000
1!
0&
1.
1/
#2600000
1"
0!
1&
10
0.
0/
#2610000
1!
0&
1.
1/
#2620000
0!
1&
0.
0/
#2630000
1!
0&
1.
1/
#2640000
0$
0"
0!
1&
01
00
0.
0/
0n
#2650000
1!
0&
1.
1/
#2660000
0!
1&
0.
0/
#2670000
1!
0&
1.
1/
#2680000
0!
1&
0.
0/
#2690000
1!
0&
1.
1/
#2700000
0!
1&
0.
0/
#2710000
1!
0&
1.
1/
#2720000
0!
1&
0.
0/
#2730000
1!
0&
1.
1/
#2740000
0!
1&
0.
0/
#2750000
1!
0&
1.
1/
#2760000
0!
1&
0.
0/
#2770000
1!
0&
1.
1/
#2780000
0!
1&
0.
0/
#2790000
1!
0&
1.
1/
#2800000
0!
1&
0.
0/
#2810000
1!
0&
1.
1/
#2820000
0!
1&
0.
0/
#2830000
1!
0&
1.
1/
#2840000
0!
1&
0.
0/
#2850000
1!
0&
1.
1/
#2860000
0!
1&
0.
0/
#2870000
1!
0&
1.
1/
#2880000
0!
1&
0.
0/
#2890000
1!
0&
1.
1/
#2900000
0!
1&
0.
0/
#2910000
1!
0&
1.
1/
#2920000
0!
1&
0.
0/
#2930000
1!
0&
1.
1/
#2940000
0!
1&
0.
0/
#2950000
1!
0&
1.
1/
#2960000
0!
1&
0.
0/
#2970000
1!
0&
1.
1/
#2980000
0!
1&
0.
0/
#2990000
1!
0&
1.
1/
#3000000
0!
1&
0.
0/
#3010000
1!
0&
1.
1/
#3020000
0!
1&
0.
0/
#3030000
1!
0&
1.
1/
#3040000
0!
1&
0.
0/
#3050000
1!
0&
1.
1/
#3060000
0!
1&
0.
0/
#3070000
1!
0&
1.
1/
#3080000
0!
1&
0.
0/
#3090000
1!
0&
1.
1/
#3100000
0!
1&
0.
0/
#3110000
1!
0&
1.
1/
#3120000
0!
1&
0.
0/
#3130000
1!
0&
1.
1/
#3140000
0!
1&
0.
0/
#3150000
1!
0&
1.
1/
#3160000
0!
1&
0.
0/
#3170000
1!
0&
1.
1/
#3180000
0!
1&
0.
0/
#3190000
1!
0&
1.
1/
#3200000
0!
1&
0.
0/
#3210000
1!
0&
1.
1/
#3220000
0!
1&
0.
0/
#3230000
1!
0&
1.
1/
#3240000
0!
1&
0.
0/
#3250000
1!
0&
1.
1/
#3260000
0!
1&
0.
0/
#3270000
1!
0&
1.
1/
#3280000
0!
1&
0.
0/
#3290000
1!
0&
1.
1/
#3300000
0!
1&
0.
0/
#3310000
1!
0&
1.
1/
#3320000
0!
1&
0.
0/
#3330000
1!
0&
1.
1/
#3340000
0!
1&
0.
0/
#3350000
1!
0&
1.
1/
#3360000
0!
1&
0.
0/
#3370000
1!
0&
1.
1/
#3380000
0!
1&
0.
0/
#3390000
1!
0&
1.
1/
#3400000
0!
1&
0.
0/
#3410000
1!
0&
1.
1/
#3420000
0!
1&
0.
0/
#3430000
1!
0&
1.
1/
#3440000
0!
1&
0.
0/
#3450000
1!
0&
1.
1/
#3460000
0!
1&
0.
0/
#3470000
1!
0&
1.
1/
#3480000
0!
1&
0.
0/
#3490000
1!
0&
1.
1/
#3500000
0!
1&
0.
0/
#3510000
1!
0&
1.
1/
#3520000
0!
1&
0.
0/
#3530000
1!
0&
1.
1/
#3540000
0!
1&
0.
0/
#3550000
1!
0&
1.
1/
#3560000
0!
1&
0.
0/
#3570000
1!
0&
1.
1/
#3580000
0!
1&
0.
0/
#3590000
1!
0&
1.
1/
#3600000
0!
1&
0.
0/
#3610000
1!
0&
1.
1/
#3620000
0!
1&
0.
0/
#3630000
1!
0&
1.
1/
#3640000
0!
1&
0.
0/
#3650000
1!
0&
1.
1/
#3660000
0!
1&
0.
0/
#3670000
1!
0&
1.
1/
#3680000
0!
1&
0.
0/
#3690000
1!
0&
1.
1/
#3700000
0!
1&
0.
0/
#3710000
1!
0&
1.
1/
#3720000
0!
1&
0.
0/
#3730000
1!
0&
1.
1/
#3740000
0!
1&
0.
0/
#3750000
1!
0&
1.
1/
#3760000
0!
1&
0.
0/
#3770000
1!
0&
1.
1/
#3780000
0!
1&
0.
0/
#3790000
1!
0&
1.
1/
#3800000
0!
1&
0.
0/
#3810000
1!
0&
1.
1/
#3820000
0!
1&
0.
0/
#3830000
1!
0&
1.
1/
#3840000
0!
1&
0.
0/
#3850000
1!
0&
1.
1/
#3860000
0!
1&
0.
0/
#3870000
1!
0&
1.
1/
#3880000
0!
1&
0.
0/
#3890000
1!
0&
1.
1/
#3900000
0!
1&
0.
0/
#3910000
1!
0&
1.
1/
#3920000
0!
1&
0.
0/
#3930000
1!
0&
1.
1/
#3940000
0!
1&
0.
0/
#3950000
1!
0&
1.
1/
#3960000
0!
1&
0.
0/
#3970000
1!
0&
1.
1/
#3980000
0!
1&
0.
0/
#3990000
1!
0&
1.
1/
#4000000
0!
1&
0.
0/
#4010000
1!
0&
1.
1/
#4020000
0!
1&
0.
0/
#4030000
1!
0&
1.
1/
#4040000
0!
1&
0.
0/
#4050000
1!
0&
1.
1/
#4060000
0!
1&
0.
0/
#4070000
1!
0&
1.
1/
#4080000
0!
1&
0.
0/
#4090000
1!
0&
1.
1/
