DDS/I2S/I2S_hand/simulation/qsim/i2s.msim.vcd
$comment
	File created using the following command:
		vcd file i2s.msim.vcd -direction
$end
$date
	Mon Oct 16 14:53:03 2023
$end
$version
	ModelSim Version 10.4
$end
$timescale
	1ps
$end

$scope module i2s_vlg_vec_tst $end
$var reg 1 ! BUTTON [2:2] $end
$var reg 1 " CLOCK_50 $end
$var reg 3 # SW [2:0] $end
$var wire 1 $ LEDG [1] $end
$var wire 1 % LEDG [0] $end
$var wire 1 & LRCK $end
$var wire 1 ' MCLK $end
$var wire 1 ( pin_name1 $end
$var wire 1 ) pin_name2 $end
$var wire 1 * SCLK $end
$var wire 1 + SDATA $end
$var wire 1 , sampler $end

$scope module i1 $end
$var wire 1 - gnd $end
$var wire 1 . vcc $end
$var wire 1 / unknown $end
$var tri1 1 0 devclrn $end
$var tri1 1 1 devpor $end
$var tri1 1 2 devoe $end
$var wire 1 3 BUTTON[2]~input_o $end
$var wire 1 4 SW[2]~input_o $end
$var wire 1 5 SW[1]~input_o $end
$var wire 1 6 SW[0]~input_o $end
$var wire 1 7 CLOCK_50~input_o $end
$var wire 1 8 inst6|altpll_component|auto_generated|wire_pll1_fbout $end
$var wire 1 9 inst6|altpll_component|auto_generated|wire_pll1_clk[0]~clkctrl_outclk $end
$var wire 1 : inst9|CNTVAL[0]~32_combout $end
$var wire 1 ; inst9|LessThan0~0_combout $end
$var wire 1 < inst9|CNTVAL[0]~33 $end
$var wire 1 = inst9|CNTVAL[1]~34_combout $end
$var wire 1 > inst9|CNTVAL[1]~35 $end
$var wire 1 ? inst9|CNTVAL[2]~36_combout $end
$var wire 1 @ inst9|CNTVAL[2]~37 $end
$var wire 1 A inst9|CNTVAL[3]~38_combout $end
$var wire 1 B inst9|CNTVAL[3]~39 $end
$var wire 1 C inst9|CNTVAL[4]~40_combout $end
$var wire 1 D inst9|CNTVAL[4]~41 $end
$var wire 1 E inst9|CNTVAL[5]~42_combout $end
$var wire 1 F inst9|CNTVAL[5]~43 $end
$var wire 1 G inst9|CNTVAL[6]~44_combout $end
$var wire 1 H inst9|CNTVAL[6]~45 $end
$var wire 1 I inst9|CNTVAL[7]~46_combout $end
$var wire 1 J inst9|CNTVAL[7]~47 $end
$var wire 1 K inst9|CNTVAL[8]~48_combout $end
$var wire 1 L inst9|CNTVAL[8]~49 $end
$var wire 1 M inst9|CNTVAL[9]~50_combout $end
$var wire 1 N inst9|CNTVAL[9]~51 $end
$var wire 1 O inst9|CNTVAL[10]~52_combout $end
$var wire 1 P inst9|Equal0~1_combout $end
$var wire 1 Q inst9|Equal0~0_combout $end
$var wire 1 R inst9|CNTVAL[10]~53 $end
$var wire 1 S inst9|CNTVAL[11]~54_combout $end
$var wire 1 T inst9|CNTVAL[11]~55 $end
$var wire 1 U inst9|CNTVAL[12]~56_combout $end
$var wire 1 V inst9|CNTVAL[12]~57 $end
$var wire 1 W inst9|CNTVAL[13]~58_combout $end
$var wire 1 X inst9|CNTVAL[13]~59 $end
$var wire 1 Y inst9|CNTVAL[14]~60_combout $end
$var wire 1 Z inst9|CNTVAL[14]~61 $end
$var wire 1 [ inst9|CNTVAL[15]~62_combout $end
$var wire 1 \ inst9|CNTVAL[15]~63 $end
$var wire 1 ] inst9|CNTVAL[16]~64_combout $end
$var wire 1 ^ inst9|CNTVAL[16]~65 $end
$var wire 1 _ inst9|CNTVAL[17]~66_combout $end
$var wire 1 ` inst9|CNTVAL[17]~67 $end
$var wire 1 a inst9|CNTVAL[18]~68_combout $end
$var wire 1 b inst9|CNTVAL[18]~69 $end
$var wire 1 c inst9|CNTVAL[19]~70_combout $end
$var wire 1 d inst9|CNTVAL[19]~71 $end
$var wire 1 e inst9|CNTVAL[20]~72_combout $end
$var wire 1 f inst9|CNTVAL[20]~73 $end
$var wire 1 g inst9|CNTVAL[21]~74_combout $end
$var wire 1 h inst9|CNTVAL[21]~75 $end
$var wire 1 i inst9|CNTVAL[22]~76_combout $end
$var wire 1 j inst9|CNTVAL[22]~77 $end
$var wire 1 k inst9|CNTVAL[23]~78_combout $end
$var wire 1 l inst9|CNTVAL[23]~79 $end
$var wire 1 m inst9|CNTVAL[24]~80_combout $end
$var wire 1 n inst9|CNTVAL[24]~81 $end
$var wire 1 o inst9|CNTVAL[25]~82_combout $end
$var wire 1 p inst9|CNTVAL[25]~83 $end
$var wire 1 q inst9|CNTVAL[26]~84_combout $end
$var wire 1 r inst9|CNTVAL[26]~85 $end
$var wire 1 s inst9|CNTVAL[27]~86_combout $end
$var wire 1 t inst9|CNTVAL[27]~87 $end
$var wire 1 u inst9|CNTVAL[28]~88_combout $end
$var wire 1 v inst9|CNTVAL[28]~89 $end
$var wire 1 w inst9|CNTVAL[29]~90_combout $end
$var wire 1 x inst9|CNTVAL[29]~91 $end
$var wire 1 y inst9|CNTVAL[30]~92_combout $end
$var wire 1 z inst9|Equal0~7_combout $end
$var wire 1 { inst9|Equal0~6_combout $end
$var wire 1 | inst9|Equal0~5_combout $end
$var wire 1 } inst9|CNTVAL[30]~93 $end
$var wire 1 ~ inst9|CNTVAL[31]~94_combout $end
$var wire 1 !! inst9|Equal0~8_combout $end
$var wire 1 "! inst9|Equal0~3_combout $end
$var wire 1 #! inst9|Equal0~2_combout $end
$var wire 1 $! inst9|Equal0~4_combout $end
$var wire 1 %! inst9|Equal0~9_combout $end
$var wire 1 &! inst9|Equal0~10_combout $end
$var wire 1 '! CLOCK_50~inputclkctrl_outclk $end
$var wire 1 (! inst1|u_GEN_LRCLK|count[0]~0_combout $end
$var wire 1 )! inst1|u_GEN_LRCLK|count[0]~1 $end
$var wire 1 *! inst1|u_GEN_LRCLK|count[1]~2_combout $end
$var wire 1 +! inst1|u_GEN_LRCLK|count[1]~3 $end
$var wire 1 ,! inst1|u_GEN_LRCLK|count[2]~4_combout $end
$var wire 1 -! inst1|u_GEN_LRCLK|count[2]~5 $end
$var wire 1 .! inst1|u_GEN_LRCLK|count[3]~6_combout $end
$var wire 1 /! inst1|u_GEN_LRCLK|count[3]~7 $end
$var wire 1 0! inst1|u_GEN_LRCLK|count[4]~8_combout $end
$var wire 1 1! inst1|u_GEN_LRCLK|count[4]~9 $end
$var wire 1 2! inst1|u_GEN_LRCLK|count[5]~10_combout $end
$var wire 1 3! inst1|u_GEN_LRCLK|count[5]~11 $end
$var wire 1 4! inst1|u_GEN_LRCLK|count[6]~12_combout $end
$var wire 1 5! inst1|u_GEN_LRCLK|count[6]~13 $end
$var wire 1 6! inst1|u_GEN_LRCLK|count[7]~14_combout $end
$var wire 1 7! inst1|u_GEN_LRCLK|count[7]~15 $end
$var wire 1 8! inst1|u_GEN_LRCLK|count[8]~16_combout $end
$var wire 1 9! inst1|u_GEN_LRCLK|Equal0~2_combout $end
$var wire 1 :! inst1|u_GEN_LRCLK|Equal0~3_combout $end
$var wire 1 ;! inst1|u_GEN_LRCLK|Equal0~4_combout $end
$var wire 1 <! inst1|u_GEN_LRCLK|count[8]~17 $end
$var wire 1 =! inst1|u_GEN_LRCLK|count[9]~18_combout $end
$var wire 1 >! inst1|u_GEN_LRCLK|count_value[9]~0_combout $end
$var wire 1 ?! inst1|u_GEN_LRCLK|count[9]~19 $end
$var wire 1 @! inst1|u_GEN_LRCLK|count[10]~20_combout $end
$var wire 1 A! inst1|u_GEN_LRCLK|count[10]~21 $end
$var wire 1 B! inst1|u_GEN_LRCLK|count[11]~22_combout $end
$var wire 1 C! inst1|u_GEN_LRCLK|count[11]~23 $end
$var wire 1 D! inst1|u_GEN_LRCLK|count[12]~24_combout $end
$var wire 1 E! inst1|u_GEN_LRCLK|count[12]~25 $end
$var wire 1 F! inst1|u_GEN_LRCLK|count[13]~26_combout $end
$var wire 1 G! inst1|u_GEN_LRCLK|count[13]~27 $end
$var wire 1 H! inst1|u_GEN_LRCLK|count[14]~28_combout $end
$var wire 1 I! inst1|u_GEN_LRCLK|count[14]~29 $end
$var wire 1 J! inst1|u_GEN_LRCLK|count[15]~30_combout $end
$var wire 1 K! inst1|u_GEN_LRCLK|Equal0~0_combout $end
$var wire 1 L! inst1|u_GEN_LRCLK|Equal0~1_combout $end
$var wire 1 M! inst1|u_GEN_LRCLK|LessThan0~0_combout $end
$var wire 1 N! inst6|altpll_component|auto_generated|wire_pll1_clk [4] $end
$var wire 1 O! inst6|altpll_component|auto_generated|wire_pll1_clk [3] $end
$var wire 1 P! inst6|altpll_component|auto_generated|wire_pll1_clk [2] $end
$var wire 1 Q! inst6|altpll_component|auto_generated|wire_pll1_clk [1] $end
$var wire 1 R! inst6|altpll_component|auto_generated|wire_pll1_clk [0] $end
$var wire 1 S! inst9|CNTVAL [31] $end
$var wire 1 T! inst9|CNTVAL [30] $end
$var wire 1 U! inst9|CNTVAL [29] $end
$var wire 1 V! inst9|CNTVAL [28] $end
$var wire 1 W! inst9|CNTVAL [27] $end
$var wire 1 X! inst9|CNTVAL [26] $end
$var wire 1 Y! inst9|CNTVAL [25] $end
$var wire 1 Z! inst9|CNTVAL [24] $end
$var wire 1 [! inst9|CNTVAL [23] $end
$var wire 1 \! inst9|CNTVAL [22] $end
$var wire 1 ]! inst9|CNTVAL [21] $end
$var wire 1 ^! inst9|CNTVAL [20] $end
$var wire 1 _! inst9|CNTVAL [19] $end
$var wire 1 `! inst9|CNTVAL [18] $end
$var wire 1 a! inst9|CNTVAL [17] $end
$var wire 1 b! inst9|CNTVAL [16] $end
$var wire 1 c! inst9|CNTVAL [15] $end
$var wire 1 d! inst9|CNTVAL [14] $end
$var wire 1 e! inst9|CNTVAL [13] $end
$var wire 1 f! inst9|CNTVAL [12] $end
$var wire 1 g! inst9|CNTVAL [11] $end
$var wire 1 h! inst9|CNTVAL [10] $end
$var wire 1 i! inst9|CNTVAL [9] $end
$var wire 1 j! inst9|CNTVAL [8] $end
$var wire 1 k! inst9|CNTVAL [7] $end
$var wire 1 l! inst9|CNTVAL [6] $end
$var wire 1 m! inst9|CNTVAL [5] $end
$var wire 1 n! inst9|CNTVAL [4] $end
$var wire 1 o! inst9|CNTVAL [3] $end
$var wire 1 p! inst9|CNTVAL [2] $end
$var wire 1 q! inst9|CNTVAL [1] $end
$var wire 1 r! inst9|CNTVAL [0] $end
$var wire 1 s! inst1|u_GEN_LRCLK|HDL_Counter_out1 [15] $end
$var wire 1 t! inst1|u_GEN_LRCLK|HDL_Counter_out1 [14] $end
$var wire 1 u! inst1|u_GEN_LRCLK|HDL_Counter_out1 [13] $end
$var wire 1 v! inst1|u_GEN_LRCLK|HDL_Counter_out1 [12] $end
$var wire 1 w! inst1|u_GEN_LRCLK|HDL_Counter_out1 [11] $end
$var wire 1 x! inst1|u_GEN_LRCLK|HDL_Counter_out1 [10] $end
$var wire 1 y! inst1|u_GEN_LRCLK|HDL_Counter_out1 [9] $end
$var wire 1 z! inst1|u_GEN_LRCLK|HDL_Counter_out1 [8] $end
$var wire 1 {! inst1|u_GEN_LRCLK|HDL_Counter_out1 [7] $end
$var wire 1 |! inst1|u_GEN_LRCLK|HDL_Counter_out1 [6] $end
$var wire 1 }! inst1|u_GEN_LRCLK|HDL_Counter_out1 [5] $end
$var wire 1 ~! inst1|u_GEN_LRCLK|HDL_Counter_out1 [4] $end
$var wire 1 !" inst1|u_GEN_LRCLK|HDL_Counter_out1 [3] $end
$var wire 1 "" inst1|u_GEN_LRCLK|HDL_Counter_out1 [2] $end
$var wire 1 #" inst1|u_GEN_LRCLK|HDL_Counter_out1 [1] $end
$var wire 1 $" inst1|u_GEN_LRCLK|HDL_Counter_out1 [0] $end
$var wire 1 %" inst6|altpll_component|auto_generated|pll1_CLK_bus [4] $end
$var wire 1 &" inst6|altpll_component|auto_generated|pll1_CLK_bus [3] $end
$var wire 1 '" inst6|altpll_component|auto_generated|pll1_CLK_bus [2] $end
$var wire 1 (" inst6|altpll_component|auto_generated|pll1_CLK_bus [1] $end
$var wire 1 )" inst6|altpll_component|auto_generated|pll1_CLK_bus [0] $end
$upscope $end
$upscope $end
$enddefinitions $end
#0
$dumpvars
bx !
0"
bx #
1%
1$
0&
x'
0(
0)
0*
0+
x,
0-
1.
x/
10
11
12
x3
x4
x5
x6
07
x8
x9
1:
0;
0<
0=
1>
0?
0@
0A
1B
0C
0D
0E
1F
0G
0H
0I
1J
0K
0L
0M
1N
0O
1P
1Q
0R
0S
1T
0U
0V
0W
1X
0Y
0Z
0[
1\
0]
0^
0_
1`
0a
0b
0c
1d
0e
0f
0g
1h
0i
0j
0k
1l
0m
0n
0o
1p
0q
0r
0s
1t
0u
0v
0w
1x
0y
1z
1{
1|
0}
0~
1!!
1"!
1#!
1$!
1%!
0&!
0'!
1(!
0)!
0*!
1+!
0,!
0-!
0.!
1/!
00!
01!
02!
13!
04!
05!
06!
17!
08!
09!
0:!
0;!
0<!
0=!
0>!
1?!
0@!
0A!
0B!
1C!
0D!
0E!
0F!
1G!
0H!
0I!
0J!
1K!
1L!
0M!
xR!
xQ!
xP!
xO!
xN!
0r!
0q!
0p!
0o!
0n!
0m!
0l!
0k!
0j!
0i!
0h!
0g!
0f!
0e!
0d!
0c!
0b!
0a!
0`!
0_!
0^!
0]!
0\!
0[!
0Z!
0Y!
0X!
0W!
0V!
0U!
0T!
0S!
0$"
0#"
0""
0!"
0~!
0}!
0|!
0{!
0z!
0y!
0x!
0w!
0v!
0u!
0t!
0s!
x)"
x("
x'"
x&"
x%"
$end
#782
18
#10000
1"
0,
17
1'!
#20000
0"
1,
07
0'!
#30000
1"
0,
17
1'!
#40000
0"
1,
07
0'!
#50000
1"
0,
17
1'!
#60000
0"
1,
07
0'!
#70000
1"
0,
17
1'!
#80000
0"
1,
07
0'!
#90000
1"
0,
17
1'!
#90782
08
#100000
0"
1,
07
0'!
#110000
1"
0,
17
1'!
#120000
0"
1,
07
0'!
#130000
1"
0,
17
1'!
#140000
0"
1,
07
0'!
#150000
1"
0,
17
1'!
#160000
0"
1,
07
0'!
#170000
1"
0,
17
1'!
#180000
0"
1,
07
0'!
#180783
18
#190000
1"
0,
17
1'!
#200000
0"
1,
07
0'!
#210000
1"
0,
17
1'!
#220000
0"
1,
07
0'!
#230000
1"
0,
17
1'!
#240000
0"
1,
07
0'!
#250000
1"
0,
17
1'!
#260000
0"
1,
07
0'!
#270000
1"
0,
17
1'!
#270783
08
#280000
0"
1,
07
0'!
#290000
1"
0,
17
1'!
#300000
0"
1,
07
0'!
#310000
1"
0,
17
1'!
#320000
0"
1,
07
0'!
#330000
1"
0,
17
1'!
#340000
0"
1,
07
0'!
#350000
1"
0,
17
1'!
#360000
0"
1,
07
0'!
#360783
18
#370000
1"
0,
17
1'!
#380000
0"
1,
07
0'!
#390000
1"
0,
17
1'!
#400000
0"
1,
07
0'!
#410000
1"
0,
17
1'!
#420000
0"
1,
07
0'!
#430000
1"
0,
17
1'!
#440000
0"
1,
07
0'!
#450000
1"
0,
17
1'!
#450783
08
#460000
0"
1,
07
0'!
#470000
1"
0,
17
1'!
#480000
0"
1,
07
0'!
#490000
1"
0,
17
1'!
#500000
0"
1,
07
0'!
#510000
1"
0,
17
1'!
#520000
0"
1,
07
0'!
#530000
1"
0,
17
1'!
#540000
0"
1,
07
0'!
#540783
18
#550000
1"
0,
17
1'!
#560000
0"
1,
07
0'!
#570000
1"
0,
17
1'!
#580000
0"
1,
07
0'!
#590000
1"
0,
17
1'!
#600000
0"
1,
07
0'!
#610000
1"
0,
17
1'!
#620000
0"
1,
07
0'!
#630000
1"
0,
17
1'!
#635391
08
#640000
0"
1,
07
0'!
#650000
1"
0,
17
1'!
#660000
0"
1,
07
0'!
#670000
1"
0,
17
1'!
#680000
0"
1,
07
0'!
#690000
1"
0,
17
1'!
#700000
0"
1,
07
0'!
#710000
1"
0,
17
1'!
#720000
0"
1,
07
0'!
#730000
1"
0,
17
1'!
18
0%"
0&"
0'"
0("
0)"
0R!
0Q!
0P!
0O!
0N!
09
0'
#740000
0"
1,
07
0'!
#742521
1)"
1R!
19
1'
1r!
1<
0:
1=
#750000
1"
0,
17
1'!
1$"
1)!
0(!
1*!
#760000
0"
1,
07
0'!
#762869
0)"
0R!
09
0'
#770000
1"
0,
17
1'!
#780000
0"
1,
07
0'!
#783217
1)"
1R!
19
1'
1q!
0r!
0>
0=
0<
1:
1?
1>
1=
0?
#790000
1"
0,
17
1'!
1#"
0$"
0+!
0*!
0)!
1(!
1,!
1+!
1*!
0,!
#800000
0"
1,
07
0'!
#803565
0)"
0R!
09
0'
#810000
1"
0,
17
1'!
#820000
0"
1,
07
0'!
08
#823913
1)"
1R!
19
1'
1r!
1<
0:
0>
0=
1?
#830000
1"
0,
17
1'!
1$"
1)!
0(!
0+!
0*!
1,!
#840000
0"
1,
07
0'!
#844260
0)"
0R!
09
0'
#850000
1"
0,
17
1'!
#860000
0"
1,
07
0'!
#864608
1)"
1R!
19
1'
1p!
0q!
0r!
1@
0?
1>
1=
0<
1:
1A
0@
1?
0=
0A
#870000
1"
0,
17
1'!
1""
0#"
0$"
1-!
0,!
1+!
1*!
0)!
1(!
1.!
0-!
1,!
0*!
0.!
#880000
0"
1,
07
0'!
#884956
0)"
0R!
09
0'
#890000
1"
0,
17
1'!
#900000
0"
1,
07
0'!
#905304
1)"
1R!
19
1'
1r!
1<
0:
1=
#910000
1"
0,
17
1'!
1$"
1)!
0(!
1*!
18
#920000
0"
1,
07
0'!
#925652
0)"
0R!
09
0'
#930000
1"
0,
17
1'!
#940000
0"
1,
07
0'!
#946000
1)"
1R!
19
1'
1q!
0r!
0>
0=
0<
1:
1@
0?
1>
1=
1A
0@
1?
0A
#950000
1"
0,
17
1'!
1#"
0$"
0+!
0*!
0)!
1(!
1-!
0,!
1+!
1*!
1.!
0-!
1,!
0.!
#960000
0"
1,
07
0'!
#966347
0)"
0R!
09
0'
#970000
1"
0,
17
1'!
#980000
0"
1,
07
0'!
#986695
1)"
1R!
19
1'
1r!
1&!
1;
1<
0:
1*
1)
0>
0=
1@
0?
1A
#990000
1"
0,
17
1'!
1$"
1)!
0(!
0+!
0*!
1-!
0,!
1.!
#1000000
0"
1,
07
0'!
08
#1007043
0)"
0R!
09
0'
#1010000
1"
0,
17
1'!
#1020000
0"
1,
07
0'!
#1027391
1)"
1R!
19
1'
0p!
0q!
0r!
0&!
0@
1?
0;
1>
1=
0<
1:
0*
0)
0A
0?
0=
#1030000
1"
0,
17
1'!
1!"
0""
0#"
0$"
0/!
0.!
0-!
1,!
1+!
1*!
0)!
1(!
10!
1/!
1.!
0,!
0*!
00!
#1040000
0"
1,
07
0'!
#1047739
0)"
0R!
09
0'
#1050000
1"
0,
17
1'!
#1060000
0"
1,
07
0'!
#1068086
1)"
1R!
19
1'
1r!
1<
0:
1=
#1070000
1"
0,
17
1'!
1$"
1)!
0(!
1*!
#1080000
0"
1,
07
0'!
#1088434
0)"
0R!
09
0'
#1090000
1"
0,
17
1'!
18
#1100000
0"
1,
07
0'!
#1108782
1)"
1R!
19
1'
1q!
0r!
0>
0=
0<
1:
1?
1>
1=
0?
#1110000
1"
0,
17
1'!
1#"
0$"
0+!
0*!
0)!
1(!
1,!
1+!
1*!
0,!
#1120000
0"
1,
07
0'!
#1129130
0)"
0R!
09
0'
#1130000
1"
0,
17
1'!
#1140000
0"
1,
07
0'!
#1149478
1)"
1R!
19
1'
1r!
1<
0:
0>
0=
1?
#1150000
1"
0,
17
1'!
1$"
1)!
0(!
0+!
0*!
1,!
#1160000
0"
1,
07
0'!
#1169826
0)"
0R!
09
0'
#1170000
1"
0,
17
1'!
#1180000
0"
1,
07
0'!
08
#1190000
1"
0,
17
1'!
#1190173
1)"
1R!
19
1'
1p!
0q!
0r!
1@
0?
1>
1=
0<
1:
1A
0@
1?
0=
0A
#1200000
0"
1,
07
0'!
#1210000
1"
0,
17
1'!
1""
0#"
0$"
1-!
0,!
1+!
1*!
0)!
1(!
0/!
0.!
0-!
1,!
0*!
10!
1/!
1.!
00!
#1210521
0)"
0R!
09
0'
#1220000
0"
1,
07
0'!
#1230000
1"
0,
17
1'!
#1230869
1)"
1R!
19
1'
1r!
1<
0:
1=
#1240000
0"
1,
07
0'!
#1250000
1"
0,
17
1'!
1$"
1)!
0(!
1*!
#1251217
0)"
0R!
09
0'
#1260000
0"
1,
07
0'!
#1270000
1"
0,
17
1'!
18
#1271565
1)"
1R!
19
1'
1q!
0r!
0>
0=
0<
1:
1@
0?
1>
1=
1A
0@
1?
0A
#1280000
0"
1,
07
0'!
#1290000
1"
0,
17
1'!
1#"
0$"
0+!
0*!
0)!
1(!
1-!
0,!
1+!
1*!
0/!
0.!
0-!
1,!
10!
1/!
1.!
00!
#1291913
0)"
0R!
09
0'
#1300000
0"
1,
07
0'!
#1310000
1"
0,
17
1'!
#1312260
1)"
1R!
19
1'
1r!
1&!
1;
1<
0:
1*
1)
0>
0=
1@
0?
1A
#1320000
0"
1,
07
0'!
#1330000
1"
0,
17
1'!
1$"
1)!
0(!
0+!
0*!
1-!
0,!
0/!
0.!
10!
#1332608
0)"
0R!
09
0'
#1340000
0"
1,
07
0'!
#1350000
1"
0,
17
1'!
#1352956
1)"
1R!
19
1'
0p!
0q!
0r!
0&!
0@
1?
0;
1>
1=
0<
1:
0*
0)
0A
0?
0=
#1360000
0"
1,
07
0'!
08
#1370000
1"
0,
17
1'!
1~!
0!"
0""
0#"
0$"
11!
00!
1/!
1.!
0-!
1,!
1+!
1*!
0)!
1(!
12!
01!
10!
0.!
0,!
0*!
02!
#1373304
0)"
0R!
09
0'
#1380000
0"
1,
07
0'!
#1390000
1"
0,
17
1'!
#1393652
1)"
1R!
19
1'
1r!
1<
0:
1=
#1400000
0"
1,
07
0'!
#1410000
1"
0,
17
1'!
1$"
1)!
0(!
1*!
#1414000
0)"
0R!
09
0'
#1420000
0"
1,
07
0'!
#1430000
1"
0,
17
1'!
#1434347
1)"
1R!
19
1'
1q!
0r!
0>
0=
0<
1:
1?
1>
1=
0?
#1440000
0"
1,
07
0'!
#1450000
1"
0,
17
1'!
1#"
0$"
0+!
0*!
0)!
1(!
1,!
1+!
1*!
0,!
18
#1454695
0)"
0R!
09
0'
#1460000
0"
1,
07
0'!
#1470000
1"
0,
17
1'!
#1475043
1)"
1R!
19
1'
1r!
1<
0:
0>
0=
1?
#1480000
0"
1,
07
0'!
#1490000
1"
0,
17
1'!
1$"
1)!
0(!
0+!
0*!
1,!
#1495391
0)"
0R!
09
0'
#1500000
0"
1,
07
0'!
#1510000
1"
0,
17
1'!
#1515739
1)"
1R!
19
1'
1p!
0q!
0r!
1@
0?
1>
1=
0<
1:
1A
0@
1?
0=
0A
#1520000
0"
1,
07
0'!
#1530000
1"
0,
17
1'!
1""
0#"
0$"
1-!
0,!
1+!
1*!
0)!
1(!
1.!
0-!
1,!
0*!
0.!
#1536086
0)"
0R!
09
0'
#1540000
0"
1,
07
0'!
08
#1550000
1"
0,
17
1'!
#1556434
1)"
1R!
19
1'
1r!
1<
0:
1=
#1560000
0"
1,
07
0'!
#1570000
1"
0,
17
1'!
1$"
1)!
0(!
1*!
#1576782
0)"
0R!
09
0'
#1580000
0"
1,
07
0'!
#1590000
1"
0,
17
1'!
#1597130
1)"
1R!
19
1'
1q!
0r!
0>
0=
0<
1:
1@
0?
1>
1=
1A
0@
1?
0A
#1600000
0"
1,
07
0'!
#1610000
1"
0,
17
1'!
1#"
0$"
0+!
0*!
0)!
1(!
1-!
0,!
1+!
1*!
1.!
0-!
1,!
0.!
#1617478
0)"
0R!
09
0'
#1620000
0"
1,
07
0'!
#1630000
1"
0,
17
1'!
18
#1637826
1)"
1R!
19
1'
1r!
1&!
1;
1<
0:
1*
1)
0>
0=
1@
0?
1A
#1640000
0"
1,
07
0'!
#1650000
1"
0,
17
1'!
1$"
1)!
0(!
0+!
0*!
1-!
0,!
1.!
#1658173
0)"
0R!
09
0'
#1660000
0"
1,
07
0'!
#1670000
1"
0,
17
1'!
#1678521
1)"
1R!
19
1'
0p!
0q!
0r!
0&!
0@
1?
0;
1>
1=
0<
1:
0*
0)
0A
0?
0=
#1680000
0"
1,
07
0'!
#1690000
1"
0,
17
1'!
1!"
0""
0#"
0$"
0/!
0.!
0-!
1,!
1+!
1*!
0)!
1(!
11!
00!
1/!
1.!
0,!
0*!
12!
01!
10!
02!
#1698869
0)"
0R!
09
0'
#1700000
0"
1,
07
0'!
#1710000
1"
0,
17
1'!
#1719217
1)"
1R!
19
1'
1r!
1<
0:
1=
#1720000
0"
1,
07
0'!
08
#1730000
1"
0,
17
1'!
1$"
1)!
0(!
1*!
#1739565
0)"
0R!
09
0'
#1740000
0"
1,
07
0'!
#1750000
1"
0,
17
1'!
#1759913
1)"
1R!
19
1'
1q!
0r!
0>
0=
0<
1:
1?
1>
1=
0?
#1760000
0"
1,
07
0'!
#1770000
1"
0,
17
1'!
1#"
0$"
0+!
0*!
0)!
1(!
1,!
1+!
1*!
0,!
#1780000
0"
1,
07
0'!
#1780260
0)"
0R!
09
0'
#1790000
1"
0,
17
1'!
#1800000
0"
1,
07
0'!
#1800608
1)"
1R!
19
1'
1r!
1<
0:
0>
0=
1?
#1810000
1"
0,
17
1'!
1$"
1)!
0(!
0+!
0*!
1,!
18
#1820000
0"
1,
07
0'!
#1820956
0)"
0R!
09
0'
#1830000
1"
0,
17
1'!
#1840000
0"
1,
07
0'!
#1841304
1)"
1R!
19
1'
1p!
0q!
0r!
1@
0?
1>
1=
0<
1:
1A
0@
1?
0=
0A
#1850000
1"
0,
17
1'!
1""
0#"
0$"
1-!
0,!
1+!
1*!
0)!
1(!
0/!
0.!
0-!
1,!
0*!
11!
00!
1/!
1.!
12!
01!
10!
02!
#1860000
0"
1,
07
0'!
#1861652
0)"
0R!
09
0'
#1870000
1"
0,
17
1'!
#1880000
0"
1,
07
0'!
#1882000
1)"
1R!
19
1'
1r!
1<
0:
1=
#1890000
1"
0,
17
1'!
1$"
1)!
0(!
1*!
#1900000
0"
1,
07
0'!
08
#1902347
0)"
0R!
09
0'
#1910000
1"
0,
17
1'!
#1920000
0"
1,
07
0'!
#1922695
1)"
1R!
19
1'
1q!
0r!
0>
0=
0<
1:
1@
0?
1>
1=
1A
0@
1?
0A
#1930000
1"
0,
17
1'!
1#"
0$"
0+!
0*!
0)!
1(!
1-!
0,!
1+!
1*!
0/!
0.!
0-!
1,!
11!
00!
1/!
1.!
12!
01!
10!
02!
#1940000
0"
1,
07
0'!
#1943043
0)"
0R!
09
0'
#1950000
1"
0,
17
1'!
#1960000
0"
1,
07
0'!
#1963391
1)"
1R!
19
1'
1r!
1&!
1;
1<
0:
1*
1)
0>
0=
1@
0?
1A
#1970000
1"
0,
17
1'!
1$"
1)!
0(!
0+!
0*!
1-!
0,!
0/!
0.!
11!
00!
12!
#1980000
0"
1,
07
0'!
#1983739
0)"
0R!
09
0'
#1990000
1"
0,
17
1'!
18
#2000000
0"
1,
07
0'!
#2004086
1)"
1R!
19
1'
0p!
0q!
0r!
0&!
0@
1?
0;
1>
1=
0<
1:
0*
0)
0A
0?
0=
#2010000
1"
0,
17
1'!
1}!
0~!
0!"
0""
0#"
0$"
03!
02!
01!
10!
1/!
1.!
0-!
1,!
1+!
1*!
0)!
1(!
14!
13!
12!
00!
0.!
0,!
0*!
04!
#2020000
0"
1,
07
0'!
#2024434
0)"
0R!
09
0'
#2030000
1"
0,
17
1'!
#2040000
0"
1,
07
0'!
#2044782
1)"
1R!
19
1'
1r!
1<
0:
1=
#2050000
1"
0,
17
1'!
1$"
1)!
0(!
1*!
#2060000
0"
1,
07
0'!
#2065130
0)"
0R!
09
0'
#2070000
1"
0,
17
1'!
#2080000
0"
1,
07
0'!
08
#2085478
1)"
1R!
19
1'
1q!
0r!
0>
0=
0<
1:
1?
1>
1=
0?
#2090000
1"
0,
17
1'!
1#"
0$"
0+!
0*!
0)!
1(!
1,!
1+!
1*!
0,!
#2100000
0"
1,
07
0'!
#2105826
0)"
0R!
09
0'
#2110000
1"
0,
17
1'!
#2120000
0"
1,
07
0'!
#2126173
1)"
1R!
19
1'
1r!
1<
0:
0>
0=
1?
#2130000
1"
0,
17
1'!
1$"
1)!
0(!
0+!
0*!
1,!
#2140000
0"
1,
07
0'!
#2146521
0)"
0R!
09
0'
#2150000
1"
0,
17
1'!
#2160000
0"
1,
07
0'!
#2166869
1)"
1R!
19
1'
1p!
0q!
0r!
1@
0?
1>
1=
0<
1:
1A
0@
1?
0=
0A
#2170000
1"
0,
17
1'!
1""
0#"
0$"
1-!
0,!
1+!
1*!
0)!
1(!
1.!
0-!
1,!
0*!
0.!
18
#2180000
0"
1,
07
0'!
#2187217
0)"
0R!
09
0'
#2190000
1"
0,
17
1'!
#2200000
0"
1,
07
0'!
#2207565
1)"
1R!
19
1'
1r!
1<
0:
1=
#2210000
1"
0,
17
1'!
1$"
1)!
0(!
1*!
#2220000
0"
1,
07
0'!
#2227913
0)"
0R!
09
0'
#2230000
1"
0,
17
1'!
#2240000
0"
1,
07
0'!
#2248260
1)"
1R!
19
1'
1q!
0r!
0>
0=
0<
1:
1@
0?
1>
1=
1A
0@
1?
0A
#2250000
1"
0,
17
1'!
1#"
0$"
0+!
0*!
0)!
1(!
1-!
0,!
1+!
1*!
1.!
0-!
1,!
0.!
#2260000
0"
1,
07
0'!
08
#2268608
0)"
0R!
09
0'
#2270000
1"
0,
17
1'!
#2280000
0"
1,
07
0'!
#2288956
1)"
1R!
19
1'
1r!
1&!
1;
1<
0:
1*
1)
0>
0=
1@
0?
1A
#2290000
1"
0,
17
1'!
1$"
1)!
0(!
0+!
0*!
1-!
0,!
1.!
#2300000
0"
1,
07
0'!
#2309304
0)"
0R!
09
0'
#2310000
1"
0,
17
1'!
#2320000
0"
1,
07
0'!
