FPGA_circuit_logic/counter20/simulation/qsim/counter20.msim.vcd
$comment
	File created using the following command:
		vcd file counter20.msim.vcd -direction
$end
$date
	Mon Aug 21 18:22:23 2023
$end
$version
	ModelSim Version 10.4
$end
$timescale
	1ps
$end

$scope module counter20_vlg_vec_tst $end
$var reg 1 ! CLK $end
$var wire 1 " D0 $end
$var wire 1 # D1 $end
$var wire 1 $ D2 $end
$var wire 1 % D3 $end
$var wire 1 & D4 $end
$var wire 1 ' OV $end
$var wire 1 ( sampler $end

$scope module i1 $end
$var wire 1 ) gnd $end
$var wire 1 * vcc $end
$var wire 1 + unknown $end
$var tri1 1 , devclrn $end
$var tri1 1 - devpor $end
$var tri1 1 . devoe $end
$var wire 1 / D0~output_o $end
$var wire 1 0 D1~output_o $end
$var wire 1 1 D2~output_o $end
$var wire 1 2 D3~output_o $end
$var wire 1 3 D4~output_o $end
$var wire 1 4 OV~output_o $end
$var wire 1 5 CLK~input_o $end
$var wire 1 6 CLK~inputclkctrl_outclk $end
$var wire 1 7 inst0|sub|9~0_combout $end
$var wire 1 8 inst0|sub|9~q $end
$var wire 1 9 inst0|sub|87~0_combout $end
$var wire 1 : inst0|sub|87~q $end
$var wire 1 ; inst0|sub|84~0_combout $end
$var wire 1 < inst0|sub|108~combout $end
$var wire 1 = inst0|sub|110~q $end
$var wire 1 > inst1|sub|77~combout $end
$var wire 1 ? inst1|sub|9~q $end
$var wire 1 @ inst0|sub|98~combout $end
$var wire 1 A inst0|sub|99~q $end
$var wire 1 B inst2~combout $end
$upscope $end
$upscope $end
$enddefinitions $end
#0
$dumpvars
0!
0"
0#
0$
0%
0&
0'
x(
0)
1*
x+
1,
1-
1.
0/
00
01
02
03
04
05
06
17
08
09
0:
0;
0<
0=
0>
0?
0@
0A
0B
$end
#5000
1!
0(
15
16
18
1/
19
07
1"
#10000
0!
1(
05
06
#15000
1!
0(
15
16
1:
08
0/
10
17
0"
1#
#20000
0!
1(
05
06
#25000
1!
0(
15
16
18
1/
1@
1;
09
07
1"
#30000
0!
1(
05
06
#35000
1!
0(
15
16
1A
0:
08
0/
00
11
1<
0;
17
0"
0#
1$
0<
#40000
0!
1(
05
06
#45000
1!
0(
15
16
18
1/
19
07
1"
#50000
0!
1(
05
06
#55000
1!
0(
15
16
1:
08
0/
10
17
0"
1#
#60000
0!
1(
05
06
#65000
1!
0(
15
16
18
1/
0@
1;
09
07
1"
1<
#70000
0!
1(
05
06
#75000
1!
0(
15
16
0A
1=
0:
08
0/
00
12
01
0;
17
0"
0#
1%
0$
#80000
0!
1(
05
06
#85000
1!
0(
15
16
18
1/
19
07
1"
#90000
0!
1(
05
06
#95000
1!
0(
15
16
1:
08
0/
10
17
0"
1#
#100000
0!
1(
05
06
#105000
1!
0(
15
16
18
1/
1@
1;
09
07
1"
#110000
0!
1(
05
06
#115000
1!
0(
15
16
1A
0:
08
0/
00
11
1>
0<
0;
17
0"
0#
1$
0>
1<
#120000
0!
1(
05
06
#125000
1!
0(
15
16
18
1/
19
07
1"
#130000
0!
1(
05
06
#135000
1!
0(
15
16
1:
08
0/
10
17
0"
1#
#140000
0!
1(
05
06
#145000
1!
0(
15
16
18
1/
0@
1;
09
07
1"
1>
0<
#150000
0!
1(
05
06
#155000
1!
0(
15
16
0A
1?
0=
0:
08
0/
00
02
13
01
0>
0;
17
0"
0#
0%
1&
0$
1>
#160000
0!
1(
05
06
#165000
1!
0(
15
16
18
1/
19
07
1"
#170000
0!
1(
05
06
#175000
1!
0(
15
16
1:
08
0/
10
17
0"
1#
#180000
0!
1(
05
06
#185000
1!
0(
15
16
18
1/
1B
1;
09
07
1"
14
0>
1'
#190000
0!
1(
05
06
#195000
1!
0(
15
16
0?
0:
08
0/
00
03
0B
0;
17
0"
0#
0&
04
0'
#200000
0!
1(
05
06
#205000
1!
0(
15
16
18
1/
19
07
1"
#210000
0!
1(
05
06
#215000
1!
0(
15
16
1:
08
0/
10
17
0"
1#
#220000
0!
1(
05
06
#225000
1!
0(
15
16
18
1/
1@
1;
09
07
1"
#230000
0!
1(
05
06
#235000
1!
0(
15
16
1A
0:
08
0/
00
11
1<
0;
17
0"
0#
1$
0<
#240000
0!
1(
05
06
#245000
1!
0(
15
16
18
1/
19
07
1"
#250000
0!
1(
05
06
#255000
1!
0(
15
16
1:
08
0/
10
17
0"
1#
#260000
0!
1(
05
06
#265000
1!
0(
15
16
18
1/
0@
1;
09
07
1"
1<
#270000
0!
1(
05
06
#275000
1!
0(
15
16
0A
1=
0:
08
0/
00
12
01
0;
17
0"
0#
1%
0$
#280000
0!
1(
05
06
#285000
1!
0(
15
16
18
1/
19
07
1"
#290000
0!
1(
05
06
#295000
1!
0(
15
16
1:
08
0/
10
17
0"
1#
#300000
0!
1(
05
06
#305000
1!
0(
15
16
18
1/
1@
1;
09
07
1"
#310000
0!
1(
05
06
#315000
1!
0(
15
16
1A
0:
08
0/
00
11
1>
0<
0;
17
0"
0#
1$
0>
1<
#320000
0!
1(
05
06
#325000
1!
0(
15
16
18
1/
19
07
1"
#330000
0!
1(
05
06
#335000
1!
0(
15
16
1:
08
0/
10
17
0"
1#
#340000
0!
1(
05
06
#345000
1!
0(
15
16
18
1/
0@
1;
09
07
1"
1>
0<
#350000
0!
1(
05
06
#355000
1!
0(
15
16
0A
1?
0=
0:
08
0/
00
02
13
01
0>
0;
17
0"
0#
0%
1&
0$
1>
#360000
0!
1(
05
06
#365000
1!
0(
15
16
18
1/
19
07
1"
#370000
0!
1(
05
06
#375000
1!
0(
15
16
1:
08
0/
10
17
0"
1#
#380000
0!
1(
05
06
#385000
1!
0(
15
16
18
1/
1B
1;
09
07
1"
14
0>
1'
#390000
0!
1(
05
06
#395000
1!
0(
15
16
0?
0:
08
0/
00
03
0B
0;
17
0"
0#
0&
04
0'
#400000
0!
1(
05
06
#405000
1!
0(
15
16
18
1/
19
07
1"
#410000
0!
1(
05
06
#415000
1!
0(
15
16
1:
08
0/
10
17
0"
1#
#420000
0!
1(
05
06
#425000
1!
0(
15
16
18
1/
1@
1;
09
07
1"
#430000
0!
1(
05
06
#435000
1!
0(
15
16
1A
0:
08
0/
00
11
1<
0;
17
0"
0#
1$
0<
#440000
0!
1(
05
06
#445000
1!
0(
15
16
18
1/
19
07
1"
#450000
0!
1(
05
06
#455000
1!
0(
15
16
1:
08
0/
10
17
0"
1#
#460000
0!
1(
05
06
#465000
1!
0(
15
16
18
1/
0@
1;
09
07
1"
1<
#470000
0!
1(
05
06
#475000
1!
0(
15
16
0A
1=
0:
08
0/
00
12
01
0;
17
0"
0#
1%
0$
#480000
0!
1(
05
06
#485000
1!
0(
15
16
18
1/
19
07
1"
#490000
0!
1(
05
06
#495000
1!
0(
15
16
1:
08
0/
10
17
0"
1#
#500000
0!
1(
05
06
#505000
1!
0(
15
16
18
1/
1@
1;
09
07
1"
#510000
0!
1(
05
06
#515000
1!
0(
15
16
1A
0:
08
0/
00
11
1>
0<
0;
17
0"
0#
1$
0>
1<
#520000
0!
1(
05
06
#525000
1!
0(
15
16
18
1/
19
07
1"
#530000
0!
1(
05
06
#535000
1!
0(
15
16
1:
08
0/
10
17
0"
1#
#540000
0!
1(
05
06
#545000
1!
0(
15
16
18
1/
0@
1;
09
07
1"
1>
0<
#550000
0!
1(
05
06
#555000
1!
0(
15
16
0A
1?
0=
0:
08
0/
00
02
13
01
0>
0;
17
0"
0#
0%
1&
0$
1>
#560000
0!
1(
05
06
#565000
1!
0(
15
16
18
1/
19
07
1"
#570000
0!
1(
05
06
#575000
1!
0(
15
16
1:
08
0/
10
17
0"
1#
#580000
0!
1(
05
06
#585000
1!
0(
15
16
18
1/
1B
1;
09
07
1"
14
0>
1'
#590000
0!
1(
05
06
#595000
1!
0(
15
16
0?
0:
08
0/
00
03
0B
0;
17
0"
0#
0&
04
0'
#600000
0!
1(
05
06
#605000
1!
0(
15
16
18
1/
19
07
1"
#610000
0!
1(
05
06
#615000
1!
0(
15
16
1:
08
0/
10
17
0"
1#
#620000
0!
1(
05
06
#625000
1!
0(
15
16
18
1/
1@
1;
09
07
1"
#630000
0!
1(
05
06
#635000
1!
0(
15
16
1A
0:
08
0/
00
11
1<
0;
17
0"
0#
1$
0<
#640000
0!
1(
05
06
#645000
1!
0(
15
16
18
1/
19
07
1"
#650000
0!
1(
05
06
#655000
1!
0(
15
16
1:
08
0/
10
17
0"
1#
#660000
0!
1(
05
06
#665000
1!
0(
15
16
18
1/
0@
1;
09
07
1"
1<
#670000
0!
1(
05
06
#675000
1!
0(
15
16
0A
1=
0:
08
0/
00
12
01
0;
17
0"
0#
1%
0$
#680000
0!
1(
05
06
#685000
1!
0(
15
16
18
1/
19
07
1"
#690000
0!
1(
05
06
#695000
1!
0(
15
16
1:
08
0/
10
17
0"
1#
#700000
0!
1(
05
06
#705000
1!
0(
15
16
18
1/
1@
1;
09
07
1"
#710000
0!
1(
05
06
#715000
1!
0(
15
16
1A
0:
08
0/
00
11
1>
0<
0;
17
0"
0#
1$
0>
1<
#720000
0!
1(
05
06
#725000
1!
0(
15
16
18
1/
19
07
1"
#730000
0!
1(
05
06
#735000
1!
0(
15
16
1:
08
0/
10
17
0"
1#
#740000
0!
1(
05
06
#745000
1!
0(
15
16
18
1/
0@
1;
09
07
1"
1>
0<
#750000
0!
1(
05
06
#755000
1!
0(
15
16
0A
1?
0=
0:
08
0/
00
02
13
01
0>
0;
17
0"
0#
0%
1&
0$
1>
#760000
0!
1(
05
06
#765000
1!
0(
15
16
18
1/
19
07
1"
#770000
0!
1(
05
06
#775000
1!
0(
15
16
1:
08
0/
10
17
0"
1#
#780000
0!
1(
05
06
#785000
1!
0(
15
16
18
1/
1B
1;
09
07
1"
14
0>
1'
#790000
0!
1(
05
06
#795000
1!
0(
15
16
0?
0:
08
0/
00
03
0B
0;
17
0"
0#
0&
04
0'
#800000
0!
1(
05
06
#805000
1!
0(
15
16
18
1/
19
07
1"
#810000
0!
1(
05
06
#815000
1!
0(
15
16
1:
08
0/
10
17
0"
1#
#820000
0!
1(
05
06
#825000
1!
0(
15
16
18
1/
1@
1;
09
07
1"
#830000
0!
1(
05
06
#835000
1!
0(
15
16
1A
0:
08
0/
00
11
1<
0;
17
0"
0#
1$
0<
#840000
0!
1(
05
06
#845000
1!
0(
15
16
18
1/
19
07
1"
#850000
0!
1(
05
06
#855000
1!
0(
15
16
1:
08
0/
10
17
0"
1#
#860000
0!
1(
05
06
#865000
1!
0(
15
16
18
1/
0@
1;
09
07
1"
1<
#870000
0!
1(
05
06
#875000
1!
0(
15
16
0A
1=
0:
08
0/
00
12
01
0;
17
0"
0#
1%
0$
#880000
0!
1(
05
06
#885000
1!
0(
15
16
18
1/
19
07
1"
#890000
0!
1(
05
06
#895000
1!
0(
15
16
1:
08
0/
10
17
0"
1#
#900000
0!
1(
05
06
#905000
1!
0(
15
16
18
1/
1@
1;
09
07
1"
#910000
0!
1(
05
06
#915000
1!
0(
15
16
1A
0:
08
0/
00
11
1>
0<
0;
17
0"
0#
1$
0>
1<
#920000
0!
1(
05
06
#925000
1!
0(
15
16
18
1/
19
07
1"
#930000
0!
1(
05
06
#935000
1!
0(
15
16
1:
08
0/
10
17
0"
1#
#940000
0!
1(
05
06
#945000
1!
0(
15
16
18
1/
0@
1;
09
07
1"
1>
0<
#950000
0!
1(
05
06
#955000
1!
0(
15
16
0A
1?
0=
0:
08
0/
00
02
13
01
0>
0;
17
0"
0#
0%
1&
0$
1>
#960000
0!
1(
05
06
#965000
1!
0(
15
16
18
1/
19
07
1"
#970000
0!
1(
05
06
#975000
1!
0(
15
16
1:
08
0/
10
17
0"
1#
#980000
0!
1(
05
06
#985000
1!
0(
15
16
18
1/
1B
1;
09
07
1"
14
0>
1'
#990000
0!
1(
05
06
#995000
1!
0(
15
16
0?
0:
08
0/
00
03
0B
0;
17
0"
0#
0&
04
0'
