RTL/Counter/simulation/qsim/cnt_1.msim.vcd
$comment
	File created using the following command:
		vcd file cnt_1.msim.vcd -direction
$end
$date
	Sat Aug 26 21:33:35 2023
$end
$version
	ModelSim Version 10.4
$end
$timescale
	1ps
$end

$scope module cnt_en_vlg_vec_tst $end
$var reg 1 ! CLK $end
$var reg 1 " CLR $end
$var reg 4 # DATA [3:0] $end
$var reg 1 $ EN $end
$var reg 1 % LOAD $end
$var reg 1 & RST $end
$var wire 1 ' CNTVAL [3] $end
$var wire 1 ( CNTVAL [2] $end
$var wire 1 ) CNTVAL [1] $end
$var wire 1 * CNTVAL [0] $end
$var wire 1 + OV $end
$var wire 1 , sampler $end

$scope module i1 $end
$var wire 1 - gnd $end
$var wire 1 . vcc $end
$var wire 1 / unknown $end
$var tri1 1 0 devclrn $end
$var tri1 1 1 devpor $end
$var tri1 1 2 devoe $end
$var wire 1 3 CNTVAL[0]~output_o $end
$var wire 1 4 CNTVAL[1]~output_o $end
$var wire 1 5 CNTVAL[2]~output_o $end
$var wire 1 6 CNTVAL[3]~output_o $end
$var wire 1 7 OV~output_o $end
$var wire 1 8 CLK~input_o $end
$var wire 1 9 CLK~inputclkctrl_outclk $end
$var wire 1 : CLR~input_o $end
$var wire 1 ; LOAD~input_o $end
$var wire 1 < DATA[3]~input_o $end
$var wire 1 = cnt_next[3]~8_combout $end
$var wire 1 > DATA[2]~input_o $end
$var wire 1 ? DATA[1]~input_o $end
$var wire 1 @ cnt_next[1]~4_combout $end
$var wire 1 A cnt_next[1]~5_combout $end
$var wire 1 B RST~input_o $end
$var wire 1 C RST~inputclkctrl_outclk $end
$var wire 1 D EN~input_o $end
$var wire 1 E CNTVAL[0]~1_combout $end
$var wire 1 F CNTVAL[1]~reg0_q $end
$var wire 1 G cnt_next[2]~10_combout $end
$var wire 1 H cnt_next[2]~6_combout $end
$var wire 1 I CNTVAL[2]~reg0_q $end
$var wire 1 J cnt_next[3]~7_combout $end
$var wire 1 K cnt_next[3]~9_combout $end
$var wire 1 L CNTVAL[3]~reg0_q $end
$var wire 1 M CNTVAL[0]~0_combout $end
$var wire 1 N DATA[0]~input_o $end
$var wire 1 O cnt_next[0]~2_combout $end
$var wire 1 P cnt_next[0]~3_combout $end
$var wire 1 Q CNTVAL[0]~reg0_q $end
$var wire 1 R Equal0~0_combout $end
$upscope $end
$upscope $end
$enddefinitions $end
#0
$dumpvars
0!
0"
b10 #
1$
0%
0&
0*
0)
0(
0'
0+
x,
0-
1.
x/
10
11
12
03
04
05
06
07
08
09
0:
0;
0<
1=
0>
1?
0@
0A
0B
0C
1D
1E
0F
0G
0H
0I
0J
0K
0L
0M
0N
1O
1P
0Q
0R
$end
#5000
1!
0,
18
19
1Q
13
0O
1@
1*
0P
1A
#10000
0!
1,
08
09
#15000
1!
0,
18
19
0Q
1F
14
03
1O
1)
0*
1P
#20000
0!
1,
08
09
#25000
1!
0,
18
19
1Q
13
0O
1G
0@
1*
0P
1H
0A
#30000
0!
1,
08
09
#35000
1!
0,
18
19
0Q
1I
0F
04
15
03
1O
0)
1(
0*
1P
#40000
0!
1,
08
09
#45000
1!
0,
18
19
1Q
13
0O
1@
1*
0P
1A
#50000
0!
1,
08
09
#55000
1!
0,
18
19
0Q
1F
14
03
1O
1)
0*
1P
#60000
0!
1,
08
09
#65000
1!
0,
18
19
1Q
13
0O
1J
0G
0@
1*
0P
1K
0H
0A
#70000
0!
1,
08
09
#75000
1!
0,
18
19
0Q
1L
0I
0F
04
05
16
03
1O
0)
0(
1'
0*
1P
#80000
0!
1,
08
09
#85000
1!
0,
18
19
1Q
13
1R
0O
1M
1@
1*
17
0P
0K
1+
#90000
0!
1,
08
09
#95000
1!
0,
18
19
0Q
0L
06
03
0R
1O
0M
0J
0@
0'
0*
07
1P
0+
#100000
0!
1,
08
09
#105000
1!
0,
18
19
1Q
13
0O
1@
1*
0P
1A
#110000
0!
1,
08
09
#115000
1!
0,
18
19
0Q
1F
14
03
1O
1)
0*
1P
#120000
0!
1,
08
09
#125000
1!
0,
18
19
1Q
13
0O
1G
0@
1*
0P
1H
0A
#130000
0!
1,
08
09
#135000
1!
0,
18
19
0Q
1I
0F
04
15
03
1O
0)
1(
0*
1P
#140000
0!
1,
08
09
#145000
1!
0,
18
19
1Q
13
0O
1@
1*
0P
1A
#150000
0!
1,
08
09
#155000
1!
0,
18
19
0Q
1F
14
03
1O
1)
0*
1P
#160000
1"
0!
1,
1:
08
09
0P
0H
0A
0=
#165000
1!
0,
18
19
0I
0F
04
05
0G
0@
0)
0(
#170000
0!
1,
08
09
#175000
1!
0,
18
19
#180000
1%
0"
0!
1,
1;
0:
08
09
1P
0O
1@
0P
1A
#185000
1!
0,
18
19
1F
14
1)
#190000
0!
1,
08
09
#195000
1!
0,
18
19
#200000
0%
0!
1,
0;
08
09
1O
1=
1P
#205000
1!
0,
18
19
1Q
13
0O
1G
0@
1*
0P
1H
0A
#210000
0!
1,
08
09
#215000
1!
0,
18
19
0Q
1I
0F
04
15
03
1O
0)
1(
0*
1P
#220000
0!
1,
08
09
#225000
1!
0,
18
19
1Q
13
0O
1@
1*
0P
1A
#230000
0!
1,
08
09
#235000
1!
0,
18
19
0Q
1F
14
03
1O
1)
0*
1P
#240000
0!
1,
08
09
#245000
1!
0,
18
19
1Q
13
0O
1J
0G
0@
1*
0P
1K
0H
0A
#250000
0!
1,
08
09
#255000
1!
0,
18
19
0Q
1L
0I
0F
04
05
16
03
1O
0)
0(
1'
0*
1P
#260000
0!
1,
08
09
#265000
1!
0,
18
19
1Q
13
1R
0O
1M
1@
1*
17
0P
0K
1+
#270000
0!
1,
08
09
#275000
1!
0,
18
19
0Q
0L
06
03
0R
1O
0M
0J
0@
0'
0*
07
1P
0+
#280000
0!
1,
08
09
#285000
1!
0,
18
19
1Q
13
0O
1@
1*
0P
1A
#290000
0!
1,
08
09
#295000
1!
0,
18
19
0Q
1F
14
03
1O
1)
0*
1P
#300000
0!
1,
08
09
#305000
1!
0,
18
19
1Q
13
0O
1G
0@
1*
0P
1H
0A
#310000
0!
1,
08
09
#315000
1!
0,
18
19
0Q
1I
0F
04
15
03
1O
0)
1(
0*
1P
#320000
0!
1,
08
09
#325000
1!
0,
18
19
1Q
13
0O
1@
1*
0P
1A
#330000
0!
1,
08
09
#335000
1!
0,
18
19
0Q
1F
14
03
1O
1)
0*
1P
#340000
0!
1,
08
09
#345000
1!
0,
18
19
1Q
13
0O
1J
0G
0@
1*
0P
1K
0H
0A
#350000
0!
1,
08
09
#355000
1!
0,
18
19
0Q
1L
0I
0F
04
05
16
03
1O
0)
0(
1'
0*
1P
#360000
0!
1,
08
09
#365000
1!
0,
18
19
1Q
13
1R
0O
1M
1@
1*
17
0P
0K
1+
#370000
0!
1,
08
09
#375000
1!
0,
18
19
0Q
0L
06
03
0R
1O
0M
0J
0@
0'
0*
07
1P
0+
#380000
0!
1,
08
09
#385000
1!
0,
18
19
1Q
13
0O
1@
1*
0P
1A
#390000
0!
1,
08
09
#395000
1!
0,
18
19
0Q
1F
14
03
1O
1)
0*
1P
#400000
1&
0!
1,
1B
08
09
1C
0F
04
0@
0)
0A
#405000
1!
0,
18
19
#410000
0!
1,
08
09
#415000
1!
0,
18
19
#420000
0!
1,
08
09
#425000
1!
0,
18
19
#430000
0!
1,
08
09
#435000
1!
0,
18
19
#440000
0!
1,
08
09
#445000
1!
0,
18
19
#450000
0&
0!
1,
0B
08
09
0C
#455000
1!
0,
18
19
1Q
13
0O
1@
1*
0P
1A
#460000
0!
1,
08
09
#465000
1!
0,
18
19
0Q
1F
14
03
1O
1)
0*
1P
#470000
0!
1,
08
09
#475000
1!
0,
18
19
1Q
13
0O
1G
0@
1*
0P
1H
0A
#480000
0!
1,
08
09
#485000
1!
0,
18
19
0Q
1I
0F
04
15
03
1O
0)
1(
0*
1P
#490000
0!
1,
08
09
#495000
1!
0,
18
19
1Q
13
0O
1@
1*
0P
1A
#500000
0!
1,
08
09
#505000
1!
0,
18
19
0Q
1F
14
03
1O
1)
0*
1P
#510000
0!
1,
08
09
#515000
1!
0,
18
19
1Q
13
0O
1J
0G
0@
1*
0P
1K
0H
0A
#520000
0!
1,
08
09
#525000
1!
0,
18
19
0Q
1L
0I
0F
04
05
16
03
1O
0)
0(
1'
0*
1P
#530000
0!
1,
08
09
#535000
1!
0,
18
19
1Q
13
1R
0O
1M
1@
1*
17
0P
0K
1+
#540000
0!
1,
08
09
#545000
1!
0,
18
19
0Q
0L
06
03
0R
1O
0M
0J
0@
0'
0*
07
1P
0+
#550000
0!
1,
08
09
#555000
1!
0,
18
19
1Q
13
0O
1@
1*
0P
1A
#560000
0!
1,
08
09
#565000
1!
0,
18
19
0Q
1F
14
03
1O
1)
0*
1P
#570000
0!
1,
08
09
#575000
1!
0,
18
19
1Q
13
0O
1G
0@
1*
0P
1H
0A
#580000
0!
1,
08
09
#585000
1!
0,
18
19
0Q
1I
0F
04
15
03
1O
0)
1(
0*
1P
#590000
0!
1,
08
09
#595000
1!
0,
18
19
1Q
13
0O
1@
1*
0P
1A
#600000
0!
1,
08
09
#605000
1!
0,
18
19
0Q
1F
14
03
1O
1)
0*
1P
#610000
0!
1,
08
09
#615000
1!
0,
18
19
1Q
13
0O
1J
0G
0@
1*
0P
1K
0H
0A
#620000
0!
1,
08
09
#625000
1!
0,
18
19
0Q
1L
0I
0F
04
05
16
03
1O
0)
0(
1'
0*
1P
#630000
0!
1,
08
09
#635000
1!
0,
18
19
1Q
13
1R
0O
1M
1@
1*
17
0P
0K
1+
#640000
0!
1,
08
09
#645000
1!
0,
18
19
0Q
0L
06
03
0R
1O
0M
0J
0@
0'
0*
07
1P
0+
#650000
0!
1,
08
09
#655000
1!
0,
18
19
1Q
13
0O
1@
1*
0P
1A
#660000
0!
1,
08
09
#665000
1!
0,
18
19
0Q
1F
14
03
1O
1)
0*
1P
#670000
0!
1,
08
09
#675000
1!
0,
18
19
1Q
13
0O
1G
0@
1*
0P
1H
0A
#680000
0!
1,
08
09
#685000
1!
0,
18
19
0Q
1I
0F
04
15
03
1O
0)
1(
0*
1P
#690000
0!
1,
08
09
#695000
1!
0,
18
19
1Q
13
0O
1@
1*
0P
1A
#700000
0!
1,
08
09
#705000
1!
0,
18
19
0Q
1F
14
03
1O
1)
0*
1P
#710000
0!
1,
08
09
#715000
1!
0,
18
19
1Q
13
0O
1J
0G
0@
1*
0P
1K
0H
0A
#720000
0!
1,
08
09
#725000
1!
0,
18
19
0Q
1L
0I
0F
04
05
16
03
1O
0)
0(
1'
0*
1P
#730000
0!
1,
08
09
#735000
1!
0,
18
19
1Q
13
1R
0O
1M
1@
1*
17
0P
0K
1+
#740000
0!
1,
08
09
#745000
1!
0,
18
19
0Q
0L
06
03
0R
1O
0M
0J
0@
0'
0*
07
1P
0+
#750000
0!
1,
08
09
#755000
1!
0,
18
19
1Q
13
0O
1@
1*
0P
1A
#760000
0!
1,
08
09
#765000
1!
0,
18
19
0Q
1F
14
03
1O
1)
0*
1P
#770000
0!
1,
08
09
#775000
1!
0,
18
19
1Q
13
0O
1G
0@
1*
0P
1H
0A
#780000
0!
1,
08
09
#785000
1!
0,
18
19
0Q
1I
0F
04
15
03
1O
0)
1(
0*
1P
#790000
0!
1,
08
09
#795000
1!
0,
18
19
1Q
13
0O
1@
1*
0P
1A
#800000
0!
1,
08
09
#805000
1!
0,
18
19
0Q
1F
14
03
1O
1)
0*
1P
#810000
0$
0!
1,
0D
08
09
0E
#815000
1!
0,
18
19
#820000
0!
1,
08
09
#825000
1!
0,
18
19
#830000
0!
1,
08
09
#835000
1!
0,
18
19
#840000
0!
1,
08
09
#845000
1!
0,
18
19
#850000
1$
0!
1,
1D
08
09
1E
#855000
1!
0,
18
19
1Q
13
0O
1J
0G
0@
1*
0P
1K
0H
0A
#860000
0!
1,
08
09
#865000
1!
0,
18
19
0Q
1L
0I
0F
04
05
16
03
1O
0)
0(
1'
0*
1P
#870000
0!
1,
08
09
#875000
1!
0,
18
19
1Q
13
1R
0O
1M
1@
1*
17
0P
0K
1+
#880000
0!
1,
08
09
#885000
1!
0,
18
19
0Q
0L
06
03
0R
1O
0M
0J
0@
0'
0*
07
1P
0+
#890000
0!
1,
08
09
#895000
1!
0,
18
19
1Q
13
0O
1@
1*
0P
1A
#900000
0!
1,
08
09
#905000
1!
0,
18
19
0Q
1F
14
03
1O
1)
0*
1P
#910000
0!
1,
08
09
#915000
1!
0,
18
19
1Q
13
0O
1G
0@
1*
0P
1H
0A
#920000
0!
1,
08
09
#925000
1!
0,
18
19
0Q
1I
0F
04
15
03
1O
0)
1(
0*
1P
#930000
0!
1,
08
09
#935000
1!
0,
18
19
1Q
13
0O
1@
1*
0P
1A
#940000
0!
1,
08
09
#945000
1!
0,
18
19
0Q
1F
14
03
1O
1)
0*
1P
#950000
0!
1,
08
09
#955000
1!
0,
18
19
1Q
13
0O
1J
0G
0@
1*
0P
1K
0H
0A
#960000
0!
1,
08
09
#965000
1!
0,
18
19
0Q
1L
0I
0F
04
05
16
03
1O
0)
0(
1'
0*
1P
#970000
0!
1,
08
09
#975000
1!
0,
18
19
1Q
13
1R
0O
1M
1@
1*
17
0P
0K
1+
#980000
0!
1,
08
09
#985000
1!
0,
18
19
0Q
0L
06
03
0R
1O
0M
0J
0@
0'
0*
07
1P
0+
#990000
0!
1,
08
09
#995000
1!
0,
18
19
1Q
13
0O
1@
1*
0P
1A
