RTL/adder/adder_unsigned/simulation/qsim/adder.msim.vcd
$comment
	File created using the following command:
		vcd file adder.msim.vcd -direction
$end
$date
	Fri Aug 25 20:52:37 2023
$end
$version
	ModelSim Version 10.4
$end
$timescale
	1ps
$end

$scope module adder_D_vlg_vec_tst $end
$var reg 1 ! CLK $end
$var reg 8 " IN1 [7:0] $end
$var reg 8 # IN2 [7:0] $end
$var wire 1 $ OUT [8] $end
$var wire 1 % OUT [7] $end
$var wire 1 & OUT [6] $end
$var wire 1 ' OUT [5] $end
$var wire 1 ( OUT [4] $end
$var wire 1 ) OUT [3] $end
$var wire 1 * OUT [2] $end
$var wire 1 + OUT [1] $end
$var wire 1 , OUT [0] $end
$var wire 1 - sampler $end

$scope module i1 $end
$var wire 1 . gnd $end
$var wire 1 / vcc $end
$var wire 1 0 unknown $end
$var tri1 1 1 devclrn $end
$var tri1 1 2 devpor $end
$var tri1 1 3 devoe $end
$var wire 1 4 OUT[0]~output_o $end
$var wire 1 5 OUT[1]~output_o $end
$var wire 1 6 OUT[2]~output_o $end
$var wire 1 7 OUT[3]~output_o $end
$var wire 1 8 OUT[4]~output_o $end
$var wire 1 9 OUT[5]~output_o $end
$var wire 1 : OUT[6]~output_o $end
$var wire 1 ; OUT[7]~output_o $end
$var wire 1 < OUT[8]~output_o $end
$var wire 1 = CLK~input_o $end
$var wire 1 > CLK~inputclkctrl_outclk $end
$var wire 1 ? IN1[0]~input_o $end
$var wire 1 @ in1_d1R[0]~feeder_combout $end
$var wire 1 A in1_d2R[0]~feeder_combout $end
$var wire 1 B IN2[0]~input_o $end
$var wire 1 C in2_d1R[0]~feeder_combout $end
$var wire 1 D in2_d2R[0]~feeder_combout $end
$var wire 1 E OUT[0]~9_combout $end
$var wire 1 F OUT[0]~reg0_q $end
$var wire 1 G IN2[1]~input_o $end
$var wire 1 H in2_d1R[1]~feeder_combout $end
$var wire 1 I in2_d2R[1]~feeder_combout $end
$var wire 1 J IN1[1]~input_o $end
$var wire 1 K in1_d1R[1]~feeder_combout $end
$var wire 1 L in1_d2R[1]~feeder_combout $end
$var wire 1 M OUT[0]~10 $end
$var wire 1 N OUT[1]~11_combout $end
$var wire 1 O OUT[1]~reg0_q $end
$var wire 1 P IN1[2]~input_o $end
$var wire 1 Q in1_d2R[2]~feeder_combout $end
$var wire 1 R IN2[2]~input_o $end
$var wire 1 S in2_d1R[2]~feeder_combout $end
$var wire 1 T in2_d2R[2]~feeder_combout $end
$var wire 1 U OUT[1]~12 $end
$var wire 1 V OUT[2]~13_combout $end
$var wire 1 W OUT[2]~reg0_q $end
$var wire 1 X IN2[3]~input_o $end
$var wire 1 Y in2_d1R[3]~feeder_combout $end
$var wire 1 Z in2_d2R[3]~feeder_combout $end
$var wire 1 [ IN1[3]~input_o $end
$var wire 1 \ in1_d1R[3]~feeder_combout $end
$var wire 1 ] in1_d2R[3]~feeder_combout $end
$var wire 1 ^ OUT[2]~14 $end
$var wire 1 _ OUT[3]~15_combout $end
$var wire 1 ` OUT[3]~reg0_q $end
$var wire 1 a IN2[4]~input_o $end
$var wire 1 b in2_d1R[4]~feeder_combout $end
$var wire 1 c in2_d2R[4]~feeder_combout $end
$var wire 1 d IN1[4]~input_o $end
$var wire 1 e in1_d1R[4]~feeder_combout $end
$var wire 1 f in1_d2R[4]~feeder_combout $end
$var wire 1 g OUT[3]~16 $end
$var wire 1 h OUT[4]~17_combout $end
$var wire 1 i OUT[4]~reg0_q $end
$var wire 1 j IN2[5]~input_o $end
$var wire 1 k in2_d1R[5]~feeder_combout $end
$var wire 1 l in2_d2R[5]~feeder_combout $end
$var wire 1 m IN1[5]~input_o $end
$var wire 1 n in1_d1R[5]~feeder_combout $end
$var wire 1 o in1_d2R[5]~feeder_combout $end
$var wire 1 p OUT[4]~18 $end
$var wire 1 q OUT[5]~19_combout $end
$var wire 1 r OUT[5]~reg0_q $end
$var wire 1 s IN1[6]~input_o $end
$var wire 1 t in1_d2R[6]~feeder_combout $end
$var wire 1 u IN2[6]~input_o $end
$var wire 1 v in2_d1R[6]~feeder_combout $end
$var wire 1 w in2_d2R[6]~feeder_combout $end
$var wire 1 x OUT[5]~20 $end
$var wire 1 y OUT[6]~21_combout $end
$var wire 1 z OUT[6]~reg0_q $end
$var wire 1 { IN2[7]~input_o $end
$var wire 1 | in2_d1R[7]~feeder_combout $end
$var wire 1 } in2_d2R[7]~feeder_combout $end
$var wire 1 ~ IN1[7]~input_o $end
$var wire 1 !! in1_d1R[7]~feeder_combout $end
$var wire 1 "! in1_d2R[7]~feeder_combout $end
$var wire 1 #! OUT[6]~22 $end
$var wire 1 $! OUT[7]~23_combout $end
$var wire 1 %! OUT[7]~reg0_q $end
$var wire 1 &! OUT[7]~24 $end
$var wire 1 '! OUT[8]~25_combout $end
$var wire 1 (! OUT[8]~reg0_q $end
$var wire 1 )! in2_d2R [7] $end
$var wire 1 *! in2_d2R [6] $end
$var wire 1 +! in2_d2R [5] $end
$var wire 1 ,! in2_d2R [4] $end
$var wire 1 -! in2_d2R [3] $end
$var wire 1 .! in2_d2R [2] $end
$var wire 1 /! in2_d2R [1] $end
$var wire 1 0! in2_d2R [0] $end
$var wire 1 1! in2_d1R [7] $end
$var wire 1 2! in2_d1R [6] $end
$var wire 1 3! in2_d1R [5] $end
$var wire 1 4! in2_d1R [4] $end
$var wire 1 5! in2_d1R [3] $end
$var wire 1 6! in2_d1R [2] $end
$var wire 1 7! in2_d1R [1] $end
$var wire 1 8! in2_d1R [0] $end
$var wire 1 9! in1_d2R [7] $end
$var wire 1 :! in1_d2R [6] $end
$var wire 1 ;! in1_d2R [5] $end
$var wire 1 <! in1_d2R [4] $end
$var wire 1 =! in1_d2R [3] $end
$var wire 1 >! in1_d2R [2] $end
$var wire 1 ?! in1_d2R [1] $end
$var wire 1 @! in1_d2R [0] $end
$var wire 1 A! in1_d1R [7] $end
$var wire 1 B! in1_d1R [6] $end
$var wire 1 C! in1_d1R [5] $end
$var wire 1 D! in1_d1R [4] $end
$var wire 1 E! in1_d1R [3] $end
$var wire 1 F! in1_d1R [2] $end
$var wire 1 G! in1_d1R [1] $end
$var wire 1 H! in1_d1R [0] $end
$upscope $end
$upscope $end
$enddefinitions $end
#0
$dumpvars
0!
b11001 "
b101111 #
0,
0+
0*
0)
0(
0'
0&
0%
0$
x-
0.
1/
x0
11
12
13
04
05
06
07
08
09
0:
0;
0<
0=
0>
1?
1@
0A
1B
1C
0D
0E
0F
1G
1H
0I
0J
0K
0L
0M
0N
0O
0P
0Q
1R
1S
0T
1U
0V
0W
1X
1Y
0Z
1[
1\
0]
0^
0_
0`
0a
0b
0c
1d
1e
0f
1g
0h
0i
1j
1k
0l
0m
0n
0o
0p
0q
0r
0s
0t
0u
0v
0w
1x
0y
0z
0{
0|
0}
0~
0!!
0"!
0#!
0$!
0%!
1&!
0'!
0(!
00!
0/!
0.!
0-!
0,!
0+!
0*!
0)!
08!
07!
06!
05!
04!
03!
02!
01!
0@!
0?!
0>!
0=!
0<!
0;!
0:!
09!
0H!
0G!
0F!
0E!
0D!
0C!
0B!
0A!
$end
#5000
1!
0-
1=
1>
13!
1D!
1E!
15!
16!
17!
18!
1H!
1l
1f
1]
1Z
1T
1I
1D
1A
#10000
b111001 "
b101001 "
b101101 "
b101111 "
b10101111 #
b11101111 #
b11111111 #
b11110111 #
b11110011 #
b11110001 #
0!
1-
0G
0R
0X
1a
1u
1{
1J
1P
0d
1m
0=
0>
0H
0S
0Y
1b
1v
1|
1K
0e
1n
#15000
1!
0-
1=
1>
11!
12!
1C!
1+!
1<!
0D!
14!
1=!
1-!
05!
1.!
06!
1F!
1G!
1/!
07!
10!
1@!
1}
1w
1o
1q
1h
0f
1c
0g
0Z
1V
0T
1Q
1L
1N
0I
1M
1p
0h
0U
0N
0x
0q
1^
0V
1y
1_
#20000
b100111 "
b11010001 #
b11010000 #
b100011 "
b1010000 #
b1010100 #
0!
1-
0B
1R
0j
0{
0P
0[
0=
0>
0C
1S
0k
0|
0\
#25000
1!
0-
1=
1>
1)!
01!
1*!
1;!
03!
0<!
1,!
0E!
0-!
0.!
16!
1>!
0F!
1?!
0/!
08!
1z
1`
17
1:
1$!
0}
1#!
0y
1q
0l
0]
0_
1T
0Q
0D
1)
1&
0&!
0$!
1'!
#30000
b1100011 "
b1000011 "
b1010011 "
b10100 #
b11100 #
b11110 #
b11111 #
0!
1-
1B
1G
1X
0u
1d
0m
1s
0=
0>
1C
1H
1Y
0v
1e
0n
#35000
1!
0-
1=
1>
0)!
02!
1B!
0C!
0+!
1D!
0=!
15!
1.!
0>!
17!
00!
18!
1(!
0z
1r
0`
07
19
0:
1<
1&!
1$!
0w
1t
0o
0q
1f
1g
1_
1Z
1I
0M
1E
1D
0)
1'
0&
1$
0'!
0p
1h
1U
1N
1x
1q
0^
1V
0#!
1y
0_
0$!
#40000
b1111 #
b10001111 #
b10001011 #
b10011 "
b110011 "
b11001011 #
b11001001 #
0!
1-
1m
0s
0G
0R
0a
1u
1{
0=
0>
1n
0H
0S
0b
1v
1|
#45000
1!
0-
1=
1>
11!
0*!
12!
1:!
0B!
0;!
1C!
1<!
04!
1-!
06!
1/!
07!
10!
0(!
1z
1i
1W
1O
1F
14
15
16
18
1:
0<
1}
1w
0t
0q
1o
1p
0h
0c
1_
0T
0U
0N
0I
1M
0E
1,
1+
1*
1(
1&
0$
1q
1^
0V
1N
0g
0_
1h
#50000
b10110011 "
b10110010 "
b10111010 "
b11101001 #
b10111110 "
b11101000 #
b11111000 #
b10011110 "
0!
1-
0B
1a
1j
0?
1P
1[
0m
1~
0=
0>
0C
1b
1k
0@
1\
0n
1!!
#55000
1!
0-
1=
1>
1A!
1)!
1*!
0:!
1;!
0C!
13!
0,!
14!
1E!
0.!
1F!
0/!
08!
0H!
0W
0F
04
06
1"!
1$!
0x
0q
0o
1l
0h
1c
1]
0^
1V
1Q
0N
0D
0A
0,
0*
1#!
0y
1g
1_
0&!
0$!
0p
1h
1'!
1x
1q
0#!
1y
1&!
1$!
0'!
#60000
b10011100 "
b11110000 #
b1110000 #
b11011100 "
b110000 #
b110010 #
b11011101 "
b10010 #
b10011 #
b11 #
b11111101 "
0!
1-
1B
1G
0X
0a
0j
0u
0{
1?
0J
1m
1s
0=
0>
1C
1H
0Y
0b
0k
0v
0|
1@
0K
1n
#65000
1!
0-
1=
1>
19!
01!
02!
1B!
0;!
1C!
1+!
03!
1,!
04!
1=!
05!
1>!
0G!
17!
00!
18!
0@!
1H!
1%!
1`
1W
0O
05
16
17
1;
0&!
0$!
0}
0w
1t
1o
0l
1p
0h
0c
0g
0_
0Z
1^
0V
0L
1I
0M
1D
1A
0+
1*
1)
1%
1'!
0x
0q
1h
1_
1U
1N
1#!
0y
0^
1V
1$!
0_
#70000
b11101101 "
b11100101 "
b1011 #
b10001011 #
b10001001 #
b10011001 #
b11000101 "
0!
1-
0G
1X
1a
1{
0[
0d
0m
0=
0>
0H
1Y
1b
1|
0\
0e
0n
#75000
1!
0-
1=
1>
0)!
11!
0*!
1:!
1;!
0C!
0+!
0D!
0,!
14!
0E!
0-!
15!
0?!
1/!
07!
10!
1@!
1(!
0z
0r
0`
1O
15
07
09
0:
1<
0$!
1}
0o
0f
0h
1c
0]
1g
1_
1Z
0I
1M
1+
0)
0'
0&
1$
0p
1h
0U
0N
1x
1q
1^
0V
0#!
1y
0g
0_
1&!
1$!
1p
0h
0'!
0x
0q
1#!
0y
0&!
0$!
1'!
#80000
b11000111 "
b10000111 "
b11011001 #
b10010111 "
b11011011 #
b11001011 #
b10110111 "
0!
1-
1G
0a
1u
1J
1d
1m
0s
0=
0>
1H
0b
1v
1K
1e
1n
#85000
1!
0-
1=
1>
1)!
12!
0B!
0;!
1C!
0<!
1D!
1,!
04!
0=!
1-!
1G!
0/!
17!
0%!
0i
0W
0O
05
06
08
0;
1$!
1w
0t
1x
1q
1o
1f
0c
1L
1U
1N
1I
0+
0*
0(
0%
0#!
1y
0^
1V
0$!
1g
1_
0p
1h
0q
#90000
b11001010 #
b10111111 "
b11000010 #
b1000010 #
b10111101 "
b11111101 "
b10 #
b10010 #
b11011101 "
0!
1-
0J
1[
0m
1s
0B
0X
1a
0u
0{
0=
0>
0K
1\
0n
0C
0Y
1b
0v
0|
#95000
1!
0-
1=
1>
01!
1*!
02!
0:!
1B!
1;!
0C!
1<!
0,!
14!
1E!
05!
1?!
0G!
1/!
08!
1z
1i
1`
1W
1O
15
16
17
18
1:
0}
0w
1t
1q
0o
1c
1]
0Z
0U
0L
0D
1+
1*
1)
1(
1&
1^
0V
0g
0_
1p
0h
0x
0q
1#!
0y
1$!
#100000
b10110 #
b1011101 "
b10100 #
b10101 #
b1010101 "
b1010101 #
b1110101 "
0!
1-
0[
1m
0~
1B
0G
1R
1u
0=
0>
0\
1n
0!!
1C
0H
1S
1v
#105000
1!
0-
1=
1>
0A!
0)!
0*!
12!
1:!
0;!
1C!
1,!
1=!
0E!
0-!
16!
0?!
07!
00!
18!
1%!
0z
0i
0`
0W
06
07
08
0:
1;
0"!
0$!
1w
1x
1q
1o
1h
0]
1T
0N
0I
0M
1E
1D
0*
0)
0(
0&
1%
0#!
1y
1U
1N
1&!
1$!
0^
1V
0'!
1g
1_
0h
#110000
b1110101 #
b1100101 "
b1111101 #
b11111101 #
b1100111 "
b100111 "
b11101101 #
b10100111 "
b10101111 "
b10001111 "
0!
1-
1J
1[
0d
0m
0s
1~
1X
0a
1j
1{
0=
0>
1K
1\
0e
0n
1!!
1Y
0b
1k
1|
#115000
1!
0-
1=
1>
09!
1A!
11!
1*!
0B!
1;!
0C!
13!
0D!
04!
0=!
1E!
15!
1.!
1G!
0/!
10!
0(!
1z
1r
1`
1W
1F
14
16
17
19
1:
0<
0$!
1"!
1}
1#!
0y
0t
0x
0q
0o
1l
0f
0c
0_
1]
1Z
1^
0V
1L
0N
1M
0E
1,
1*
1)
1'
1&
0$
1$!
1y
1_
1N
#120000
b10001011 "
b11101001 #
b11101011 #
b11101010 #
b10011011 "
b11100010 #
b1100010 #
b1110010 #
0!
1-
0B
1G
0R
0X
1a
0{
0P
1d
0=
0>
0C
1H
0S
0Y
1b
0|
1e
#125000
1!
0-
1=
1>
19!
1)!
01!
0:!
0;!
1+!
0<!
1D!
0,!
14!
1=!
1-!
05!
06!
0F!
1?!
17!
08!
0r
0W
0F
04
06
09
0&!
0}
0y
0p
1f
1c
0g
0Z
0T
0Q
0U
0N
1I
0D
0,
0*
0'
1'!
1x
1q
1h
1V
0#!
1y
0$!
#130000
b10011010 "
b10011000 "
b10010000 "
b10110000 "
b10110100 "
b1110011 #
b1111011 #
0!
1-
1B
1X
0?
0J
1P
0[
1m
0=
0>
1C
1Y
0@
0K
0\
1n
#135000
1!
0-
1=
1>
0)!
1C!
1<!
1,!
0E!
0-!
15!
0.!
0>!
1F!
0G!
1/!
00!
18!
0H!
1(!
0%!
1r
1i
1W
0O
05
16
18
19
0;
1<
1&!
1$!
1o
1p
0]
0_
1Z
0^
1Q
0L
1N
0M
1E
1D
0A
0+
1*
1(
1'
0%
1$
0'!
0x
0q
1g
1_
0N
1#!
0y
0h
0&!
0$!
1'!
#140000
b11110100 "
b1111001 #
b11111001 #
b11110110 "
0!
1-
0G
1{
1J
1s
0=
0>
0H
1|
1K
#145000
1!
0-
1=
1>
11!
1B!
1;!
0=!
1-!
1>!
0?!
1G!
07!
10!
0@!
0z
0r
0i
1F
14
08
09
0:
1}
1t
1q
1^
0V
1U
1N
1L
0I
1,
0(
0'
0&
0g
0_
0^
1V
1h
1g
1_
0h
#150000
b10111001 #
b1110110 "
b10111101 #
b1100110 "
b1101110 "
b1101010 "
b10110101 #
b10110111 #
b110111 #
b1101000 "
0!
1-
0J
0P
1[
0d
0~
1G
1R
0X
0u
0{
0=
0>
0K
1\
0e
0!!
1H
1S
0Y
0v
0|
#155000
1!
0-
1=
1>
0A!
1)!
01!
02!
1:!
0D!
1E!
05!
16!
0F!
1?!
0G!
0/!
17!
1r
1O
15
19
0"!
1$!
0}
0w
1y
0f
1]
0Z
1T
0Q
0L
1I
1+
1'
#160000
b10111 #
b1001000 "
b10110 #
b1000 "
b1010110 #
b1010010 #
b11000 "
b11100 "
b1011010 #
b1011000 #
b11011000 #
0!
1-
1P
1d
0m
0s
0B
0G
0R
1X
0j
1u
1{
0=
0>
1e
0n
0C
0H
0S
1Y
0k
1v
1|
#165000
1!
0-
1=
1>
09!
0)!
11!
0*!
12!
0B!
0C!
03!
0<!
1D!
1=!
0-!
15!
1.!
06!
0>!
1F!
0?!
1/!
07!
08!
1%!
1z
1:
1;
1&!
1}
0y
1w
0t
0o
0l
0p
1h
1f
1Z
0T
1Q
0I
0D
1&
1%
0'!
0q
#170000
b11001000 #
b10011100 "
b10011110 "
b11101000 #
b11101001 #
b11011110 "
b11011010 "
0!
1-
1J
0P
1s
1~
1B
0a
1j
0=
0>
1K
1!!
1C
0b
1k
#175000
1!
0-
1=
1>
1A!
1)!
1*!
0:!
1B!
0;!
0+!
13!
1<!
04!
1-!
0.!
1>!
0F!
1G!
0/!
00!
18!
0(!
0z
0r
1i
18
09
0:
0<
1"!
0&!
0$!
1t
1x
1l
1p
0h
0c
0g
0_
0Q
1L
0N
0E
1D
1(
0'
0&
0$
1'!
0#!
1y
1q
1h
1&!
1$!
0'!
#180000
b11010010 "
b11100001 #
b1100001 #
b1010010 "
b1000001 #
b1000000 #
b10010 "
b10110 "
0!
1-
0B
0X
0j
0{
1P
0[
0s
0~
0=
0>
0C
0Y
0k
0|
0\
0!!
#185000
1!
0-
1=
1>
19!
0A!
01!
1:!
0B!
1+!
03!
0,!
0E!
05!
0>!
1F!
1?!
10!
08!
1z
1r
0`
0O
0F
04
05
07
19
1:
0&!
0$!
0"!
0}
1#!
0y
0t
0x
0q
0l
0h
0]
0Z
0V
1Q
1N
1E
0D
0,
0+
0)
1'
1&
1'!
1$!
1y
#190000
b110110 "
b1000100 #
b110100 "
b1000101 #
0!
1-
1B
1R
0J
1m
0=
0>
1C
1S
0K
1n
#195000
1!
0-
1=
1>
09!
0)!
0:!
1C!
0+!
0=!
0-!
16!
1>!
0G!
00!
18!
1(!
0r
0i
0W
1O
1F
14
15
06
08
09
1<
1&!
0y
1o
1x
1q
1g
1T
1V
0L
0E
1D
1,
1+
0*
0(
0'
1$
0'!
0#!
1y
0p
1h
0$!
0q
#200000
b110101 "
b101 #
b100101 "
b100101 #
b1100101 "
b1100001 "
b1100011 "
b100100 #
0!
1-
0B
1j
0u
1?
1J
0P
0d
1s
0=
0>
0C
1k
0v
1@
1K
0e
#205000
1!
0-
1=
1>
02!
1B!
1;!
13!
0D!
1.!
0F!
0?!
1G!
10!
08!
1H!
0(!
0%!
1i
1W
0F
04
16
18
0;
0<
0w
1t
1q
1l
0f
1^
0V
0Q
0N
1L
1E
0D
1A
0,
1*
1(
0%
0$
1_
#210000
b100110 #
b1101011 "
b10100110 #
b11101011 "
b10100010 #
b11100010 #
b10101011 "
b11100011 #
0!
1-
1[
0s
1~
1B
1G
0R
1u
1{
0=
0>
1\
1!!
1C
1H
0S
1v
1|
#215000
1!
0-
1=
1>
1A!
11!
0*!
12!
1:!
0B!
1+!
0<!
1E!
06!
0>!
1?!
17!
00!
18!
1@!
1r
1`
0W
0O
1F
14
05
06
17
19
1"!
1}
1w
0t
0x
0q
0h
1]
0T
0^
1V
1N
1I
1D
1,
0+
0*
1)
1'
1#!
0y
0_
1$!
#220000
b11101011 #
b10001011 "
b10011011 "
b11001011 #
b10011111 "
b11001001 #
b10010111 "
b1001001 #
b1001101 #
b11010111 "
0!
1-
1P
0[
1d
0m
1s
0G
1R
1X
0j
0{
0=
0>
0\
1e
0n
0H
1S
1Y
0k
0|
#225000
1!
0-
1=
1>
19!
1)!
01!
1*!
0:!
1B!
0C!
03!
1D!
1=!
0E!
15!
0.!
16!
1F!
1/!
07!
10!
1%!
0z
0r
0i
0`
1W
1O
15
16
07
08
09
0:
1;
0&!
0}
1t
0o
0l
1f
1_
0]
1Z
0V
1T
1Q
0U
0N
0I
1M
0E
1+
1*
0)
0(
0'
0&
1%
1'!
1V
1N
#230000
b1000101 #
b11000111 "
b11000011 "
b1000111 #
b11000111 #
b11000011 #
b10000011 "
0!
1-
0P
0d
0s
1G
0R
0X
1{
0=
0>
0e
1H
0S
0Y
1|
#235000
1!
0-
1=
1>
0)!
11!
1:!
0B!
0;!
0+!
1<!
0D!
0=!
1-!
05!
1.!
06!
1>!
0F!
0/!
17!
1(!
1`
0F
04
17
1<
0$!
1}
1y
0t
1x
1h
0f
0Z
1^
0T
0Q
0N
1I
0,
1)
1$
0y
0g
0_
1p
0h
1q
#240000
b10000011 #
b10100011 "
b10101011 "
b10101111 "
b10000001 #
b11101111 "
0!
1-
1P
1[
1m
1s
0G
0u
0=
0>
1\
1n
0H
0v
#245000
1!
0-
1=
1>
1)!
02!
0:!
1B!
1C!
0<!
1E!
0-!
0.!
0>!
1F!
1/!
07!
0%!
1r
0`
0O
05
07
19
0;
1$!
0w
0#!
1y
1t
1o
0p
1h
1]
1g
1_
0^
1Q
1N
0I
0+
0)
1'
0%
0$!
0q
0h
0_
#250000
b10010001 #
b11101110 "
b11101100 "
b1101100 "
b10010000 #
b10110000 #
b10111000 #
b1111100 "
b1011100 "
b1011000 "
b10111010 #
b11000 "
0!
1-
0?
0J
0P
1d
0m
0s
0~
0B
1G
1X
1a
1j
0=
0>
0@
0K
1e
0n
0!!
0C
1H
1Y
1b
1k
#255000
1!
0-
1=
1>
0A!
0*!
1:!
0B!
1;!
0C!
13!
1D!
14!
1=!
15!
1>!
0F!
0G!
0/!
17!
08!
0H!
1z
0r
1O
15
09
1:
0"!
0t
1q
0o
1l
1f
1c
1_
1Z
1^
0V
0Q
0L
0N
1I
0D
0A
1+
0'
1&
0g
0_
1h
#260000
b10111110 #
b10101110 #
b11001 "
b10011001 "
b10101111 #
b10001001 "
b10101001 "
0!
1-
1?
0d
1m
1~
1B
1R
0a
0=
0>
1@
0e
1n
1!!
1C
1S
0b
#265000
1!
0-
1=
1>
09!
1A!
0:!
0;!
1C!
1+!
1<!
0D!
1,!
04!
1-!
16!
0>!
0?!
1/!
00!
18!
0@!
1H!
1r
1i
0W
0O
05
06
18
19
1&!
1$!
1"!
0y
1o
1p
0f
0c
1_
1T
0^
1V
0M
1D
1A
0+
0*
1(
1'
0'!
0x
0q
0_
1U
1N
1y
0V
#270000
b10101011 "
b10001111 #
b10000111 #
b10000011 #
b10010011 #
b101011 "
b10010010 #
0!
1-
0B
0R
0X
1a
0j
1J
0~
0=
0>
0C
0S
0Y
1b
0k
1K
0!!
#275000
1!
0-
1=
1>
19!
0A!
1;!
03!
0<!
0,!
14!
05!
1.!
06!
1G!
10!
08!
1@!
0(!
1%!
0r
1O
15
09
1;
0<
0&!
0$!
0"!
1q
0l
0p
1c
0Z
1V
0T
1L
1M
0D
1+
0'
1%
0$
1'!
0q
0U
0N
1^
0V
1_
#280000
b10010 #
b1010010 #
b100011 "
b1100011 "
b1110011 "
b1010011 "
b1010001 "
b1110010 #
b1110110 #
b11010001 "
b1110111 #
0!
1-
0J
0[
1d
0m
1s
1~
1B
1R
1j
1u
0{
0=
0>
0K
0\
1e
0n
1!!
1C
1S
1k
1v
0|
#285000
1!
0-
1=
1>
09!
1A!
01!
12!
1B!
0C!
0+!
13!
1D!
1,!
0E!
0-!
0.!
16!
1?!
0G!
00!
18!
1(!
0%!
1`
0O
05
17
0;
1<
1&!
1$!
1"!
0}
1w
1t
0o
1x
1q
1l
1f
1p
0h
0]
0_
0^
1V
1T
1N
0L
0M
1E
1D
0+
1)
0%
1$
0'!
0y
0x
0q
1g
1_
0N
1y
0p
1h
1x
1q
0y
#290000
b1110101 #
b11010000 "
b1100101 #
b11100101 #
b10100101 #
b11011000 "
b11001000 "
b11101000 "
b11101010 "
b10100001 #
0!
1-
0?
1J
1[
0d
1m
0G
0R
0a
0u
1{
0=
0>
0@
1K
1\
0e
1n
0H
0S
0b
0v
1|
#295000
1!
0-
1=
1>
19!
0)!
11!
1*!
02!
1:!
0;!
1C!
1+!
1<!
0D!
04!
0=!
1E!
1.!
06!
0?!
1G!
07!
10!
0H!
0(!
1%!
0z
1r
1W
1F
14
16
19
0:
1;
0<
1}
1#!
0w
1o
1p
0h
0f
0c
0_
1]
1^
0V
0T
1U
1N
1L
0I
1M
0E
0A
1,
1*
1'
0&
1%
0$
0&!
0$!
0x
0q
1_
0^
1V
0U
0N
1'!
1y
0_
1^
0V
1_
#300000
b10101010 "
b10000001 #
b101010 "
b10000000 #
b10000010 #
b101011 "
b10010010 #
b10010 #
b1010010 #
b101001 "
b1010110 #
0!
1-
0B
1G
1R
1a
0j
1u
0{
1?
0J
0s
0~
0=
0>
0C
1H
1S
1b
0k
1v
0|
1@
0K
0!!
#305000
1!
0-
1=
1>
0A!
1)!
01!
0*!
12!
0B!
1;!
03!
0<!
0,!
14!
1=!
0.!
16!
1?!
0G!
0/!
17!
08!
0@!
1H!
1(!
0%!
1z
0r
0i
0W
0F
04
06
08
09
1:
0;
1<
0"!
1$!
0}
0y
1w
0t
1q
0l
0p
1c
0g
0_
0^
1V
1T
0L
1I
0D
0M
1E
1A
0,
0*
0(
0'
1&
0%
1$
0q
1h
1g
1_
1U
1N
0h
0V
#310000
b101101 "
b1011110 #
b100101 "
b1111110 #
b1111111 #
b100100 "
b1101111 #
b11101111 #
b10101111 #
b100110 "
b10101011 #
0!
1-
1B
0R
1X
0a
1j
0u
1{
0?
1J
1P
0[
0=
0>
1C
0S
1Y
0b
1k
0v
1|
0@
1K
0\
#315000
1!
0-
1=
1>
09!
0)!
11!
1*!
02!
0:!
0+!
13!
1,!
04!
0E!
15!
1.!
06!
1F!
0?!
1G!
1/!
00!
18!
1@!
0H!
1%!
0z
1O
1F
14
15
0:
1;
1&!
1}
0w
1x
1q
1l
1h
0c
0]
1Z
1V
0T
1Q
1L
1D
0A
1,
1+
0&
1%
0'!
0#!
1y
0$!
#320000
b110 "
b10000110 "
b10101001 #
b10001110 "
b10001111 "
b101001 #
b1101001 #
b10001101 "
0!
1-
0G
1u
0{
1?
0J
1[
0m
1~
0=
0>
0H
1v
0|
1@
0K
1\
0n
1!!
#325000
1!
0-
1=
1>
1A!
1)!
01!
0*!
12!
0C!
1+!
0,!
0=!
1E!
1-!
0.!
1>!
1?!
0G!
07!
10!
0@!
1H!
0(!
0%!
1z
1r
1i
1W
16
18
19
1:
0;
0<
1"!
1$!
0}
0y
1w
0o
0x
0q
0h
1]
0U
0N
0L
0I
1A
1*
1(
1'
1&
0%
0$
1y
1^
0V
0g
0_
1h
#330000
b11001101 "
b11001001 "
b1100001 #
b1100000 #
b1110000 #
b11101001 "
b1101001 "
b1110010 #
b1100001 "
b1100011 "
0!
1-
0B
1G
0X
1a
1J
0P
0[
1m
1s
0~
0=
0>
0C
1H
0Y
1b
1K
0\
1n
0!!
#335000
1!
0-
1=
1>
19!
0A!
0)!
1*!
1B!
0;!
1C!
14!
1=!
0E!
05!
0F!
0?!
1G!
0/!
17!
08!
1@!
1%!
0r
0`
0W
0O
05
06
07
09
1;
0"!
1#!
0y
1t
1x
1q
1o
1c
1_
0]
0Z
0Q
1U
1L
1I
0D
1M
0E
0+
0*
0)
0'
1%
0&!
0$!
0#!
1y
0^
1V
1N
1'!
1&!
1$!
0_
0'!
#340000
b1110011 "
b1110110 #
b11110110 #
b10110110 #
b110011 "
b110111 "
b10100110 #
b10111 "
b10100100 #
b11111 "
b11101 "
0!
1-
0G
1R
0a
0u
1{
0J
1P
1[
1d
0m
0s
0=
0>
0H
1S
0b
0v
1|
0K
1\
1e
0n
#345000
1!
0-
1=
1>
09!
11!
02!
1:!
0B!
1;!
0C!
1D!
1,!
04!
0=!
1E!
0-!
16!
0>!
1F!
1?!
0G!
1/!
07!
00!
1r
1W
1O
0F
04
15
16
19
0$!
1}
0w
1#!
0y
0t
0x
0q
0o
1f
1p
0h
0c
1g
1]
1T
0V
1Q
0U
0L
0I
0M
1E
0,
1+
1*
1'
1$!
1y
1q
0p
1h
1V
0N
0q
#350000
b10101100 #
b1101 "
b11101100 #
b11101110 #
0!
1-
0d
1G
1X
1u
0=
0>
0e
1H
1Y
1v
#355000
1!
0-
1=
1>
1)!
0*!
12!
0:!
0;!
1<!
0D!
0,!
1=!
15!
1.!
1>!
0?!
0/!
17!
0r
0O
1F
14
05
09
0&!
0$!
0#!
1w
1x
1q
0f
1_
1Z
1^
1U
1I
1,
0+
0'
1'!
1&!
1$!
0y
0g
0_
0V
0'!
1p
0h
0x
0q
1y
#360000
b11001110 #
b1100 "
b10001100 "
b11001010 #
b10001000 "
b11011010 #
b10000000 "
b10010000 "
0!
1-
0?
0P
0[
1d
1~
0R
1a
0j
0=
0>
0@
0\
1e
1!!
0S
1b
0k
#365000
1!
0-
1=
1>
1A!
1*!
03!
0<!
1D!
14!
0E!
1-!
06!
0F!
1/!
0H!
0i
0W
06
08
1"!
1#!
0y
0l
0p
1h
1f
1c
0]
1_
0T
0Q
1N
0A
0*
0(
0&!
0$!
1x
1q
1'!
0#!
1y
1&!
1$!
0'!
#370000
b10010010 "
b10011010 #
b10011000 #
b10111000 #
b10010 "
b10111100 #
b10110 "
b110 "
0!
1-
0G
1R
1j
0u
1J
1P
0d
0~
0=
0>
0H
1S
1k
0v
1K
0e
0!!
#375000
1!
0-
1=
1>
19!
0A!
02!
0+!
13!
1<!
0D!
1,!
0=!
0.!
16!
0>!
1F!
1G!
07!
0@!
1r
1i
1`
1O
15
17
18
19
0&!
0$!
0"!
0w
0q
1l
1p
0f
0_
0^
1T
1Q
1L
0I
0E
1+
1)
1(
1'
1'!
1q
1g
1_
0h
