RTL/adder/adder_unsigned/simulation/qsim/adder.msim.vcd
$comment
	File created using the following command:
		vcd file adder.msim.vcd -direction
$end
$date
	Sat Aug 26 08:28:05 2023
$end
$version
	ModelSim Version 10.4
$end
$timescale
	1ps
$end

$scope module adder_vlg_vec_tst $end
$var reg 4 ! IN1 [3:0] $end
$var reg 4 " IN2 [3:0] $end
$var wire 1 # OUT [4] $end
$var wire 1 $ OUT [3] $end
$var wire 1 % OUT [2] $end
$var wire 1 & OUT [1] $end
$var wire 1 ' OUT [0] $end
$var wire 1 ( sampler $end

$scope module i1 $end
$var wire 1 ) gnd $end
$var wire 1 * vcc $end
$var wire 1 + unknown $end
$var tri1 1 , devclrn $end
$var tri1 1 - devpor $end
$var tri1 1 . devoe $end
$var wire 1 / OUT[0]~output_o $end
$var wire 1 0 OUT[1]~output_o $end
$var wire 1 1 OUT[2]~output_o $end
$var wire 1 2 OUT[3]~output_o $end
$var wire 1 3 OUT[4]~output_o $end
$var wire 1 4 IN2[0]~input_o $end
$var wire 1 5 IN1[0]~input_o $end
$var wire 1 6 Add0~0_combout $end
$var wire 1 7 IN2[1]~input_o $end
$var wire 1 8 IN1[1]~input_o $end
$var wire 1 9 Add0~1 $end
$var wire 1 : Add0~2_combout $end
$var wire 1 ; IN1[2]~input_o $end
$var wire 1 < IN2[2]~input_o $end
$var wire 1 = Add0~3 $end
$var wire 1 > Add0~4_combout $end
$var wire 1 ? IN1[3]~input_o $end
$var wire 1 @ IN2[3]~input_o $end
$var wire 1 A Add0~5 $end
$var wire 1 B Add0~6_combout $end
$var wire 1 C Add0~7 $end
$var wire 1 D Add0~8_combout $end
$upscope $end
$upscope $end
$enddefinitions $end
#0
$dumpvars
b100 !
b0 "
0'
0&
1%
0$
0#
x(
0)
1*
x+
1,
1-
1.
0/
00
11
02
03
04
05
06
07
08
09
0:
1;
0<
1=
1>
0?
0@
0A
0B
1C
0D
$end
#10000
b1100 !
b1000 !
b1001 !
b1000 "
b1100 "
0(
1<
1@
15
0;
1?
0C
16
1/
1D
1'
13
1#
#20000
b1110 "
b1111 "
b1101 !
b1100 !
b111 "
b11 "
1(
05
1;
14
17
0<
0@
1:
0D
1C
1B
12
03
10
1D
1$
0#
1&
13
1#
#30000
b1110 !
b1 "
b1010 !
0(
07
18
0;
0>
01
0%
#40000
b10 !
b0 "
b11 !
b1000 "
1(
04
1@
15
0?
#50000
b111 !
b1001 "
0(
14
1;
19
06
1>
11
0/
0=
0:
1%
0'
00
1A
0>
0&
01
0C
0B
0%
02
0D
0$
03
0#
#60000
b101 !
b1011 "
b11 "
b1 !
1(
17
0@
08
0;
1D
1C
1B
0A
1>
11
12
13
0D
0B
1%
1$
1#
02
03
0$
0#
#70000
b111 "
b0 !
b1111 "
0(
05
1<
1@
09
16
1A
0>
1D
1B
12
13
01
1/
1=
1:
0C
0B
1$
1#
0%
1'
02
10
0A
1>
0D
0$
1&
03
11
1C
1B
0#
1%
12
1D
1$
13
1#
#80000
b1000 !
b1110 "
b1010 !
b1100 "
b1000 "
b1011 !
1(
04
07
0<
15
18
1?
0>
0D
0C
0B
02
03
01
1D
0$
0#
0%
13
1#
#90000
b11 !
b1001 "
b1011 "
b1111 "
0(
14
17
1<
0?
19
06
0=
0:
1>
0D
1C
1B
12
03
11
00
0/
1:
1A
0>
1D
1$
0#
1%
0&
0'
13
01
10
0C
0B
1#
0%
1&
02
0D
0$
03
0#
#100000
b111 !
b1110 "
b1100 "
b1000 "
1(
04
07
0<
1;
09
16
0:
00
1/
1=
1:
0&
1'
10
0A
1>
1&
11
1C
1B
1%
12
1D
1$
13
1#
#110000
b0 "
b101 !
b1 "
b11 "
0(
08
14
17
0@
19
06
0D
0B
02
03
0/
0=
0:
0$
0#
0'
00
1A
0>
0&
01
1B
0%
12
1$
#120000
b1 !
b111 "
b11 !
b110 "
1(
04
1<
18
0;
09
16
1:
10
1/
0:
1&
1'
00
0&
#130000
b10 !
b1110 "
b0 !
0(
1@
05
08
1D
0C
0B
06
1=
1:
10
0/
02
13
0D
0A
1>
1&
0'
0$
1#
11
03
1C
1B
1%
0#
12
1D
1$
13
1#
#140000
b1000 !
b1100 !
b1010 "
b1011 "
b11 "
b1110 !
1(
14
0<
0@
18
1;
1?
16
0=
0:
00
1/
1A
0>
0&
1'
01
0C
0B
0%
02
0D
0$
03
0#
#150000
b1111 !
b111 !
b11 !
b1011 "
b1 !
0(
1@
15
08
0;
0?
19
06
1=
1:
0A
1>
11
10
0/
0=
0:
0>
1C
1B
1%
1&
0'
12
01
00
1>
1D
1$
0%
0&
13
11
1#
1%
#160000
b1001 "
b1 "
1(
07
0@
1=
1:
0D
0B
02
03
10
0>
0$
0#
1&
01
0%
#170000
b0 !
b10 !
b1001 "
0(
1@
05
18
1D
1B
09
16
0=
0:
00
1/
12
13
1=
1:
1>
0&
1'
1$
1#
11
10
0>
1%
1&
01
0%
#180000
b1000 "
b1010 !
b1010 "
b10 "
1(
1?
04
17
0@
06
0=
0:
00
0/
1>
0&
0'
11
1%
#190000
b110 "
b1110 !
b111 "
b101 "
0(
1;
14
07
1<
1A
16
1=
1:
10
1/
0C
0B
0>
1&
1'
01
02
0D
0%
0$
03
0#
#200000
b110 !
b1 "
b11 "
1(
17
0<
0?
0=
0:
0A
1>
1D
1C
1B
12
13
11
00
1A
0>
0B
0D
1$
1#
1%
0&
03
02
01
1B
0#
0$
0%
12
1$
#210000
b100 !
b10 "
b1100 !
0(
04
08
1?
06
1=
1:
1D
0C
0B
02
13
10
0/
0A
1>
0D
0$
1#
1&
0'
03
11
1C
1B
0#
1%
12
1D
1$
13
1#
#220000
b1101 !
b1010 "
b1001 !
b1110 "
b1111 "
1(
14
1<
1@
15
0;
19
0D
0C
0B
02
03
0=
0:
1D
0$
0#
13
00
1A
0>
1#
0&
01
1B
0%
12
1$
#230000
b1101 "
b1011 !
b1111 !
b1001 "
b1000 "
0(
18
1;
04
07
0<
09
16
1/
1=
1:
1'
10
0A
1>
1&
11
0B
1%
02
0$
#240000
b0 "
b1101 !
b1001 !
1(
08
0;
0@
0:
0>
0D
1C
1B
12
03
01
00
1D
1$
0#
0%
0&
13
1#
#250000
b1 !
b0 !
b10 "
b110 "
0(
17
1<
05
0?
1:
1>
06
0D
0B
02
03
0/
11
10
0$
0#
0'
1%
1&
#260000
b1110 "
b10 !
b110 !
b1110 !
b1111 !
b1010 "
1(
15
18
1;
1?
0<
1@
16
0=
0:
0C
00
1/
1A
0>
1D
0&
1'
13
01
1B
1#
0%
12
1$
#270000
b1000 "
b0 "
b100 "
0(
07
1<
0@
1=
1:
1>
0D
0B
02
03
11
10
0>
0$
0#
1%
1&
01
0%
#280000
b101 "
b1101 !
b101 !
b111 "
b11 "
1(
08
0?
14
17
0<
1D
1C
1B
19
06
0A
1>
11
0/
12
13
0D
0=
0:
0B
1%
0'
1$
1#
02
00
03
1A
0>
0$
0&
0#
01
1B
0%
12
1$
#290000
b1 !
b1011 "
b1010 "
b1110 "
0(
04
1<
1@
0;
09
16
1D
0C
0B
02
13
1/
1=
1:
0D
0$
1#
1'
03
10
0A
1>
0#
1&
11
1C
1B
1%
12
1D
1$
13
1#
#300000
b0 !
b10 !
b1100 "
b110 !
b1101 "
b1001 "
1(
14
07
0<
05
18
1;
#310000
b1110 !
b1111 !
b1011 "
b1010 "
b1110 "
0(
04
17
1<
15
1?
0=
0:
1A
0>
0D
0C
0B
02
03
01
00
1>
1B
1D
0$
0#
0%
0&
13
12
11
1#
1$
1%
#320000
b1011 !
b1111 "
b1011 "
1(
14
0<
0;
19
06
0A
0/
1:
0B
0'
02
10
0$
1&
#330000
b11 "
b11 !
b111 !
b111 "
0(
1;
0?
1<
0@
1A
1C
1B
0D
03
12
0#
1$
#340000
b101 !
b110 "
b1101 !
b1001 !
b10 "
1(
04
0<
08
0;
1?
09
16
0A
0:
1D
0C
0B
02
13
00
1/
1=
1:
1C
1B
0D
0$
1#
0&
1'
03
12
10
0>
1D
0#
1$
1&
13
01
1#
0%
#350000
b0 "
b1000 "
b1011 !
b11 !
b1100 "
0(
18
0?
07
1<
1@
1>
11
1%
#360000
b1110 "
b110 "
b1 !
1(
08
17
0@
0D
0B
02
03
0$
0#
#370000
b1001 !
b1110 "
b1011 !
0(
1@
18
1?
0C
0=
0:
00
1D
1A
0>
0&
01
13
1B
0%
1#
12
1$
#380000
b1010 "
b11 !
1(
0?
0<
0D
0B
0A
1>
11
02
03
1C
1B
1%
0$
0#
12
1D
1$
13
1#
#390000
b1000 "
b1 !
b1100 "
0(
08
07
1<
1=
1A
0>
01
0A
1>
0C
0B
0%
02
11
1C
1B
0D
0$
1%
03
12
1D
0#
1$
13
1#
#400000
b1101 "
b101 "
b1001 !
1(
1?
14
0@
19
06
0/
1:
0'
10
1&
#410000
b1000 !
b1100 !
b111 "
b1110 !
b110 "
b1110 "
b110 !
0(
04
17
1@
05
18
1;
0?
09
0=
1A
0>
01
0:
1>
0C
0B
0%
02
11
00
0D
0$
1%
0&
03
0#
#420000
b111 !
b101 !
b1111 "
1(
14
15
08
19
1=
1:
10
0=
0:
0>
1&
01
00
1>
0%
0&
11
1%
#430000
b1 !
b1101 "
b101 "
b0 !
b10 !
b100 "
0(
04
07
0@
05
18
0;
09
1D
1C
1B
0>
01
12
13
1=
1:
0D
0%
1$
1#
03
10
0A
1>
0#
1&
11
0B
1%
02
0$
#440000
b0 "
b110 !
b10 "
1(
1;
17
0<
0=
0:
00
1A
0>
0&
01
1B
0%
12
1$
#450000
b1110 !
b1010 "
b1111 !
b1011 "
b1011 !
b1001 "
0(
14
07
1@
15
0;
1?
19
1=
1:
0C
0A
1>
11
10
0=
0:
0>
1D
0B
1%
1&
02
13
01
00
1>
0$
1#
0%
0&
11
1%
#460000
b1001 !
b1101 "
b1 !
b101 "
b0 !
b100 "
b110 "
1(
04
17
1<
0@
05
08
0?
09
1A
0>
1C
01
1=
1:
1B
0D
0%
03
12
10
0A
1>
0#
1$
1&
11
0B
1%
02
0$
#470000
b100 !
b1100 !
b1110 "
b1101 !
0(
1@
15
1;
1?
0C
16
1A
0>
01
1/
1D
1B
0%
1'
12
13
1$
1#
#480000
b1111 !
b1010 "
b1000 "
1(
07
0<
18
0A
1>
11
0B
1%
02
0$
#490000
b1011 !
b0 "
b1010 !
b100 "
b110 "
0(
17
1<
0@
05
0;
0=
0:
0D
1C
1B
06
0/
12
03
00
1A
0>
1D
0'
1$
0#
0&
13
01
0C
0B
1#
0%
02
0D
0$
03
0#
#500000
b111 "
b10 !
b101 "
1(
0?
14
07
1D
1C
1B
16
1=
1:
10
1/
12
13
0D
0A
1>
1&
1'
1$
1#
11
03
0B
1%
0#
02
0$
#510000
b0 !
b100 !
b1101 "
b1001 "
b1011 "
0(
17
0<
1@
08
1;
1D
1B
12
13
1$
1#
#520000
b1100 !
b1110 !
b11 "
1(
0@
18
1?
0=
0:
00
1A
0>
0&
01
0C
0B
0%
02
0D
0$
03
0#
#530000
b1111 !
b10 "
b0 "
b1101 !
0(
04
07
15
08
1=
0A
1>
11
1C
1B
1%
12
1D
1$
13
1#
#540000
b1001 !
b100 "
b1 !
b1100 "
b0 !
b10 !
1(
1<
1@
05
18
0;
0?
06
1:
10
0/
1&
0'
#550000
b1101 "
b1111 "
b111 "
b0 !
0(
08
14
17
0@
16
0D
0B
02
03
1/
0$
0#
1'
#560000
b1000 !
b110 "
b1010 !
1(
04
18
1?
06
0=
0:
1D
1B
12
13
00
0/
1A
0>
1$
1#
0&
0'
01
0C
0B
0%
02
0D
0$
03
0#
#570000
b10 "
b1011 !
b0 "
b1000 "
b1001 "
b1001 !
0(
15
08
14
07
0<
1@
19
1=
0A
1>
1D
1B
12
13
11
1:
0>
0B
1$
1#
1%
02
01
10
0$
0%
1&
#580000
b1 !
b0 !
b1011 "
1(
17
05
0?
0=
0:
09
16
0D
1C
1B
12
03
1/
00
1>
1=
1:
1D
1$
0#
1'
0&
13
10
11
0>
1#
1&
1%
01
0%
#590000
b100 !
b1111 "
b1110 "
b110 !
b1100 "
0(
04
07
1<
18
1;
06
1A
0/
0C
0B
0'
02
0D
0$
03
0#
#600000
b100 !
1(
08
0:
00
0&
#610000
b100 "
b1100 !
b1101 !
b1001 !
b0 "
b1011 !
0(
15
18
0;
1?
0<
0@
16
1:
0A
10
1/
1C
1B
1&
1'
12
1D
1$
13
1#
#620000
b10 "
b1010 !
1(
05
17
06
0=
0:
00
0/
1>
0&
0'
11
1%
#630000
b10 !
b110 !
b100 !
0(
08
1;
0?
1=
1:
1A
0>
0D
0B
02
03
01
10
0A
1>
1B
0$
0#
0%
1&
12
11
0B
1$
1%
02
0$
#640000
b11 "
b1011 "
b1001 "
b101 !
b1101 !
1(
15
1?
14
07
1@
19
0C
0:
00
1:
1D
0&
13
10
1#
1&
#650000
b1101 "
b1100 "
b100 "
b110 "
b1100 !
0(
05
04
17
1<
0@
09
0=
0:
1A
0>
0D
1C
1B
12
03
01
00
1=
1:
1>
0C
0B
1D
1$
0#
0%
0&
13
02
11
10
0>
0D
1#
0$
1%
1&
03
01
0#
0%
#660000
b1000 !
b0 !
b10 "
b1 !
1(
0<
15
0;
0?
0A
16
1D
1C
1B
12
13
1/
0B
0D
1$
1#
1'
03
02
0#
0$
#670000
b0 "
0(
07
0:
00
0&
#680000
b11 !
b111 !
b1111 !
b100 "
1(
1<
18
1;
1?
1A
1:
1D
1B
12
13
10
0C
0B
1$
1#
1&
02
0D
0$
03
0#
#690000
b1110 !
b110 "
b1010 !
b10 "
0(
17
0<
05
0;
0=
0:
0A
06
0/
00
1>
1C
1B
0'
0&
12
11
1D
1$
1%
13
1#
#700000
b1011 !
b0 "
b100 "
1(
07
1<
15
1=
1:
1A
0>
16
1/
01
10
0A
1>
0C
0B
1'
0%
1&
02
11
1C
1B
0D
0$
1%
03
12
1D
0#
1$
13
1#
#710000
b101 "
b1101 "
b1001 !
b1 !
b101 !
b100 !
b1111 "
b1011 "
0(
05
08
1;
0?
14
17
0<
1@
#720000
b1010 "
b1100 !
b1000 !
b1001 !
b1000 "
b1100 "
1(
15
0;
1?
04
07
1<
0D
0C
0B
0:
00
02
03
1D
0&
0$
0#
13
1#
#730000
b1101 "
b1 !
b0 !
0(
05
0?
14
0D
1C
1B
12
03
1D
1$
0#
13
1#
#740000
b101 "
b111 "
b110 "
b1000 !
1(
1?
04
17
0@
06
1:
10
0/
1&
0'
#750000
b1010 !
b1110 !
b10 "
b1111 !
b1010 "
b1011 "
b111 !
0(
14
0<
1@
15
18
1;
0?
19
0=
0:
00
1:
1A
0>
0&
01
10
0C
0B
0%
1&
02
0D
0$
03
0#
#760000
b1001 "
b11 !
b10 !
b1 "
b0 "
1(
05
0;
04
07
0@
09
0A
1>
0:
1D
1C
1B
12
13
00
11
1=
1:
0B
0D
1$
1#
0&
1%
03
02
10
0>
0#
0$
1&
01
0%
#770000
b100 "
b1010 !
b110 "
0(
1?
17
1<
1D
1B
0=
0:
1>
11
00
12
13
1A
0>
1%
0&
1$
1#
01
0C
0B
0%
02
0D
0$
03
0#
#780000
b1000 !
b1001 !
b1110 "
b1010 "
b1 !
1(
0<
1@
15
08
0?
0A
1>
16
1=
1:
10
1/
11
1C
1B
0>
1&
1'
1%
01
12
1D
0%
1$
13
1#
#790000
b101 !
b1011 "
0(
14
1;
19
06
1>
11
0/
0=
0:
1%
0'
00
1A
0>
0&
01
0C
0B
0%
02
0D
0$
03
0#
#800000
b1001 "
b111 !
b110 !
b1 "
b10 !
1(
05
18
0;
07
0@
09
16
0A
1>
1D
1C
1B
12
13
11
1/
1=
1:
0B
0D
1$
1#
1%
1'
03
02
10
0>
0#
0$
1&
01
0%
#810000
b101 "
b100 "
0(
04
1<
06
1>
11
0/
1%
0'
#820000
b110 "
b0 !
b1 !
b111 "
1(
15
08
14
17
19
0=
0:
00
1A
0>
0&
01
1B
0%
12
1$
#830000
b1111 "
b1011 "
b1001 "
b0 !
0(
05
07
0<
1@
09
16
1=
1:
0A
1>
1D
0C
0B
02
13
11
10
1/
0:
0>
1C
1B
0D
0$
1#
1%
1&
1'
03
12
01
00
1D
0#
1$
0%
0&
13
1#
#840000
b1000 !
b1010 !
b1011 "
b1011 !
1(
17
15
18
1?
0=
19
06
0D
0C
0B
02
03
0/
1>
1:
1D
0$
0#
0'
13
10
11
1#
1&
1%
#850000
b1010 "
b10 "
b110 "
b1010 !
0(
05
04
1<
0@
09
1A
0>
0D
1C
1B
12
03
01
0:
0C
0B
1D
1$
0#
0%
13
02
00
0D
1#
0$
0&
03
0#
#860000
b1110 !
b110 !
b111 "
b1111 "
1(
14
1@
1;
0?
16
1>
11
1/
1%
1'
#870000
b100 !
b101 !
0(
15
08
19
06
1=
1:
10
0/
0=
0:
0>
1&
0'
01
00
1>
0%
0&
11
1%
#880000
b1101 !
b111 "
b1100 !
1(
0@
05
1?
09
16
1/
1=
1:
1'
10
0>
1&
01
0%
#890000
b110 "
b1101 !
0(
15
04
#900000
b100 "
b1001 !
b1011 !
b11 !
b1100 "
b1101 "
b10 !
1(
05
18
0;
0?
14
07
1@
0A
1>
11
1C
1B
1%
12
1D
1$
13
1#
#910000
b1001 "
b1011 "
b0 !
b1000 !
0(
08
1?
17
0<
0D
0C
0B
0>
01
02
03
1D
0%
0$
0#
13
1#
#920000
b11 "
b1001 !
b1011 !
1(
15
18
0@
19
06
0=
0:
0D
1C
1B
12
03
00
0/
1:
1>
1D
1$
0#
0&
0'
13
11
10
1#
1%
1&
#930000
b1111 !
b111 "
b101 "
b111 !
b110 !
0(
07
1<
05
1;
0?
0:
1A
09
16
0D
0B
02
03
1/
00
1B
1=
1:
0$
0#
1'
0&
10
12
0>
1&
1$
01
0%
#940000
b100 "
b1100 "
b100 !
b1110 "
1(
08
04
17
1@
06
1D
0C
0B
02
13
0/
0D
0$
1#
0'
03
0#
#950000
b0 !
b110 "
b10 !
0(
0@
18
0;
1D
1C
1B
0=
0:
0A
1>
11
00
12
13
0D
1A
0>
0B
1%
0&
1$
1#
02
01
03
1B
0$
0%
0#
12
1$
#960000
b1010 !
b111 "
b1000 !
1(
14
08
1?
16
1=
1:
1D
0C
0B
02
13
10
1/
0A
1>
0D
0$
1#
1&
1'
03
11
1C
1B
0#
1%
12
1D
1$
13
1#
#970000
b1100 !
b100 !
b110 !
0(
18
1;
0?
0=
0:
1A
0>
0D
0B
02
03
01
00
1>
1B
0$
0#
0%
0&
12
11
1$
1%
#980000
b111 !
b101 "
b1101 "
b1111 !
b1101 !
1(
07
1@
15
08
1?
1=
0C
19
06
0/
0>
1D
1:
0'
10
13
01
1&
1#
0%
#990000
b1001 !
b1000 !
b0 !
0(
05
0;
0?
09
16
0A
1>
0D
0B
02
03
11
1/
0:
1C
1B
0$
0#
1%
1'
12
00
1D
1$
0&
13
1#
