RTL/priority_encoder/simulation/qsim/8_encoder.msim.vcd
$comment
	File created using the following command:
		vcd file 8_encoder.msim.vcd -direction
$end
$date
	Tue Aug 22 19:23:56 2023
$end
$version
	ModelSim Version 10.4
$end
$timescale
	1ps
$end

$scope module encoder8_vlg_vec_tst $end
$var reg 8 ! IN [7:0] $end
$var wire 1 " OUT [3] $end
$var wire 1 # OUT [2] $end
$var wire 1 $ OUT [1] $end
$var wire 1 % OUT [0] $end
$var wire 1 & sampler $end

$scope module i1 $end
$var wire 1 ' gnd $end
$var wire 1 ( vcc $end
$var wire 1 ) unknown $end
$var tri1 1 * devclrn $end
$var tri1 1 + devpor $end
$var tri1 1 , devoe $end
$var wire 1 - OUT[0]~output_o $end
$var wire 1 . OUT[1]~output_o $end
$var wire 1 / OUT[2]~output_o $end
$var wire 1 0 OUT[3]~output_o $end
$var wire 1 1 IN[1]~input_o $end
$var wire 1 2 IN[4]~input_o $end
$var wire 1 3 IN[0]~input_o $end
$var wire 1 4 IN[6]~input_o $end
$var wire 1 5 OUT~1_combout $end
$var wire 1 6 IN[2]~input_o $end
$var wire 1 7 IN[7]~input_o $end
$var wire 1 8 IN[3]~input_o $end
$var wire 1 9 IN[5]~input_o $end
$var wire 1 : OUT~0_combout $end
$var wire 1 ; OUT~2_combout $end
$var wire 1 < OUT~4_combout $end
$var wire 1 = OUT~3_combout $end
$var wire 1 > OUT~5_combout $end
$var wire 1 ? OUT~6_combout $end
$var wire 1 @ OUT~7_combout $end
$var wire 1 A OUT~8_combout $end
$var wire 1 B OUT~9_combout $end
$upscope $end
$upscope $end
$enddefinitions $end
#0
$dumpvars
b10100100 !
1%
1$
1#
0"
x&
0'
1(
x)
1*
1+
1,
1-
1.
1/
00
01
02
03
04
15
16
17
08
19
1:
1;
0<
1=
1>
0?
1@
1A
1B
$end
#10000
b11100100 !
b11110100 !
0&
12
14
0@
0:
05
#20000
b11010100 !
1&
09
#30000
b1010100 !
b1011100 !
b1011000 !
b1011010 !
b1011011 !
b11011 !
b111011 !
0&
13
11
06
18
19
04
07
0;
1:
0>
0.
0-
1;
0$
0%
1-
1%
#40000
b10111011 !
b10110011 !
b11110011 !
1&
08
14
17
0=
0:
1>
1.
1$
#50000
b11100011 !
b11100111 !
b1100111 !
0&
16
02
07
1=
0;
0-
0%
#60000
b1100110 !
b1000110 !
b11000110 !
1&
03
09
17
1<
1;
1-
1%
#70000
b11000100 !
b11010100 !
0&
01
12
0<
#80000
b11011100 !
b11011000 !
b11011001 !
b1011001 !
b1011011 !
b1001011 !
1&
13
11
06
18
02
07
0;
1<
0-
0%
#90000
b1011 !
b101011 !
b100011 !
b100010 !
b10100010 !
b10110010 !
0&
03
08
12
19
04
17
0=
1:
0<
1;
1-
1%
#110000
b10010010 !
b10011010 !
b11010 !
b1010 !
1&
18
02
09
07
1=
1@
1<
15
0>
0.
1>
0A
0$
0/
1.
0#
1$
#120000
b1110 !
b1111 !
b101111 !
b100111 !
b10100111 !
0&
13
16
08
19
17
1A
0<
1/
1#
#130000
b10100101 !
b11100101 !
b11100001 !
b11100000 !
b1100000 !
1&
03
01
06
14
07
1?
05
0@
0:
0;
0-
0%
#140000
b1000000 !
b1001000 !
b1001100 !
b11001100 !
0&
16
18
09
17
0?
1;
1<
1-
1%
#150000
b10001100 !
b10001000 !
b1000 !
1&
06
04
07
0;
1@
1:
15
0-
0A
1;
0%
1-
0/
1%
0#
#160000
b101000 !
b100000 !
b1100000 !
0&
08
19
14
1?
0:
1A
0<
0@
05
1/
0;
1#
0-
0%
#170000
b1110000 !
b1110010 !
b1111010 !
b111010 !
1&
11
18
12
04
0?
1:
0>
0.
1;
0$
1-
1%
#180000
b111110 !
b10111110 !
b10101110 !
b10101100 !
b10100100 !
b11100100 !
0&
01
16
08
02
14
17
0:
1>
1.
1$
#190000
b11100000 !
b11110000 !
b11110010 !
b11111010 !
1&
11
06
18
12
#200000
b11111011 !
b11101011 !
b11101001 !
0&
13
01
02
#210000
b1101001 !
b101001 !
b111001 !
1&
12
04
07
1:
0>
0;
0-
0.
1;
0%
0$
1-
1%
#220000
b1111001 !
b1101001 !
0&
02
14
0:
1>
1.
0;
1$
0-
0%
#230000
b1001001 !
b1000001 !
b1000011 !
b11 !
b10011 !
1&
11
08
12
09
04
0=
0>
0.
0$
#240000
b10111 !
b10110 !
b11110 !
b1110 !
0&
03
16
18
02
1=
15
1:
1@
1<
1>
1;
0A
0/
1-
1.
0#
1%
1$
#250000
b101110 !
b101100 !
b1101100 !
b1101000 !
b1101001 !
b1111001 !
1&
13
01
06
12
19
14
05
0@
0<
0:
1A
1/
0;
1#
0-
0%
#260000
b1110001 !
b110001 !
b110101 !
b110100 !
b100100 !
0&
03
16
08
02
04
15
1:
1@
0>
0.
1;
0$
1-
1%
#270000
b10100100 !
b10101100 !
b10101000 !
b10101001 !
1&
13
06
18
17
05
1>
1.
1$
#280000
b10001001 !
b11001001 !
b11011001 !
b11011101 !
b11011100 !
0&
03
16
12
09
14
0@
0:
#290000
b1011100 !
b1010100 !
b1110100 !
b1110000 !
b1110001 !
1&
13
06
08
19
07
0=
0;
0-
0%
#300000
b110001 !
b10110001 !
b10111001 !
b10011001 !
b10011101 !
0&
16
18
09
04
17
1=
1;
1-
1%
#310000
b11011101 !
1&
14
#320000
b11011111 !
b1011111 !
b1111111 !
b111111 !
0&
11
19
04
07
1:
0>
0;
0-
0.
1;
0%
0$
1-
1%
#330000
b101111 !
b101101 !
b10101101 !
1&
01
02
17
1@
1>
1.
1$
#340000
b10100101 !
b10100001 !
b11100001 !
0&
06
08
14
0=
0:
0@
#360000
b11100011 !
b1100011 !
b1100111 !
1&
11
16
07
1=
0;
0-
0%
#370000
b100111 !
b100101 !
0&
01
04
1@
0>
1:
0.
1;
0$
1-
1%
#380000
b100100 !
b10100100 !
b10100000 !
b11100000 !
b11100010 !
1&
03
11
06
14
17
0=
0@
1>
0:
1.
1$
#390000
b11000010 !
b11010010 !
b10010010 !
b10010000 !
0&
01
12
09
04
1?
1=
#400000
b10011000 !
b10011001 !
b10011101 !
b10111101 !
b10101101 !
b10101111 !
1&
13
11
16
18
02
19
0?
15
1:
1@
#410000
b101111 !
b101110 !
b101010 !
b101000 !
0&
03
01
06
07
0>
0.
0$
#420000
b1000 !
b11000 !
b10011000 !
b10011010 !
1&
11
12
09
17
05
0@
0:
1>
1.
1$
#430000
b11011010 !
b11010010 !
b11000010 !
b1000010 !
b1000000 !
0&
01
08
02
14
07
1?
1<
0;
0-
0%
#440000
b1100000 !
b100000 !
b10100000 !
1&
19
04
17
0<
1:
1@
15
1;
1-
1%
#450000
b10100001 !
b10101001 !
b10111001 !
b111001 !
0&
13
18
12
07
0?
05
0@
0>
0.
0$
#460000
b111011 !
b111010 !
b110010 !
1&
03
11
08
0=
#470000
b10010 !
b1010010 !
b1000010 !
b11000010 !
b11000011 !
b11001011 !
0&
13
18
02
09
14
17
1=
0:
1<
1>
1.
1$
#480000
b11101011 !
b11101010 !
1&
03
19
0<
#490000
b11101110 !
b11101100 !
b10101100 !
b101100 !
b1100 !
0&
01
16
09
04
07
15
0;
1<
1:
1@
0>
0.
0-
1;
1>
0A
0$
0%
0/
1.
1-
0#
1$
1%
#500000
b1000 !
b1001000 !
b1101000 !
1&
06
19
14
1A
0<
0:
0@
05
1/
0;
1#
0-
0%
#510000
b1111000 !
b1110000 !
b1110010 !
b11110010 !
b11110110 !
b11010110 !
0&
11
16
08
12
09
17
1;
1-
1%
#520000
b11000110 !
b11000100 !
b11100100 !
1&
01
02
19
#530000
b10100100 !
b100100 !
b100000 !
b110000 !
b110010 !
b10010 !
0&
11
06
12
09
04
07
0=
0;
0>
0.
0-
0$
0%
#540000
b10011 !
b1010011 !
b1000011 !
1&
13
02
14
1<
1>
1.
1$
#550000
b1001011 !
b11001011 !
b11101011 !
b10101011 !
b10111011 !
0&
18
12
19
04
17
1=
1:
0<
1;
1-
1%
#560000
b10111010 !
b111010 !
b11010 !
1&
03
09
07
0:
0>
0.
0;
0$
0-
0%
#570000
b11000 !
b10000 !
b0 !
b1 !
b10000001 !
0&
13
01
08
02
17
0=
1@
1<
1>
1;
1-
1.
1%
1$
#580000
b10000101 !
b11000101 !
b11100101 !
b11110101 !
b11110100 !
b1110100 !
1&
03
16
12
19
14
07
1=
0;
0@
0<
0-
0%
#590000
b1110110 !
b1111110 !
b1111010 !
b111010 !
b111011 !
0&
13
11
06
18
04
1:
0>
0.
1;
0$
1-
1%
#600000
b101011 !
b101001 !
b1101001 !
1&
01
02
14
0:
1>
1.
0;
1$
0-
0%
#610000
b1100001 !
b1100101 !
b1100100 !
b1110100 !
b1110110 !
b110110 !
0&
03
11
16
08
12
04
1:
0>
0.
1;
0$
1-
1%
#620000
b10110 !
b10010110 !
b10011110 !
1&
18
09
17
0:
1>
1.
1$
#630000
b10011010 !
b10011011 !
b10001011 !
b11001011 !
b11101011 !
0&
13
06
02
19
14
#640000
b11101001 !
b1101001 !
b1100001 !
b1100000 !
1&
03
01
08
07
1?
0;
0-
0%
#650000
b100000 !
b10100000 !
b10100001 !
0&
13
04
17
0?
0=
1@
1:
1;
1-
1%
#660000
b10100101 !
b10110101 !
b10010101 !
b10010111 !
b11010111 !
b11010110 !
1&
03
11
16
12
09
14
1=
0@
0:
#670000
b11000110 !
b11100110 !
b10100110 !
b10100111 !
0&
13
02
19
04
15
1@
1:
#680000
b10100011 !
b10100001 !
b10110001 !
b11110001 !
b11110000 !
1&
03
01
06
12
14
1?
05
0@
0:
#690000
b11110010 !
b10110010 !
b10110011 !
0&
13
11
04
0?
0=
1:
#700000
b110011 !
b1110011 !
1&
14
07
0:
0;
0-
0%
#710000
b1010011 !
b1010111 !
b1000111 !
b1000110 !
0&
03
16
02
09
1=
1<
#720000
b1000100 !
b11000100 !
b11010100 !
1&
01
12
17
0<
1;
1-
1%
#730000
b11010101 !
b11010111 !
b1010111 !
b1000111 !
0&
13
11
02
07
1<
0;
0-
0%
#740000
b1001111 !
b1101111 !
b1101110 !
b1101100 !
1&
03
01
18
19
0<
#750000
b101100 !
0&
04
1@
0>
1:
15
0.
1;
0$
1-
1%
#760000
b101000 !
b10101000 !
b10100000 !
b10100001 !
b11100001 !
1&
13
06
08
14
17
0=
05
0:
0@
1>
1.
1$
#770000
b11110001 !
b11110011 !
b11110111 !
b1110111 !
b1110110 !
b110110 !
0&
03
11
16
12
04
07
1=
0;
1:
0>
0.
0-
1;
0$
0%
1-
1%
#780000
b100110 !
b100100 !
b10100100 !
b10100101 !
b11100101 !
1&
13
01
02
14
17
0:
1>
1.
1$
#790000
b11101101 !
b11101001 !
b11101000 !
b10101000 !
0&
03
06
18
04
15
1:
1@
#800000
b10101100 !
b11101100 !
1&
16
14
0@
0:
05
#810000
b11001100 !
0&
09
1<
#820000
b11001101 !
b11001001 !
b11101001 !
1&
13
06
19
0<
#830000
b11111001 !
b11111011 !
b1111011 !
b1110011 !
b1110111 !
b1010111 !
0&
11
16
08
12
09
07
0;
0-
0%
#840000
b1010110 !
b1000110 !
b11000110 !
b11000010 !
b11100010 !
1&
03
06
02
19
17
0=
1;
1-
1%
#850000
b11110010 !
b11110110 !
b11010110 !
0&
16
12
09
1=
#860000
b10010110 !
b10010100 !
b10010101 !
b10101 !
b110101 !
1&
13
01
19
04
07
1:
0>
0;
0-
0.
1;
0%
0$
1-
1%
#870000
b111101 !
b101101 !
b1101 !
0&
18
02
09
1@
1<
0A
1>
1.
0/
1$
0#
#880000
b1001 !
b1001001 !
b1001011 !
b11001011 !
b11000011 !
1&
11
06
08
14
17
0=
0:
0@
1A
1/
1#
#890000
b11010011 !
b11011011 !
0&
18
12
1=
0<
#900000
b11111011 !
b11111111 !
b11111101 !
b11101101 !
b11100101 !
1&
01
16
08
02
19
#910000
b1100101 !
b1100111 !
b1110111 !
0&
11
12
07
0;
0-
0%
#920000
b1110110 !
b110110 !
b10110 !
b10010 !
b10010010 !
b10010000 !
b10000000 !
1&
03
01
06
02
09
04
17
1?
15
1;
1@
1<
1-
1%
#930000
b10000001 !
b11000001 !
b11000101 !
b11000111 !
0&
13
11
16
14
0?
05
0@
#940000
b11010111 !
b10010111 !
b10010101 !
1&
01
12
04
0<
#950000
b10110101 !
0&
19
1:
#960000
b10100101 !
b11100101 !
b11100111 !
1&
11
02
14
0:
#970000
b11100110 !
b11110110 !
b10110110 !
0&
03
12
04
1:
#980000
b10111110 !
b111110 !
b11110 !
b1011110 !
1&
18
09
14
07
0:
0;
0-
0%
#990000
b1011010 !
b1011011 !
b11011011 !
b10011011 !
0&
13
06
04
17
1;
1-
1%
