RTL/Mul/simulation/qsim/Mul_unsigned.msim.vcd
$comment
	File created using the following command:
		vcd file Mul_unsigned.msim.vcd -direction
$end
$date
	Fri Aug 25 21:19:45 2023
$end
$version
	ModelSim Version 10.4
$end
$timescale
	1ps
$end

$scope module Mul_unsigned_vlg_vec_tst $end
$var reg 8 ! IN1 [7:0] $end
$var reg 8 " IN2 [7:0] $end
$var wire 1 # OUT [15] $end
$var wire 1 $ OUT [14] $end
$var wire 1 % OUT [13] $end
$var wire 1 & OUT [12] $end
$var wire 1 ' OUT [11] $end
$var wire 1 ( OUT [10] $end
$var wire 1 ) OUT [9] $end
$var wire 1 * OUT [8] $end
$var wire 1 + OUT [7] $end
$var wire 1 , OUT [6] $end
$var wire 1 - OUT [5] $end
$var wire 1 . OUT [4] $end
$var wire 1 / OUT [3] $end
$var wire 1 0 OUT [2] $end
$var wire 1 1 OUT [1] $end
$var wire 1 2 OUT [0] $end
$var wire 1 3 sampler $end

$scope module i1 $end
$var wire 1 4 gnd $end
$var wire 1 5 vcc $end
$var wire 1 6 unknown $end
$var tri1 1 7 devclrn $end
$var tri1 1 8 devpor $end
$var tri1 1 9 devoe $end
$var wire 1 : Mult0|auto_generated|mac_out2~0 $end
$var wire 1 ; Mult0|auto_generated|mac_out2~1 $end
$var wire 1 < OUT[0]~output_o $end
$var wire 1 = OUT[1]~output_o $end
$var wire 1 > OUT[2]~output_o $end
$var wire 1 ? OUT[3]~output_o $end
$var wire 1 @ OUT[4]~output_o $end
$var wire 1 A OUT[5]~output_o $end
$var wire 1 B OUT[6]~output_o $end
$var wire 1 C OUT[7]~output_o $end
$var wire 1 D OUT[8]~output_o $end
$var wire 1 E OUT[9]~output_o $end
$var wire 1 F OUT[10]~output_o $end
$var wire 1 G OUT[11]~output_o $end
$var wire 1 H OUT[12]~output_o $end
$var wire 1 I OUT[13]~output_o $end
$var wire 1 J OUT[14]~output_o $end
$var wire 1 K OUT[15]~output_o $end
$var wire 1 L IN1[0]~input_o $end
$var wire 1 M IN1[1]~input_o $end
$var wire 1 N IN1[2]~input_o $end
$var wire 1 O IN1[3]~input_o $end
$var wire 1 P IN1[4]~input_o $end
$var wire 1 Q IN1[5]~input_o $end
$var wire 1 R IN1[6]~input_o $end
$var wire 1 S IN1[7]~input_o $end
$var wire 1 T IN2[0]~input_o $end
$var wire 1 U IN2[1]~input_o $end
$var wire 1 V IN2[2]~input_o $end
$var wire 1 W IN2[3]~input_o $end
$var wire 1 X IN2[4]~input_o $end
$var wire 1 Y IN2[5]~input_o $end
$var wire 1 Z IN2[6]~input_o $end
$var wire 1 [ IN2[7]~input_o $end
$var wire 1 \ Mult0|auto_generated|mac_mult1~dataout $end
$var wire 1 ] Mult0|auto_generated|mac_mult1~DATAOUT1 $end
$var wire 1 ^ Mult0|auto_generated|mac_mult1~DATAOUT2 $end
$var wire 1 _ Mult0|auto_generated|mac_mult1~DATAOUT3 $end
$var wire 1 ` Mult0|auto_generated|mac_mult1~DATAOUT4 $end
$var wire 1 a Mult0|auto_generated|mac_mult1~DATAOUT5 $end
$var wire 1 b Mult0|auto_generated|mac_mult1~DATAOUT6 $end
$var wire 1 c Mult0|auto_generated|mac_mult1~DATAOUT7 $end
$var wire 1 d Mult0|auto_generated|mac_mult1~DATAOUT8 $end
$var wire 1 e Mult0|auto_generated|mac_mult1~DATAOUT9 $end
$var wire 1 f Mult0|auto_generated|mac_mult1~DATAOUT10 $end
$var wire 1 g Mult0|auto_generated|mac_mult1~DATAOUT11 $end
$var wire 1 h Mult0|auto_generated|mac_mult1~DATAOUT12 $end
$var wire 1 i Mult0|auto_generated|mac_mult1~DATAOUT13 $end
$var wire 1 j Mult0|auto_generated|mac_mult1~DATAOUT14 $end
$var wire 1 k Mult0|auto_generated|mac_mult1~DATAOUT15 $end
$var wire 1 l Mult0|auto_generated|mac_mult1~0 $end
$var wire 1 m Mult0|auto_generated|mac_mult1~1 $end
$var wire 1 n Mult0|auto_generated|mac_out2~dataout $end
$var wire 1 o Mult0|auto_generated|mac_out2~DATAOUT1 $end
$var wire 1 p Mult0|auto_generated|mac_out2~DATAOUT2 $end
$var wire 1 q Mult0|auto_generated|mac_out2~DATAOUT3 $end
$var wire 1 r Mult0|auto_generated|mac_out2~DATAOUT4 $end
$var wire 1 s Mult0|auto_generated|mac_out2~DATAOUT5 $end
$var wire 1 t Mult0|auto_generated|mac_out2~DATAOUT6 $end
$var wire 1 u Mult0|auto_generated|mac_out2~DATAOUT7 $end
$var wire 1 v Mult0|auto_generated|mac_out2~DATAOUT8 $end
$var wire 1 w Mult0|auto_generated|mac_out2~DATAOUT9 $end
$var wire 1 x Mult0|auto_generated|mac_out2~DATAOUT10 $end
$var wire 1 y Mult0|auto_generated|mac_out2~DATAOUT11 $end
$var wire 1 z Mult0|auto_generated|mac_out2~DATAOUT12 $end
$var wire 1 { Mult0|auto_generated|mac_out2~DATAOUT13 $end
$var wire 1 | Mult0|auto_generated|mac_out2~DATAOUT14 $end
$var wire 1 } Mult0|auto_generated|mac_out2~DATAOUT15 $end
$var wire 1 ~ Mult0|auto_generated|mac_out2_DATAOUT_bus [17] $end
$var wire 1 !! Mult0|auto_generated|mac_out2_DATAOUT_bus [16] $end
$var wire 1 "! Mult0|auto_generated|mac_out2_DATAOUT_bus [15] $end
$var wire 1 #! Mult0|auto_generated|mac_out2_DATAOUT_bus [14] $end
$var wire 1 $! Mult0|auto_generated|mac_out2_DATAOUT_bus [13] $end
$var wire 1 %! Mult0|auto_generated|mac_out2_DATAOUT_bus [12] $end
$var wire 1 &! Mult0|auto_generated|mac_out2_DATAOUT_bus [11] $end
$var wire 1 '! Mult0|auto_generated|mac_out2_DATAOUT_bus [10] $end
$var wire 1 (! Mult0|auto_generated|mac_out2_DATAOUT_bus [9] $end
$var wire 1 )! Mult0|auto_generated|mac_out2_DATAOUT_bus [8] $end
$var wire 1 *! Mult0|auto_generated|mac_out2_DATAOUT_bus [7] $end
$var wire 1 +! Mult0|auto_generated|mac_out2_DATAOUT_bus [6] $end
$var wire 1 ,! Mult0|auto_generated|mac_out2_DATAOUT_bus [5] $end
$var wire 1 -! Mult0|auto_generated|mac_out2_DATAOUT_bus [4] $end
$var wire 1 .! Mult0|auto_generated|mac_out2_DATAOUT_bus [3] $end
$var wire 1 /! Mult0|auto_generated|mac_out2_DATAOUT_bus [2] $end
$var wire 1 0! Mult0|auto_generated|mac_out2_DATAOUT_bus [1] $end
$var wire 1 1! Mult0|auto_generated|mac_out2_DATAOUT_bus [0] $end
$var wire 1 2! Mult0|auto_generated|mac_mult1_DATAOUT_bus [17] $end
$var wire 1 3! Mult0|auto_generated|mac_mult1_DATAOUT_bus [16] $end
$var wire 1 4! Mult0|auto_generated|mac_mult1_DATAOUT_bus [15] $end
$var wire 1 5! Mult0|auto_generated|mac_mult1_DATAOUT_bus [14] $end
$var wire 1 6! Mult0|auto_generated|mac_mult1_DATAOUT_bus [13] $end
$var wire 1 7! Mult0|auto_generated|mac_mult1_DATAOUT_bus [12] $end
$var wire 1 8! Mult0|auto_generated|mac_mult1_DATAOUT_bus [11] $end
$var wire 1 9! Mult0|auto_generated|mac_mult1_DATAOUT_bus [10] $end
$var wire 1 :! Mult0|auto_generated|mac_mult1_DATAOUT_bus [9] $end
$var wire 1 ;! Mult0|auto_generated|mac_mult1_DATAOUT_bus [8] $end
$var wire 1 <! Mult0|auto_generated|mac_mult1_DATAOUT_bus [7] $end
$var wire 1 =! Mult0|auto_generated|mac_mult1_DATAOUT_bus [6] $end
$var wire 1 >! Mult0|auto_generated|mac_mult1_DATAOUT_bus [5] $end
$var wire 1 ?! Mult0|auto_generated|mac_mult1_DATAOUT_bus [4] $end
$var wire 1 @! Mult0|auto_generated|mac_mult1_DATAOUT_bus [3] $end
$var wire 1 A! Mult0|auto_generated|mac_mult1_DATAOUT_bus [2] $end
$var wire 1 B! Mult0|auto_generated|mac_mult1_DATAOUT_bus [1] $end
$var wire 1 C! Mult0|auto_generated|mac_mult1_DATAOUT_bus [0] $end
$upscope $end
$upscope $end
$enddefinitions $end
#0
$dumpvars
b10010001 !
b1011010 "
02
11
00
1/
1.
1-
1,
1+
0*
1)
0(
0'
1&
1%
0$
0#
x3
04
15
x6
17
18
19
0:
0;
0<
1=
0>
1?
1@
1A
1B
1C
0D
1E
0F
0G
1H
1I
0J
0K
1L
0M
0N
0O
1P
0Q
0R
1S
0T
1U
0V
1W
1X
0Y
1Z
0[
0\
1]
0^
1_
1`
1a
1b
1c
0d
1e
0f
0g
1h
1i
0j
0k
0l
0m
0n
1o
0p
1q
1r
1s
1t
1u
0v
1w
0x
0y
1z
1{
0|
0}
01!
00!
0/!
1.!
0-!
1,!
1+!
1*!
1)!
1(!
0'!
1&!
0%!
0$!
1#!
1"!
0!!
0~
0C!
0B!
0A!
1@!
0?!
1>!
1=!
1<!
1;!
1:!
09!
18!
07!
06!
15!
14!
03!
02!
$end
#10000
b10001 !
b11001 !
b11011010 "
b11011011 "
03
1T
1[
1O
0S
04!
17!
08!
19!
0:!
0=!
0>!
1A!
1\
0_
0`
0c
1d
0e
1f
0i
0"!
1%!
0&!
1'!
0(!
0+!
0,!
1/!
0{
1x
0w
1v
0u
0r
0q
1n
1<
0?
0@
0C
1D
0E
1F
0I
12
0/
0.
0+
1*
0)
1(
0%
#20000
b1011001 !
b1111001 !
b1101001 !
b1101101 !
b10011011 "
b10011001 "
b10011000 "
13
0T
0U
0Z
1N
0P
1Q
1R
13!
05!
07!
09!
1:!
0;!
1=!
1>!
0@!
0A!
0\
0]
1_
1`
0b
1c
0d
0f
0h
1j
1!!
0#!
0%!
0'!
1(!
0)!
1+!
1,!
0.!
0/!
1|
0z
0x
0v
1u
0t
1r
1q
0o
0n
0<
0=
1?
1@
0B
1C
0D
0F
0H
1J
02
01
1/
1.
0,
1+
0*
0(
0&
1$
#30000
b1101111 !
b1101110 !
b10011100 "
b11101110 !
b11100110 !
b11100 "
b11110110 !
b11110010 !
b1011100 "
b1011110 "
03
1U
1V
1Z
0[
0L
1M
0N
0O
1P
1S
15!
16!
1;!
0<!
1?!
1^
0a
1b
1g
1h
1#!
1$!
1)!
0*!
1-!
1z
1y
1t
0s
1p
1>
0A
1B
1G
1H
10
0-
1,
1'
1&
#40000
b1010110 "
b11010010 !
b11010000 !
b1010010 "
b11011000 !
b11011100 !
13
0M
1N
1O
0Q
0V
0W
05!
06!
17!
18!
0:!
1<!
0?!
0^
1a
0c
1e
1f
0g
0h
0#!
0$!
1%!
1&!
0(!
1*!
0-!
0z
0y
1x
1w
0u
1s
0p
0>
1A
0C
1E
1F
0G
0H
00
1-
0+
1)
1(
0'
0&
#50000
b1110010 "
b1100010 "
b11001100 !
b1100000 "
b11001000 !
03
0N
0P
0U
0X
1Y
16!
07!
19!
0;!
0<!
0=!
0>!
0_
0`
0a
0b
1d
0f
1g
1$!
0%!
1'!
0)!
0*!
0+!
0,!
1y
0x
1v
0t
0s
0r
0q
0?
0@
0A
0B
1D
0F
1G
0/
0.
0-
0,
1*
0(
1'
#60000
b1001000 !
b11100000 "
b11100100 "
b1000000 !
b1000100 !
13
1V
1[
1N
0O
0S
03!
14!
15!
17!
08!
09!
1:!
1=!
1`
1c
0d
0e
1f
1h
1i
0j
0!!
1"!
1#!
1%!
0&!
0'!
1(!
1+!
0|
1{
1z
1x
0w
0v
1u
1r
1@
1C
0D
0E
1F
1H
1I
0J
1.
1+
0*
0)
1(
1&
1%
0$
#70000
b100 !
b11110100 "
b10100 !
b10010100 !
03
1X
1P
0R
1S
12!
04!
05!
19!
0:!
0c
1d
0h
0i
1k
1~
0"!
0#!
1'!
0(!
1}
0{
0z
1v
0u
0C
1D
0H
0I
1K
0+
1*
0&
0%
1#
#80000
b10010101 !
b10110100 "
b10110101 !
b10010100 "
b10111101 !
13
0Y
0Z
1L
1O
1Q
02!
13!
14!
1;!
0=!
1?!
1^
0`
1b
1i
1j
0k
0~
1!!
1"!
1)!
0+!
1-!
0}
1|
1{
1t
0r
1p
1>
0@
1B
1I
1J
0K
10
0.
1,
1%
1$
0#
#90000
b10010101 "
b10011101 "
b10111111 !
b10011111 "
b10111011 !
b111011 !
b11011111 "
b11111111 "
b110011 !
03
1M
0N
0O
0S
1T
1U
1W
1Y
1Z
03!
15!
06!
07!
18!
09!
1:!
1>!
1A!
1\
1_
1c
0d
1e
0f
0g
1h
0j
0!!
1#!
0$!
0%!
1&!
0'!
1(!
1,!
1/!
0|
1z
0y
0x
1w
0v
1u
1q
1n
1<
1?
1C
0D
1E
0F
0G
1H
0J
12
1/
1+
0*
1)
0(
0'
1&
0$
#100000
b1111111 "
b1111011 "
b100011 !
b1110011 "
b100001 !
b1010011 "
b101001 !
13
0M
1O
0P
0V
0W
0Y
0[
04!
05!
16!
17!
08!
19!
0:!
0?!
1@!
1]
0^
0c
1d
0e
1f
1g
0h
0i
0"!
0#!
1$!
1%!
0&!
1'!
0(!
0-!
1.!
0{
0z
1y
1x
0w
1v
0u
0p
1o
1=
0>
0C
1D
0E
1F
1G
0H
0I
11
00
0+
1*
0)
1(
1'
0&
0%
#110000
b1101001 !
b1000011 "
b1101000 !
b1001000 !
b1000010 "
b11001000 !
b10 "
b110 "
b100110 "
b11000000 !
03
0T
1V
0X
1Y
0Z
0L
0O
0Q
1R
1S
15!
09!
1:!
0;!
0>!
0@!
0A!
0\
0]
0_
0b
1c
0d
1h
1#!
0'!
1(!
0)!
0,!
0.!
0/!
1z
0v
1u
0t
0q
0o
0n
0<
0=
0?
0B
1C
0D
1H
02
01
0/
0,
1+
0*
1&
#120000
b100100 "
b10100100 "
b10101100 "
b11000010 !
b10111100 "
b11000011 !
b10111101 "
13
1L
1M
1T
0U
1W
1X
1[
12!
05!
18!
19!
1;!
1<!
1=!
1?!
1@!
1A!
1\
1]
1^
1`
1a
1b
1d
1e
0h
1k
1~
0#!
1&!
1'!
1)!
1*!
1+!
1-!
1.!
1/!
1}
0z
1w
1v
1t
1s
1r
1p
1o
1n
1<
1=
1>
1@
1A
1B
1D
1E
0H
1K
12
11
10
1.
1-
1,
1*
1)
0&
1#
#130000
b11100011 !
b10011101 "
b11101011 !
b10010101 "
b10000101 "
03
0W
0X
0Y
1O
1Q
02!
13!
14!
15!
07!
09!
0:!
0;!
0<!
0a
0b
0c
0d
0f
1h
1i
1j
0k
0~
1!!
1"!
1#!
0%!
0'!
0(!
0)!
0*!
0}
1|
1{
1z
0x
0v
0u
0t
0s
0A
0B
0C
0D
0F
1H
1I
1J
0K
0-
0,
0+
0*
0(
1&
1%
1$
0#
#140000
b11101111 !
b11111111 !
b10000001 "
b10000011 "
b11 "
b11111101 !
b11111100 !
13
1U
0V
0[
0L
0M
1N
1P
03!
04!
05!
06!
1:!
1;!
1<!
0@!
0A!
0\
0]
1a
1b
1c
0g
0h
0i
0j
0!!
0"!
0#!
0$!
1(!
1)!
1*!
0.!
0/!
0|
0{
0z
0y
1u
1t
1s
0o
0n
0<
0=
1A
1B
1C
0G
0H
0I
0J
02
01
1-
1,
1+
0'
0&
0%
0$
#150000
b1111100 !
b1000011 "
b1000010 "
b1001010 "
b1101100 !
b1001110 "
b1001100 "
b1101110 !
b1101111 !
03
0T
0U
1V
1W
1Z
1L
1M
0P
0S
14!
08!
0e
1i
1"!
0&!
1{
0w
0E
1I
0)
1%
#160000
b1001111 !
b1101100 "
b1111100 "
b1001011 !
b11111100 "
b11001011 !
b10111100 "
b10111110 "
13
1U
1X
1Y
0Z
1[
0N
0Q
1S
12!
04!
15!
17!
18!
0;!
0=!
1>!
0?!
1@!
1]
0^
1_
0`
0b
1e
1f
1h
0i
1k
1~
0"!
1#!
1%!
1&!
0)!
0+!
1,!
0-!
1.!
1}
0{
1z
1x
1w
0t
0r
1q
0p
1o
1=
0>
1?
0@
0B
1E
1F
1H
0I
1K
11
00
1/
0.
0,
1)
1(
1&
0%
1#
#170000
b11000011 !
b10110110 "
b11010011 !
b10110010 "
b11010010 !
b10100010 "
b100010 "
b1010010 !
b1100010 "
03
0V
0W
0X
1Z
0[
0L
0O
1P
0S
02!
16!
19!
0:!
1;!
0>!
1?!
0@!
0]
1^
0_
1b
0c
1d
1g
0k
0~
1$!
1'!
0(!
1)!
0,!
1-!
0.!
0}
1y
1v
0u
1t
0q
1p
0o
0=
1>
0?
1B
0C
1D
1G
0K
01
10
0/
1,
0+
1*
1'
0#
#180000
b10010 !
b1100011 "
b110010 !
b1100001 "
b111010 !
b101010 !
b10101010 !
b100001 "
13
1T
0U
0Z
1O
0P
1Q
0R
1S
06!
08!
1:!
1>!
0?!
1@!
1]
0^
1_
1c
0e
0g
0$!
0&!
1(!
1,!
0-!
1.!
0y
0w
1u
1q
0p
1o
1=
0>
1?
1C
0E
0G
11
00
1/
1+
0)
0'
#190000
b110001 "
b10110001 "
b10001010 !
b10000010 !
b11110001 "
03
0O
0Q
1X
1Z
1[
13!
14!
16!
07!
18!
09!
0:!
0>!
0_
0c
0d
1e
0f
1g
1i
1j
1!!
1"!
1$!
0%!
1&!
0'!
0(!
0,!
1|
1{
1y
0x
1w
0v
0u
0q
0?
0C
0D
1E
0F
1G
1I
1J
0/
0+
0*
1)
0(
1'
1%
1$
#200000
b10000000 !
b11111001 "
b11000000 !
b11111000 "
b11010000 !
b1010000 !
b11101000 "
b1101000 "
b1110000 !
13
0T
1W
0X
0[
0M
1P
1Q
1R
0S
03!
05!
17!
08!
19!
1:!
0;!
0<!
0@!
0]
0a
0b
1c
1d
0e
1f
0h
0j
0!!
0#!
1%!
0&!
1'!
1(!
0)!
0*!
0.!
0|
0z
1x
0w
1v
1u
0t
0s
0o
0=
0A
0B
1C
1D
0E
1F
0H
0J
01
0-
0,
1+
1*
0)
1(
0&
0$
#210000
b1110100 !
b1110101 !
b1101010 "
b101010 "
b1110111 !
b111010 "
b10111010 "
b1010111 !
03
1U
1X
0Z
1[
1L
1M
1N
0Q
15!
18!
0:!
1<!
1=!
1?!
1@!
1]
1^
1`
1a
0c
1e
1h
1#!
1&!
0(!
1*!
1+!
1-!
1.!
1z
1w
0u
1s
1r
1p
1o
1=
1>
1@
1A
0C
1E
1H
11
10
1.
1-
0+
1)
1&
#220000
b10111110 "
b10111 !
b10111111 "
b111 !
b110 !
b10111101 "
b11111101 "
b11101101 "
13
0L
0P
0R
1T
0U
1V
0X
1Z
04!
05!
06!
08!
1:!
0<!
0=!
1>!
1_
0`
0a
1c
0e
0g
0h
0i
0"!
0#!
0$!
0&!
1(!
0*!
0+!
1,!
0{
0z
0y
0w
1u
0s
0r
1q
1?
0@
0A
1C
0E
0G
0H
0I
1/
0.
0-
1+
0)
0'
0&
0%
#230000
b11001101 "
b1110 !
b1100 !
b101100 !
b11001001 "
b1101100 !
b11001000 "
b1101101 !
b10001000 "
b10011000 "
03
1L
0M
1O
1Q
1R
0T
0V
1X
0Y
0Z
13!
07!
09!
1<!
1=!
0?!
0@!
0]
0^
1`
1a
0d
0f
1j
1!!
0%!
0'!
1*!
1+!
0-!
0.!
1|
0x
0v
1s
1r
0p
0o
0=
0>
1@
1A
0D
0F
1J
01
00
1.
1-
0*
0(
1$
#240000
b11101101 !
b11101001 !
b11111001 !
b10011010 "
b11110001 !
b11010001 !
b10011110 "
b10011111 "
b11010000 !
b11011111 "
b11001111 "
13
1T
1U
1V
0X
1Z
0L
0N
0O
1P
0Q
1S
12!
03!
14!
16!
0:!
0>!
0_
0c
1g
1i
0j
1k
1~
0!!
1"!
1$!
0(!
0,!
1}
0|
1{
1y
0u
0q
0?
0C
1G
1I
0J
1K
0/
0+
1'
1%
0$
1#
#250000
b11000111 "
b1000111 "
b1100111 "
b10010000 !
b1100101 "
b10011000 !
b10111000 !
b1100001 "
b1100000 "
b10111001 !
b1110000 "
03
1L
1O
1Q
0R
0T
0U
0V
0W
1X
1Y
0[
02!
13!
04!
15!
06!
1:!
1;!
1b
1c
0g
1h
0i
1j
0k
0~
1!!
0"!
1#!
0$!
1(!
1)!
0}
1|
0{
1z
0y
1u
1t
1B
1C
0G
1H
0I
1J
0K
1,
1+
0'
1&
0%
1$
0#
#260000
b10111011 !
b10111111 !
b1111000 "
b1011000 "
b1011010 "
b1011011 "
13
1T
1U
1W
0Y
1M
1N
05!
18!
19!
0=!
1?!
1A!
1\
1^
0`
1d
1e
0h
0#!
1&!
1'!
0+!
1-!
1/!
0z
1w
1v
0r
1p
1n
1<
1>
0@
1D
1E
0H
12
10
0.
1*
1)
0&
#270000
b11011 "
b11111 "
b1111 "
b111 "
b100111 "
b100101 "
b100100 "
03
0T
0U
1V
0W
0X
1Y
0Z
03!
15!
16!
09!
0<!
1=!
1>!
0A!
0\
1_
1`
0a
0d
1g
1h
0j
0!!
1#!
1$!
0'!
0*!
1+!
1,!
0/!
0|
1z
1y
0v
0s
1r
1q
0n
0<
1?
1@
0A
0D
1G
1H
0J
02
1/
1.
0-
0*
1'
1&
0$
#280000
b111111 !
b101111 !
b100111 !
b100110 !
b100100 !
b100000 !
b1100100 "
b1101100 "
b1001100 "
b1001101 "
13
1T
1W
0Y
1Z
0L
0M
0N
0O
0P
0S
05!
08!
19!
0;!
1<!
0=!
0>!
0?!
0^
0_
0`
1a
0b
1d
0e
0h
0#!
0&!
1'!
0)!
1*!
0+!
0,!
0-!
0z
0w
1v
0t
1s
0r
0q
0p
0>
0?
0@
1A
0B
1D
0E
0H
00
0/
0.
1-
0,
1*
0)
0&
#290000
b11001101 "
b0 !
b11001001 "
b1000 !
b11101001 "
03
1O
0Q
0V
1Y
1[
06!
17!
18!
0:!
1;!
0<!
1>!
1_
0a
1b
0c
1e
1f
0g
0$!
1%!
1&!
0(!
1)!
0*!
1,!
0y
1x
1w
0u
1t
0s
1q
1?
0A
1B
0C
1E
1F
0G
1/
0-
1,
0+
1)
1(
0'
#300000
b11111001 "
b10001000 !
b10011000 !
b10011010 !
b1111001 "
b10111010 !
b10110010 !
13
1M
0O
1P
1Q
1S
1X
0[
13!
15!
08!
09!
0;!
1<!
0>!
1@!
1]
0_
1a
0b
0d
0e
1h
1j
1!!
1#!
0&!
0'!
0)!
1*!
0,!
1.!
1|
1z
0w
0v
0t
1s
0q
1o
1=
0?
1A
0B
0D
0E
1H
1J
11
0/
1-
0,
0*
0)
1&
1$
#310000
b1110001 "
b1110000 "
b1110100 "
b1100100 "
b110010 !
b100010 !
03
0P
0S
0T
1V
0W
0X
03!
05!
16!
19!
1;!
0<!
1>!
0@!
0]
1_
0a
1b
1d
1g
0h
0j
0!!
0#!
1$!
1'!
1)!
0*!
1,!
0.!
0|
0z
1y
1v
1t
0s
1q
0o
0=
1?
0A
1B
1D
1G
0H
0J
01
1/
0-
1,
1*
1'
0&
0$
#320000
b100011 !
b100100 "
b100 "
b100001 !
b10000100 "
b1 !
b10000101 "
b10000001 "
b10000001 !
13
1T
0V
0Y
0Z
1[
1L
0M
0Q
1S
13!
06!
07!
0;!
0>!
1A!
1\
0_
0b
0f
0g
1j
1!!
0$!
0%!
0)!
0,!
1/!
1|
0y
0x
0t
0q
1n
1<
0?
0B
0F
0G
1J
12
0/
0,
0(
0'
1$
#330000
b11000001 !
b10000011 "
b11001001 !
b10010011 "
b11011001 !
b11010011 "
b11010010 "
03
0T
1U
1X
1Z
1O
1P
1R
12!
03!
14!
15!
18!
09!
1@!
0A!
0\
1]
0d
1e
1h
1i
0j
1k
1~
0!!
1"!
1#!
1&!
0'!
1.!
0/!
1}
0|
1{
1z
1w
0v
1o
0n
0<
1=
0D
1E
1H
1I
0J
1K
02
11
0*
1)
1&
1%
0$
1#
#340000
b11011010 "
b11011000 !
b1011000 !
b11011000 "
b1010000 !
b11001000 "
b10001000 "
13
0L
0O
0S
0U
1W
0X
0Z
02!
05!
16!
1:!
0@!
0]
1c
1g
0h
0k
0~
0#!
1$!
1(!
0.!
0}
0z
1y
1u
0o
0=
1C
1G
0H
0K
01
1+
1'
0&
0#
#350000
b1010100 !
b1110100 !
b10001100 "
b110100 !
b10001101 "
b110101 !
b111101 !
b10011101 "
b11011101 "
03
1T
1V
1X
1Z
1L
1N
1O
1Q
0R
15!
06!
17!
08!
1<!
1>!
1A!
1\
1_
1a
0e
1f
0g
1h
1#!
0$!
1%!
0&!
1*!
1,!
1/!
1z
0y
1x
0w
1s
1q
1n
1<
1?
1A
0E
1F
0G
1H
12
1/
1-
0)
1(
0'
1&
#360000
b11111101 "
b111111 !
b1111101 "
b1110101 "
b1110111 "
b11111 !
b1011111 !
b1110110 "
b1010111 !
b1100110 "
b100110 "
13
1M
0O
0Q
1R
0T
1U
0W
0X
1Y
0Z
0[
04!
05!
16!
1;!
1@!
0A!
0\
1]
1b
1g
0h
0i
0"!
0#!
1$!
1)!
1.!
0/!
0{
0z
1y
1t
1o
0n
0<
1=
1B
1G
0H
0I
02
11
1,
1'
0&
0%
#370000
b11010111 !
b100010 "
b11010110 !
b11010100 !
b10100010 "
b10101010 "
b10010100 !
b10101011 "
b10011100 !
03
1T
0V
1W
1[
0L
0M
1O
0R
1S
13!
14!
07!
0:!
0;!
1=!
0>!
1?!
0@!
0]
1^
0_
1`
0b
0c
0f
1i
1j
1!!
1"!
0%!
0(!
0)!
1+!
0,!
1-!
0.!
1|
1{
0x
0u
0t
1r
0q
1p
0o
0=
1>
0?
1@
0B
0C
0F
1I
1J
01
10
0/
1.
0,
0+
0(
1%
1$
#380000
b10001100 !
b10001000 !
b10111011 "
b10111111 "
b10001001 !
b10110111 "
b10110110 "
13
0T
1V
0W
1X
1L
0N
0P
06!
19!
1;!
0=!
1@!
1]
0`
1b
1d
0g
0$!
1'!
1)!
0+!
1.!
0y
1v
1t
0r
1o
1=
0@
1B
1D
0G
11
0.
1,
1*
0'
#390000
b10110100 "
b1001 !
b1 !
b101 !
b10111100 "
b10111101 "
03
1N
0O
0S
1T
0U
1W
03!
04!
18!
1:!
0;!
1=!
0?!
0@!
1A!
1\
0]
0^
1`
0b
1c
1e
0i
0j
0!!
0"!
1&!
1(!
0)!
1+!
0-!
0.!
1/!
0|
0{
1w
1u
0t
1r
0p
0o
1n
1<
0=
0>
1@
0B
1C
1E
0I
0J
12
01
00
1.
0,
1+
1)
0%
0$
#400000
b100101 !
b111101 "
b1100101 !
b101101 "
b101001 "
b11100101 !
b11101101 !
b11101001 !
b101000 "
13
0T
0V
0X
0[
0N
1O
1Q
1R
1S
14!
17!
08!
09!
0:!
1;!
0=!
1>!
0A!
0\
1_
0`
1b
0c
0d
0e
1f
1i
1"!
1%!
0&!
0'!
0(!
1)!
0+!
1,!
0/!
1{
1x
0w
0v
0u
1t
0r
1q
0n
0<
1?
0@
1B
0C
0D
0E
1F
1I
02
1/
0.
1,
0+
0*
0)
1(
1%
#410000
b1101000 "
b11101011 !
b11111011 !
b11111010 !
b1101010 "
b11101010 "
b10111010 !
b11111010 "
b111010 !
b110010 !
b110110 !
03
0L
1M
1N
0O
1P
0R
0S
1U
1X
1Z
1[
15!
1:!
0;!
1=!
1?!
1^
1`
0b
1c
1h
1#!
1(!
0)!
1+!
1-!
1z
1u
0t
1r
1p
1>
1@
0B
1C
1H
10
1.
0,
1+
1&
#420000
b11110010 "
b10110 !
b11110110 "
b10100 !
b10101 !
b11110100 "
b1010101 !
b11100100 "
b1011101 !
b1011001 !
13
1L
0M
0N
1O
0Q
1R
0U
1V
0W
0X
13!
04!
05!
16!
18!
19!
0:!
1;!
0<!
0=!
0>!
0_
0`
0a
1b
0c
1d
1e
1g
0h
0i
1j
1!!
0"!
0#!
1$!
1&!
1'!
0(!
1)!
0*!
0+!
0,!
1|
0{
0z
1y
1w
1v
0u
1t
0s
0r
0q
0?
0@
0A
1B
0C
1D
1E
1G
0H
0I
1J
0/
0.
0-
1,
0+
1*
1)
1'
0&
0%
1$
#430000
b11000100 "
b1000100 "
b1001100 "
b11001 !
b10001 !
b10101 !
03
1N
0O
0R
1W
0Y
0[
03!
06!
09!
0;!
1<!
1=!
1>!
1_
1`
1a
0b
0d
0g
0j
0!!
0$!
0'!
0)!
1*!
1+!
1,!
0|
0y
0v
0t
1s
1r
1q
1?
1@
1A
0B
0D
0G
0J
1/
1.
1-
0,
0*
0'
0$
#440000
b1001101 "
b101 !
b10000101 !
b10000100 !
b1001111 "
b1011111 "
b1111111 "
b11111111 "
b10000000 !
13
0L
0N
0P
1S
1T
1U
1X
1Y
1[
13!
14!
15!
16!
19!
1:!
0<!
0=!
0>!
0?!
0^
0_
0`
0a
1c
1d
1g
1h
1i
1j
1!!
1"!
1#!
1$!
1'!
1(!
0*!
0+!
0,!
0-!
1|
1{
1z
1y
1v
1u
0s
0r
0q
0p
0>
0?
0@
0A
1C
1D
1G
1H
1I
1J
00
0/
0.
0-
1+
1*
1'
1&
1%
1$
#450000
b10111111 "
b10100000 !
b10111011 "
b10101000 !
b10111010 "
b10111000 !
b111000 !
b10011010 "
03
1O
1P
1Q
0S
0T
0V
0Y
0Z
03!
05!
06!
07!
08!
1<!
1=!
1`
1a
0e
0f
0g
0h
0j
0!!
0#!
0$!
0%!
0&!
1*!
1+!
0|
0z
0y
0x
0w
1s
1r
1@
1A
0E
0F
0G
0H
0J
1.
1-
0)
0(
0'
0&
0$
#460000
b10010010 "
b1111000 !
b1111001 !
b10010000 "
b10000000 "
b0 "
b100 "
b1110001 !
b1100001 !
13
1L
0O
0P
1R
0U
1V
0W
0X
0[
04!
0<!
0=!
1?!
1^
0`
0a
0i
0"!
0*!
0+!
1-!
0{
0s
0r
1p
1>
0@
0A
0I
10
0.
0-
0%
