RTL/crossbar/simulation/qsim/cross_bar.msim.vcd
$comment
	File created using the following command:
		vcd file cross_bar.msim.vcd -direction
$end
$date
	Mon Aug 21 22:12:35 2023
$end
$version
	ModelSim Version 10.4
$end
$timescale
	1ps
$end

$scope module cross_bar_vlg_vec_tst $end
$var reg 16 ! IN0 [15:0] $end
$var reg 16 " IN1 [15:0] $end
$var reg 16 # IN2 [15:0] $end
$var reg 16 $ IN3 [15:0] $end
$var reg 2 % SEL0 [1:0] $end
$var reg 2 & SEL1 [1:0] $end
$var reg 2 ' SEL2 [1:0] $end
$var reg 2 ( SEL3 [1:0] $end
$var wire 1 ) OUT0 [15] $end
$var wire 1 * OUT0 [14] $end
$var wire 1 + OUT0 [13] $end
$var wire 1 , OUT0 [12] $end
$var wire 1 - OUT0 [11] $end
$var wire 1 . OUT0 [10] $end
$var wire 1 / OUT0 [9] $end
$var wire 1 0 OUT0 [8] $end
$var wire 1 1 OUT0 [7] $end
$var wire 1 2 OUT0 [6] $end
$var wire 1 3 OUT0 [5] $end
$var wire 1 4 OUT0 [4] $end
$var wire 1 5 OUT0 [3] $end
$var wire 1 6 OUT0 [2] $end
$var wire 1 7 OUT0 [1] $end
$var wire 1 8 OUT0 [0] $end
$var wire 1 9 OUT1 [15] $end
$var wire 1 : OUT1 [14] $end
$var wire 1 ; OUT1 [13] $end
$var wire 1 < OUT1 [12] $end
$var wire 1 = OUT1 [11] $end
$var wire 1 > OUT1 [10] $end
$var wire 1 ? OUT1 [9] $end
$var wire 1 @ OUT1 [8] $end
$var wire 1 A OUT1 [7] $end
$var wire 1 B OUT1 [6] $end
$var wire 1 C OUT1 [5] $end
$var wire 1 D OUT1 [4] $end
$var wire 1 E OUT1 [3] $end
$var wire 1 F OUT1 [2] $end
$var wire 1 G OUT1 [1] $end
$var wire 1 H OUT1 [0] $end
$var wire 1 I OUT2 [15] $end
$var wire 1 J OUT2 [14] $end
$var wire 1 K OUT2 [13] $end
$var wire 1 L OUT2 [12] $end
$var wire 1 M OUT2 [11] $end
$var wire 1 N OUT2 [10] $end
$var wire 1 O OUT2 [9] $end
$var wire 1 P OUT2 [8] $end
$var wire 1 Q OUT2 [7] $end
$var wire 1 R OUT2 [6] $end
$var wire 1 S OUT2 [5] $end
$var wire 1 T OUT2 [4] $end
$var wire 1 U OUT2 [3] $end
$var wire 1 V OUT2 [2] $end
$var wire 1 W OUT2 [1] $end
$var wire 1 X OUT2 [0] $end
$var wire 1 Y OUT3 [15] $end
$var wire 1 Z OUT3 [14] $end
$var wire 1 [ OUT3 [13] $end
$var wire 1 \ OUT3 [12] $end
$var wire 1 ] OUT3 [11] $end
$var wire 1 ^ OUT3 [10] $end
$var wire 1 _ OUT3 [9] $end
$var wire 1 ` OUT3 [8] $end
$var wire 1 a OUT3 [7] $end
$var wire 1 b OUT3 [6] $end
$var wire 1 c OUT3 [5] $end
$var wire 1 d OUT3 [4] $end
$var wire 1 e OUT3 [3] $end
$var wire 1 f OUT3 [2] $end
$var wire 1 g OUT3 [1] $end
$var wire 1 h OUT3 [0] $end
$var wire 1 i sampler $end

$scope module i1 $end
$var wire 1 j gnd $end
$var wire 1 k vcc $end
$var wire 1 l unknown $end
$var tri1 1 m devclrn $end
$var tri1 1 n devpor $end
$var tri1 1 o devoe $end
$var wire 1 p OUT0[0]~output_o $end
$var wire 1 q OUT0[1]~output_o $end
$var wire 1 r OUT0[2]~output_o $end
$var wire 1 s OUT0[3]~output_o $end
$var wire 1 t OUT0[4]~output_o $end
$var wire 1 u OUT0[5]~output_o $end
$var wire 1 v OUT0[6]~output_o $end
$var wire 1 w OUT0[7]~output_o $end
$var wire 1 x OUT0[8]~output_o $end
$var wire 1 y OUT0[9]~output_o $end
$var wire 1 z OUT0[10]~output_o $end
$var wire 1 { OUT0[11]~output_o $end
$var wire 1 | OUT0[12]~output_o $end
$var wire 1 } OUT0[13]~output_o $end
$var wire 1 ~ OUT0[14]~output_o $end
$var wire 1 !! OUT0[15]~output_o $end
$var wire 1 "! OUT1[0]~output_o $end
$var wire 1 #! OUT1[1]~output_o $end
$var wire 1 $! OUT1[2]~output_o $end
$var wire 1 %! OUT1[3]~output_o $end
$var wire 1 &! OUT1[4]~output_o $end
$var wire 1 '! OUT1[5]~output_o $end
$var wire 1 (! OUT1[6]~output_o $end
$var wire 1 )! OUT1[7]~output_o $end
$var wire 1 *! OUT1[8]~output_o $end
$var wire 1 +! OUT1[9]~output_o $end
$var wire 1 ,! OUT1[10]~output_o $end
$var wire 1 -! OUT1[11]~output_o $end
$var wire 1 .! OUT1[12]~output_o $end
$var wire 1 /! OUT1[13]~output_o $end
$var wire 1 0! OUT1[14]~output_o $end
$var wire 1 1! OUT1[15]~output_o $end
$var wire 1 2! OUT2[0]~output_o $end
$var wire 1 3! OUT2[1]~output_o $end
$var wire 1 4! OUT2[2]~output_o $end
$var wire 1 5! OUT2[3]~output_o $end
$var wire 1 6! OUT2[4]~output_o $end
$var wire 1 7! OUT2[5]~output_o $end
$var wire 1 8! OUT2[6]~output_o $end
$var wire 1 9! OUT2[7]~output_o $end
$var wire 1 :! OUT2[8]~output_o $end
$var wire 1 ;! OUT2[9]~output_o $end
$var wire 1 <! OUT2[10]~output_o $end
$var wire 1 =! OUT2[11]~output_o $end
$var wire 1 >! OUT2[12]~output_o $end
$var wire 1 ?! OUT2[13]~output_o $end
$var wire 1 @! OUT2[14]~output_o $end
$var wire 1 A! OUT2[15]~output_o $end
$var wire 1 B! OUT3[0]~output_o $end
$var wire 1 C! OUT3[1]~output_o $end
$var wire 1 D! OUT3[2]~output_o $end
$var wire 1 E! OUT3[3]~output_o $end
$var wire 1 F! OUT3[4]~output_o $end
$var wire 1 G! OUT3[5]~output_o $end
$var wire 1 H! OUT3[6]~output_o $end
$var wire 1 I! OUT3[7]~output_o $end
$var wire 1 J! OUT3[8]~output_o $end
$var wire 1 K! OUT3[9]~output_o $end
$var wire 1 L! OUT3[10]~output_o $end
$var wire 1 M! OUT3[11]~output_o $end
$var wire 1 N! OUT3[12]~output_o $end
$var wire 1 O! OUT3[13]~output_o $end
$var wire 1 P! OUT3[14]~output_o $end
$var wire 1 Q! OUT3[15]~output_o $end
$var wire 1 R! IN2[0]~input_o $end
$var wire 1 S! IN0[0]~input_o $end
$var wire 1 T! IN1[0]~input_o $end
$var wire 1 U! SEL0[1]~input_o $end
$var wire 1 V! SEL0[0]~input_o $end
$var wire 1 W! OUT0~0_combout $end
$var wire 1 X! IN3[0]~input_o $end
$var wire 1 Y! OUT0~1_combout $end
$var wire 1 Z! IN3[1]~input_o $end
$var wire 1 [! IN1[1]~input_o $end
$var wire 1 \! IN0[1]~input_o $end
$var wire 1 ]! IN2[1]~input_o $end
$var wire 1 ^! OUT0~2_combout $end
$var wire 1 _! OUT0~3_combout $end
$var wire 1 `! IN3[2]~input_o $end
$var wire 1 a! IN2[2]~input_o $end
$var wire 1 b! IN1[2]~input_o $end
$var wire 1 c! IN0[2]~input_o $end
$var wire 1 d! OUT0~4_combout $end
$var wire 1 e! OUT0~5_combout $end
$var wire 1 f! IN1[3]~input_o $end
$var wire 1 g! IN3[3]~input_o $end
$var wire 1 h! IN2[3]~input_o $end
$var wire 1 i! IN0[3]~input_o $end
$var wire 1 j! OUT0~6_combout $end
$var wire 1 k! OUT0~7_combout $end
$var wire 1 l! IN3[4]~input_o $end
$var wire 1 m! IN2[4]~input_o $end
$var wire 1 n! IN1[4]~input_o $end
$var wire 1 o! IN0[4]~input_o $end
$var wire 1 p! OUT0~8_combout $end
$var wire 1 q! OUT0~9_combout $end
$var wire 1 r! IN3[5]~input_o $end
$var wire 1 s! IN2[5]~input_o $end
$var wire 1 t! IN0[5]~input_o $end
$var wire 1 u! OUT0~10_combout $end
$var wire 1 v! IN1[5]~input_o $end
$var wire 1 w! OUT0~11_combout $end
$var wire 1 x! IN3[6]~input_o $end
$var wire 1 y! IN1[6]~input_o $end
$var wire 1 z! IN0[6]~input_o $end
$var wire 1 {! OUT0~12_combout $end
$var wire 1 |! IN2[6]~input_o $end
$var wire 1 }! OUT0~13_combout $end
$var wire 1 ~! IN1[7]~input_o $end
$var wire 1 !" IN2[7]~input_o $end
$var wire 1 "" IN0[7]~input_o $end
$var wire 1 #" OUT0~14_combout $end
$var wire 1 $" IN3[7]~input_o $end
$var wire 1 %" OUT0~15_combout $end
$var wire 1 &" IN1[8]~input_o $end
$var wire 1 '" IN0[8]~input_o $end
$var wire 1 (" OUT0~16_combout $end
$var wire 1 )" IN2[8]~input_o $end
$var wire 1 *" IN3[8]~input_o $end
$var wire 1 +" OUT0~17_combout $end
$var wire 1 ," IN3[9]~input_o $end
$var wire 1 -" IN2[9]~input_o $end
$var wire 1 ." IN0[9]~input_o $end
$var wire 1 /" OUT0~18_combout $end
$var wire 1 0" IN1[9]~input_o $end
$var wire 1 1" OUT0~19_combout $end
$var wire 1 2" IN0[10]~input_o $end
$var wire 1 3" IN1[10]~input_o $end
$var wire 1 4" OUT0~20_combout $end
$var wire 1 5" IN2[10]~input_o $end
$var wire 1 6" IN3[10]~input_o $end
$var wire 1 7" OUT0~21_combout $end
$var wire 1 8" IN3[11]~input_o $end
$var wire 1 9" IN0[11]~input_o $end
$var wire 1 :" IN2[11]~input_o $end
$var wire 1 ;" OUT0~22_combout $end
$var wire 1 <" IN1[11]~input_o $end
$var wire 1 =" OUT0~23_combout $end
$var wire 1 >" IN0[12]~input_o $end
$var wire 1 ?" IN1[12]~input_o $end
$var wire 1 @" OUT0~24_combout $end
$var wire 1 A" IN2[12]~input_o $end
$var wire 1 B" IN3[12]~input_o $end
$var wire 1 C" OUT0~25_combout $end
$var wire 1 D" IN1[13]~input_o $end
$var wire 1 E" IN2[13]~input_o $end
$var wire 1 F" IN0[13]~input_o $end
$var wire 1 G" OUT0~26_combout $end
$var wire 1 H" IN3[13]~input_o $end
$var wire 1 I" OUT0~27_combout $end
$var wire 1 J" IN2[14]~input_o $end
$var wire 1 K" IN3[14]~input_o $end
$var wire 1 L" IN1[14]~input_o $end
$var wire 1 M" IN0[14]~input_o $end
$var wire 1 N" OUT0~28_combout $end
$var wire 1 O" OUT0~29_combout $end
$var wire 1 P" IN3[15]~input_o $end
$var wire 1 Q" IN0[15]~input_o $end
$var wire 1 R" IN2[15]~input_o $end
$var wire 1 S" OUT0~30_combout $end
$var wire 1 T" IN1[15]~input_o $end
$var wire 1 U" OUT0~31_combout $end
$var wire 1 V" SEL1[1]~input_o $end
$var wire 1 W" SEL1[0]~input_o $end
$var wire 1 X" OUT1~0_combout $end
$var wire 1 Y" OUT1~1_combout $end
$var wire 1 Z" OUT1~2_combout $end
$var wire 1 [" OUT1~3_combout $end
$var wire 1 \" OUT1~4_combout $end
$var wire 1 ]" OUT1~5_combout $end
$var wire 1 ^" OUT1~6_combout $end
$var wire 1 _" OUT1~7_combout $end
$var wire 1 `" OUT1~8_combout $end
$var wire 1 a" OUT1~9_combout $end
$var wire 1 b" OUT1~10_combout $end
$var wire 1 c" OUT1~11_combout $end
$var wire 1 d" OUT1~12_combout $end
$var wire 1 e" OUT1~13_combout $end
$var wire 1 f" OUT1~14_combout $end
$var wire 1 g" OUT1~15_combout $end
$var wire 1 h" OUT1~16_combout $end
$var wire 1 i" OUT1~17_combout $end
$var wire 1 j" OUT1~18_combout $end
$var wire 1 k" OUT1~19_combout $end
$var wire 1 l" OUT1~20_combout $end
$var wire 1 m" OUT1~21_combout $end
$var wire 1 n" OUT1~22_combout $end
$var wire 1 o" OUT1~23_combout $end
$var wire 1 p" OUT1~24_combout $end
$var wire 1 q" OUT1~25_combout $end
$var wire 1 r" OUT1~26_combout $end
$var wire 1 s" OUT1~27_combout $end
$var wire 1 t" OUT1~28_combout $end
$var wire 1 u" OUT1~29_combout $end
$var wire 1 v" OUT1~30_combout $end
$var wire 1 w" OUT1~31_combout $end
$var wire 1 x" SEL2[0]~input_o $end
$var wire 1 y" SEL2[1]~input_o $end
$var wire 1 z" OUT2~0_combout $end
$var wire 1 {" OUT2~1_combout $end
$var wire 1 |" OUT2~2_combout $end
$var wire 1 }" OUT2~3_combout $end
$var wire 1 ~" OUT2~4_combout $end
$var wire 1 !# OUT2~5_combout $end
$var wire 1 "# OUT2~6_combout $end
$var wire 1 ## OUT2~7_combout $end
$var wire 1 $# OUT2~8_combout $end
$var wire 1 %# OUT2~9_combout $end
$var wire 1 &# OUT2~10_combout $end
$var wire 1 '# OUT2~11_combout $end
$var wire 1 (# OUT2~12_combout $end
$var wire 1 )# OUT2~13_combout $end
$var wire 1 *# OUT2~14_combout $end
$var wire 1 +# OUT2~15_combout $end
$var wire 1 ,# OUT2~16_combout $end
$var wire 1 -# OUT2~17_combout $end
$var wire 1 .# OUT2~18_combout $end
$var wire 1 /# OUT2~19_combout $end
$var wire 1 0# OUT2~20_combout $end
$var wire 1 1# OUT2~21_combout $end
$var wire 1 2# OUT2~22_combout $end
$var wire 1 3# OUT2~23_combout $end
$var wire 1 4# OUT2~24_combout $end
$var wire 1 5# OUT2~25_combout $end
$var wire 1 6# OUT2~26_combout $end
$var wire 1 7# OUT2~27_combout $end
$var wire 1 8# OUT2~28_combout $end
$var wire 1 9# OUT2~29_combout $end
$var wire 1 :# OUT2~30_combout $end
$var wire 1 ;# OUT2~31_combout $end
$var wire 1 <# SEL3[1]~input_o $end
$var wire 1 =# SEL3[0]~input_o $end
$var wire 1 ># OUT3~0_combout $end
$var wire 1 ?# OUT3~1_combout $end
$var wire 1 @# OUT3~2_combout $end
$var wire 1 A# OUT3~3_combout $end
$var wire 1 B# OUT3~4_combout $end
$var wire 1 C# OUT3~5_combout $end
$var wire 1 D# OUT3~6_combout $end
$var wire 1 E# OUT3~7_combout $end
$var wire 1 F# OUT3~8_combout $end
$var wire 1 G# OUT3~9_combout $end
$var wire 1 H# OUT3~10_combout $end
$var wire 1 I# OUT3~11_combout $end
$var wire 1 J# OUT3~12_combout $end
$var wire 1 K# OUT3~13_combout $end
$var wire 1 L# OUT3~14_combout $end
$var wire 1 M# OUT3~15_combout $end
$var wire 1 N# OUT3~16_combout $end
$var wire 1 O# OUT3~17_combout $end
$var wire 1 P# OUT3~18_combout $end
$var wire 1 Q# OUT3~19_combout $end
$var wire 1 R# OUT3~20_combout $end
$var wire 1 S# OUT3~21_combout $end
$var wire 1 T# OUT3~22_combout $end
$var wire 1 U# OUT3~23_combout $end
$var wire 1 V# OUT3~24_combout $end
$var wire 1 W# OUT3~25_combout $end
$var wire 1 X# OUT3~26_combout $end
$var wire 1 Y# OUT3~27_combout $end
$var wire 1 Z# OUT3~28_combout $end
$var wire 1 [# OUT3~29_combout $end
$var wire 1 \# OUT3~30_combout $end
$var wire 1 ]# OUT3~31_combout $end
$upscope $end
$upscope $end
$enddefinitions $end
#0
$dumpvars
b1001110101011000 !
b1010010010000010 "
b1010101010111110 #
b1001100001001000 $
b1 %
b0 &
b0 '
b11 (
08
17
06
05
04
03
02
11
00
0/
1.
0-
0,
1+
0*
1)
0H
0G
0F
1E
1D
0C
1B
0A
1@
0?
1>
1=
1<
0;
0:
19
0X
0W
0V
1U
1T
0S
1R
0Q
1P
0O
1N
1M
1L
0K
0J
1I
0h
0g
0f
1e
0d
0c
1b
0a
0`
0_
0^
1]
1\
0[
0Z
1Y
xi
0j
1k
xl
1m
1n
1o
0p
1q
0r
0s
0t
0u
0v
1w
0x
0y
1z
0{
0|
1}
0~
1!!
0"!
0#!
0$!
1%!
1&!
0'!
1(!
0)!
1*!
0+!
1,!
1-!
1.!
0/!
00!
11!
02!
03!
04!
15!
16!
07!
18!
09!
1:!
0;!
1<!
1=!
1>!
0?!
0@!
1A!
0B!
0C!
0D!
1E!
0F!
0G!
1H!
0I!
0J!
0K!
0L!
1M!
1N!
0O!
0P!
1Q!
0R!
0S!
0T!
0U!
1V!
0W!
0X!
0Y!
0Z!
1[!
0\!
1]!
0^!
1_!
0`!
1a!
0b!
0c!
0d!
0e!
0f!
1g!
1h!
1i!
0j!
0k!
0l!
1m!
0n!
1o!
0p!
0q!
0r!
1s!
0t!
0u!
0v!
0w!
1x!
0y!
1z!
0{!
0|!
0}!
1~!
1!"
0""
0#"
0$"
1%"
0&"
1'"
0("
0)"
0*"
0+"
0,"
1-"
0."
0/"
00"
01"
12"
13"
14"
05"
06"
17"
18"
19"
1:"
0;"
0<"
0="
1>"
0?"
0@"
0A"
1B"
0C"
1D"
1E"
0F"
0G"
0H"
1I"
0J"
0K"
0L"
0M"
0N"
0O"
1P"
1Q"
1R"
0S"
1T"
1U"
0V"
0W"
0X"
0Y"
0Z"
0["
0\"
0]"
1^"
1_"
1`"
1a"
0b"
0c"
1d"
1e"
0f"
0g"
1h"
1i"
0j"
0k"
1l"
1m"
1n"
1o"
1p"
1q"
0r"
0s"
0t"
0u"
1v"
1w"
0x"
0y"
0z"
0{"
0|"
0}"
0~"
0!#
1"#
1##
1$#
1%#
0&#
0'#
1(#
1)#
0*#
0+#
1,#
1-#
0.#
0/#
10#
11#
12#
13#
14#
15#
06#
07#
08#
09#
1:#
1;#
1<#
1=#
1>#
0?#
1@#
0A#
1B#
0C#
1D#
1E#
1F#
0G#
1H#
0I#
1J#
1K#
1L#
0M#
1N#
0O#
1P#
0Q#
1R#
0S#
1T#
1U#
1V#
1W#
1X#
0Y#
1Z#
0[#
1\#
1]#
$end
#25000
b1101110101011000 !
b1111110101011000 !
b1111100101011000 !
b1111101101011000 !
b1111101001011000 !
b1111101011011000 !
b1111101011001000 !
b1111101011000000 !
b1111101011000100 !
b1111101011000110 !
b1111101011000111 !
0i
1S!
1\!
1c!
0i!
0o!
1""
0'"
1."
02"
1F"
1M"
1z"
1X"
1|"
1Z"
1~"
1\"
0"#
0^"
0$#
0`"
1*#
1f"
0,#
0h"
1.#
1j"
00#
0l"
16#
1r"
18#
1t"
1{"
1Y"
1}"
1["
1!#
1]"
0##
0_"
0%#
0a"
1+#
1g"
0-#
0i"
1/#
1k"
01#
0m"
17#
1s"
19#
1u"
10!
1@!
1/!
1?!
0,!
0<!
1+!
1;!
0*!
0:!
1)!
19!
0&!
06!
0%!
05!
1$!
14!
1#!
13!
1"!
12!
1:
1J
1;
1K
0>
0N
1?
1O
0@
0P
1A
1Q
0D
0T
0E
0U
1F
1V
1G
1W
1H
1X
#50000
b1110101011000111 !
b1110001011000111 !
b1000010010000010 "
b1001010010000010 "
b1001011010000010 "
b1001011000000010 "
b1001011000010010 "
b1001011000011010 "
b1001011000011110 "
b1001011000011111 "
b10101010111110 #
b110101010111110 #
b110001010111110 #
b110000010111110 #
b110000110111110 #
b110000110101110 #
b110000110100110 #
b110000110100100 #
b1000100001001000 $
b1000101001001000 $
b1000101011001000 $
b1000101011011000 $
b1000101011010000 $
b1000101011010100 $
b1000101011010101 $
b10 &
b11 &
b1 (
b0 (
b1010001011000111 !
b1010011011000111 !
b1010011111000111 !
b1010011111000011 !
b1010011111000001 !
b1010011111000000 !
1i
0=#
0<#
1W"
1V"
1X!
1`!
0g!
1l!
1$"
1,"
0B"
0]!
0h!
0m!
1)"
0-"
0:"
1J"
0R"
1T!
1b!
1f!
1n!
0~!
10"
1?"
0D"
0S!
0\!
0c!
1'"
12"
09"
0>"
0M"
0Z#
1Y#
0V#
0T#
1Q#
1M#
1I#
0H#
0F#
0D#
0B#
1A#
0@#
0>#
1[#
1S#
1O#
1G#
1C#
1?#
0s"
1l"
1h"
1b"
1`"
1_"
1^"
0["
0u"
0q"
1i"
1k!
0%"
11"
0|"
02#
0z"
1W!
0~"
1d!
1p!
04#
1@"
0I"
1,#
10#
08#
0}
1y
0w
1s
1*!
0.!
00!
0#!
1%!
0/!
1B!
1D!
1F!
1J!
1L!
1P!
1C!
1G!
1I!
1K!
1O!
0[#
0W#
0U#
0I#
0G#
0E#
0C#
0A#
0?#
0i"
1a"
0_"
0}"
03#
0{"
1Y!
0!#
1e!
1q!
05#
1C"
1-#
11#
09#
0+
1/
01
15
1@
0<
0:
0G
1E
0;
1h
1f
1d
1`
1^
1Z
1g
1c
1a
1_
1[
0@!
1<!
1:!
1|
0>!
1t
1r
04!
1p
02!
0=!
03!
0%!
1&!
0*!
0B!
0C!
0D!
0E!
0F!
0G!
0M!
0N!
0P!
0J
1N
1P
1,
0L
14
16
0V
18
0X
0M
0W
0E
1D
0@
0h
0g
0f
0e
0d
0c
0]
0\
0Z
#75000
b1010011110000000 !
b1000011110000000 !
b1000010110000000 !
b1000010100000000 !
b1000010100010000 !
b1000010100011000 !
b1000000100011000 !
b1000000100011100 !
b1000000100011101 !
0i
1S!
1c!
1i!
1o!
0z!
0""
0."
02"
0F"
1>#
1z"
1B#
1~"
1D#
1"#
1F#
1$#
0J#
0(#
0L#
0*#
0P#
0.#
0R#
00#
0X#
06#
1?#
1{"
1C#
1!#
1E#
1##
1G#
1%#
0K#
0)#
0M#
0+#
0Q#
0/#
0S#
01#
0Y#
07#
0?!
0O!
0<!
0L!
0;!
0K!
09!
0I!
08!
0H!
16!
1F!
15!
1E!
14!
1D!
12!
1B!
0K
0[
0N
0^
0O
0_
0Q
0a
0R
0b
1T
1d
1U
1e
1V
1f
1X
1h
#100000
b1000000100111101 !
b1101011000011111 "
b1101001000011111 "
b110010110100100 #
b110010111100100 #
b110010111100000 #
b101011010101 $
b101111010101 $
b101111010111 $
b11 %
b10 '
b1001000100111101 !
b1111001000011111 "
b1110001000011111 "
b1110001000001111 "
b1110001000000111 "
b1110001000000011 "
b110110111100000 #
b110111111100000 #
b110111111110000 #
b1101111010111 $
b1101111000111 $
b1101111001111 $
b1101111001110 $
b1 &
b10 (
b11 (
b1001000100111111 !
b1001000101111111 !
b1001001101111111 !
b1001001111111111 !
b1001001111111110 !
1i
1=#
1<#
0V"
1y"
1U!
0X!
1Z!
1g!
0l!
1*"
1B"
0P"
0a!
1m!
1|!
1-"
15"
1:"
0b!
0f!
0n!
03"
0?"
1D"
1L"
0S!
1\!
1t!
1z!
1""
1."
1>"
0]#
1Z#
1Y#
1X#
1V#
1T#
1R#
1Q#
1P#
1L#
1J#
1H#
1A#
1@#
1[#
1S#
1K#
0G#
0?#
0v"
1u"
0r"
1q"
0p"
0n"
1m"
0l"
0j"
1i"
0h"
0f"
0d"
0b"
0`"
0^"
0\"
0Z"
0:#
19#
16#
12#
11#
1.#
0,#
1*#
1)#
1&#
0%#
0$#
0"#
0~"
0{"
0z"
1S"
1O"
1N"
1G"
1;"
07"
1/"
1+"
1("
1#"
1}!
1{!
1u!
0q!
1j!
1^!
0Y!
1["
1_"
0k!
0w"
1I"
1}
01!
0s
1%!
1#!
0p
0t
1v
1x
0z
1~
02!
06!
18!
1<!
1@!
1*!
1,!
1.!
10!
0B!
0F!
1H!
1L!
1P!
1C!
1K!
1O!
0Q!
0[#
0Y#
1W#
1U#
0S#
1M#
1w"
1s"
0q"
0o"
0m"
0i"
0g"
0e"
0a"
0_"
0]"
0;#
17#
13#
1/#
1+#
1'#
1%#
0##
0!#
0U"
0O"
0I"
1="
1%"
1k!
1+
09
05
1E
1G
08
04
12
10
0.
1*
0X
0T
1R
1N
1J
1@
1>
1<
1:
0h
0d
1b
1^
1Z
1g
1_
1[
0Y
1s
1w
1{
0}
0~
0!!
04!
05!
16!
17!
19!
1;!
1=!
1?!
0A!
0$!
0%!
0&!
0(!
0)!
0*!
0,!
0-!
0.!
1/!
11!
1I!
0L!
1M!
1N!
0O!
0P!
15
11
1-
0+
0*
0)
0V
0U
1T
1S
1Q
1O
1M
1K
0I
0F
0E
0D
0B
0A
0@
0>
0=
0<
1;
19
1a
0^
1]
1\
0[
0Z
#125000
b10 %
b1001101111111110 !
b1101101111111110 !
b1101101011111110 !
b1101111011111110 !
b1100111011111110 !
b1100111011111100 !
b1100111001111100 !
b1100111001111101 !
0i
1S!
0\!
0""
0'"
12"
19"
0>"
1M"
0V!
0W!
0^!
0("
04"
0@"
0N"
1U"
0S"
1I"
0{!
1w!
0p!
0j!
0d!
1u
1}
1!!
0_!
17"
0C"
1O"
0U"
1q!
0k!
0e!
13
1+
1)
0r
0s
1t
0!!
1~
0|
1z
0q
06
05
14
0)
1*
0,
1.
07
#150000
b100111001111101 !
b1110101000000011 "
b1110101100000011 "
b1110101100100011 "
b1110101100100001 "
b111111111110000 #
b111111101110000 #
b111111101010000 #
b111111101010001 #
b11101111001110 $
b11001111001110 $
b1110101100100000 "
b1111111101010001 #
b1111111001010001 #
b11001111001010 $
b110111001111101 !
b110111001101101 !
b110111001100101 !
b1010101100100000 "
b1010111100100000 "
b1111101001010001 #
b1111101001010101 #
b11001011001010 $
b11001011001000 $
b0 '
b1000111100100000 "
b1000111100110000 "
b1000111100111000 "
b1000111100111100 "
b1111100001010101 #
b1111100001000101 #
b11001011011000 $
b1 (
b0 (
b110111000100101 !
b110110000100101 !
b110100000100101 !
b111100000100101 !
b111100000100100 !
1i
0=#
0<#
0y"
0Z!
0`!
1l!
0*"
08"
1H"
1R!
1a!
0m!
0s!
0!"
0)"
0-"
05"
1A"
1R"
0T!
0[!
1b!
1f!
1n!
1v!
1&"
13"
1<"
0D"
0L"
0S!
0i!
0o!
0z!
0."
02"
1>"
1F"
0Q"
1]#
0\#
1Y#
0R#
0P#
0N#
0L#
0J#
1I#
0F#
0D#
0@#
0>#
1[#
1S#
1G#
1?#
09#
18#
14#
01#
0.#
0-#
0*#
0)#
0%#
1~"
0["
1e!
0q!
0+"
1o"
0s"
1Y!
0u!
0#"
0/"
07"
1C"
1S"
0X"
1\"
1_"
1`"
1c"
1h"
1l"
0t"
1'!
1%!
1|
0z
1p
0/!
1-!
0x
0t
1r
0#!
06!
08!
0:!
0<!
0@!
1B!
1F!
1L!
1P!
1G!
1O!
1Q!
0]#
0S#
0Q#
0O#
0M#
0K#
0G#
0E#
0A#
0?#
19#
15#
0/#
0+#
1!#
0w!
0%"
01"
1U"
0Y"
1]"
1a"
1i"
1m"
0u"
1C
1E
1,
0.
18
0;
1=
00
04
16
0G
0T
0R
0P
0N
0J
1h
1d
1^
1Z
1c
1[
1Y
00!
1,!
1*!
1&!
1$!
0"!
1!!
0y
0w
0u
14!
09!
0;!
1>!
1@!
0B!
0C!
0E!
0F!
0H!
0I!
0J!
0K!
0L!
0Q!
0:
1>
1@
1D
1F
0H
1)
0/
01
03
1V
0Q
0O
1L
1J
0h
0g
0e
0d
0b
0a
0`
0_
0^
0Y
#175000
b111100000000100 !
b11 %
b111000000000100 !
b11000000000100 !
b11000100000100 !
b11000110000100 !
b1000110000100 !
b1000110001100 !
b1000111001100 !
0i
1V!
1i!
0t!
1z!
1""
1'"
09"
0F"
0M"
0U"
1N"
1@"
0="
14"
11"
1/"
1("
1#"
1{!
1w!
1u!
1p!
1k!
1j!
1d!
1^!
1W!
1D#
1"#
0H#
0&#
1J#
1(#
1L#
1*#
1N#
1,#
0T#
02#
0X#
06#
0Z#
08#
1s
1u
1y
0{
0!!
0O"
1%"
0w!
1q!
0e!
0Y!
1E#
1##
0I#
0'#
1K#
1)#
1M#
1+#
1O#
1-#
0U#
03#
0Y#
07#
0[#
09#
15
13
1/
0-
0)
0@!
0P!
0?!
0O!
0=!
0M!
1:!
1J!
19!
1I!
18!
1H!
07!
0G!
15!
1E!
0p
0r
1t
0u
1w
0~
0J
0Z
0K
0[
0M
0]
1P
1`
1Q
1a
1R
1b
0S
0c
1U
1e
08
06
14
03
11
0*
#200000
b1000111101111100 "
b1101100001000101 #
b11001010011000 $
b11001010111000 $
b1 '
b1101100001001101 #
b1101100001001111 #
b11001000111000 $
b0 &
b1101100000001111 #
b1 %
b1001111101111100 "
b11001000111001 $
b10 &
b1000111001110 !
b1001000111001110 !
b1001011101111100 "
b1001011001111100 "
b1001011001111110 "
b1101100000101111 #
b1101100000101110 #
b1001000111001 $
b1001000111101 $
b1101011001111110 "
b1101100000101010 #
b1001100111101 $
b1001100111111 $
b1101011001110110 "
b1101101000101010 #
b1001010111001110 !
b1000010111001110 !
b1000010111001111 !
b1000010101001111 !
b1010010101001111 !
b1010010101000111 !
1i
1S!
1\!
0i!
0""
12"
0>"
1F"
1Q"
0U!
0W"
1V"
1x"
1X!
1Z!
1`!
1r!
0x!
0$"
1*"
0H"
0R!
1]!
0a!
1h!
1s!
0|!
1-"
0E"
1[!
0f!
1y!
0&"
0<"
1?"
1L"
1>#
0W!
1@#
1Z"
0^!
0D#
0"#
1^"
0j!
0L#
0*#
0#"
1R#
10#
0l"
0V#
1X#
0G"
1\#
1v"
0S"
1O"
0;"
17"
0/"
1+"
0("
0u!
1e!
1Y!
0w"
0o"
1n"
0k"
1j"
0h"
0c"
1b"
0`"
0_"
0\"
1u"
1q"
0m"
1;#
18#
1/#
0,#
0+#
1'#
1$#
1}"
1_!
1w!
0%"
0I"
0}
0w
1u
1q
13!
17!
09!
1;!
1A!
0,!
1.!
10!
0%!
0'!
0+!
0-!
01!
1p
1r
1x
1z
1~
1?#
0Y!
1A#
1["
0E#
0##
1_"
0k!
0M#
1S#
11#
0W#
1Y#
1]#
1w"
1U"
0+"
1o"
1k"
0i"
1c"
0a"
0]"
19#
0-#
1%#
0+
01
13
17
1W
1S
0Q
1O
1I
0>
1<
1:
0E
0C
0?
0=
09
18
16
10
1.
1*
16!
0:!
1@!
0$!
0&!
1'!
0*!
1+!
1-!
0x
1!!
11!
1Q!
1O!
0N!
1<!
1L!
0I!
0s
1%!
05!
0E!
1#!
1C!
0p
1B!
1T
0P
1J
0F
0D
1C
0@
1?
1=
00
1)
19
1Y
1[
0\
1N
1^
0a
05
1E
0U
0e
1G
1g
08
1h
